
DisplayName "Ancient Temple Ruins 3F"



EVENT   1
 PAGE   1
  250(bytes(0x04,0x08,0x6f,0x3a,0x0c,0x52,0x50,0x47,0x3a,0x3a,0x53,0x45,0x08,0x3a,0x0a,0x40,0x6e,0x61,0x6d,0x65,0x49,0x22,0x09,0x4d,0x6f,0x76,0x65,0x06,0x3a,0x06,0x45,0x54,0x3a,0x0b,0x40,0x70,0x69,0x74,0x63,0x68,0x69,0x69,0x3a,0x0c,0x40,0x76,0x6f,0x6c,0x75,0x6d,0x65,0x69,0x55))
  TeleportPlayer(0,113,25,22,0,0)
  0()



EVENT   2
 PAGE   1
  250(bytes(0x04,0x08,0x6f,0x3a,0x0c,0x52,0x50,0x47,0x3a,0x3a,0x53,0x45,0x08,0x3a,0x0a,0x40,0x6e,0x61,0x6d,0x65,0x49,0x22,0x09,0x4d,0x6f,0x76,0x65,0x06,0x3a,0x06,0x45,0x54,0x3a,0x0b,0x40,0x70,0x69,0x74,0x63,0x68,0x69,0x69,0x3a,0x0c,0x40,0x76,0x6f,0x6c,0x75,0x6d,0x65,0x69,0x55))
  TeleportPlayer(0,113,25,22,0,0)
  0()



EVENT   3
 PAGE   1
  250(bytes(0x04,0x08,0x6f,0x3a,0x0c,0x52,0x50,0x47,0x3a,0x3a,0x53,0x45,0x08,0x3a,0x0a,0x40,0x6e,0x61,0x6d,0x65,0x49,0x22,0x09,0x4d,0x6f,0x76,0x65,0x06,0x3a,0x06,0x45,0x54,0x3a,0x0b,0x40,0x70,0x69,0x74,0x63,0x68,0x69,0x69,0x3a,0x0c,0x40,0x76,0x6f,0x6c,0x75,0x6d,0x65,0x69,0x55))
  TeleportPlayer(0,113,25,22,0,0)
  0()



EVENT   4
 PAGE   1
  250(bytes(0x04,0x08,0x6f,0x3a,0x0c,0x52,0x50,0x47,0x3a,0x3a,0x53,0x45,0x08,0x3a,0x0a,0x40,0x6e,0x61,0x6d,0x65,0x49,0x22,0x09,0x4d,0x6f,0x76,0x65,0x06,0x3a,0x06,0x45,0x54,0x3a,0x0b,0x40,0x70,0x69,0x74,0x63,0x68,0x69,0x69,0x3a,0x0c,0x40,0x76,0x6f,0x6c,0x75,0x6d,0x65,0x69,0x55))
  TeleportPlayer(0,113,25,22,0,0)
  0()



EVENT   5
 PAGE   1
  250(bytes(0x04,0x08,0x6f,0x3a,0x0c,0x52,0x50,0x47,0x3a,0x3a,0x53,0x45,0x08,0x3a,0x0a,0x40,0x6e,0x61,0x6d,0x65,0x49,0x22,0x09,0x4d,0x6f,0x76,0x65,0x06,0x3a,0x06,0x45,0x54,0x3a,0x0b,0x40,0x70,0x69,0x74,0x63,0x68,0x69,0x69,0x3a,0x0c,0x40,0x76,0x6f,0x6c,0x75,0x6d,0x65,0x69,0x55))
  TeleportPlayer(0,113,25,22,0,0)
  0()



EVENT   6
 PAGE   1
  If(12,"unlock_level < 1")
   ShowMessageFace("",0,0,2,1)
   ShowMessage("The chest is locked.")
   EndEventProcessing()
   0()
  EndIf()
  250(bytes(0x04,0x08,0x6f,0x3a,0x0c,0x52,0x50,0x47,0x3a,0x3a,0x53,0x45,0x08,0x3a,0x0a,0x40,0x6e,0x61,0x6d,0x65,0x49,0x22,0x0a,0x43,0x68,0x65,0x73,0x74,0x06,0x3a,0x06,0x45,0x54,0x3a,0x0b,0x40,0x70,0x69,0x74,0x63,0x68,0x69,0x69,0x3a,0x0c,0x40,0x76,0x6f,0x6c,0x75,0x6d,0x65,0x69,0x55))
  205(0,bytes(0x04,0x08,0x6f,0x3a,0x13,0x52,0x50,0x47,0x3a,0x3a,0x4d,0x6f,0x76,0x65,0x52,0x6f,0x75,0x74,0x65,0x09,0x3a,0x0c,0x40,0x72,0x65,0x70,0x65,0x61,0x74,0x46,0x3a,0x0f,0x40,0x73,0x6b,0x69,0x70,0x70,0x61,0x62,0x6c,0x65,0x46,0x3a,0x0a,0x40,0x77,0x61,0x69,0x74,0x54,0x3a,0x0a,0x40,0x6c,0x69,0x73,0x74,0x5b,0x0b,0x6f,0x3a,0x15,0x52,0x50,0x47,0x3a,0x3a,0x4d,0x6f,0x76,0x65,0x43,0x6f,0x6d,0x6d,0x61,0x6e,0x64,0x07,0x3a,0x0a,0x40,0x63,0x6f,0x64,0x65,0x69,0x29,0x3a,0x10,0x40,0x70,0x61,0x72,0x61,0x6d,0x65,0x74,0x65,0x72,0x73,0x5b,0x00,0x6f,0x3b,0x0a,0x07,0x3b,0x0b,0x69,0x16,0x3b,0x0c,0x5b,0x00,0x6f,0x3b,0x0a,0x07,0x3b,0x0b,0x69,0x14,0x3b,0x0c,0x5b,0x06,0x69,0x08,0x6f,0x3b,0x0a,0x07,0x3b,0x0b,0x69,0x17,0x3b,0x0c,0x5b,0x00,0x6f,0x3b,0x0a,0x07,0x3b,0x0b,0x69,0x14,0x3b,0x0c,0x5b,0x06,0x69,0x08,0x6f,0x3b,0x0a,0x07,0x3b,0x0b,0x69,0x00,0x3b,0x0c,0x5b,0x00))
  ChangeSelfSwitch("A",0)
  ChangeInventory_Item(709,0,0,1)
  0()
 PAGE   2
  // condition: self-switch A is ON
  0()



EVENT   7
 PAGE   1
  250(bytes(0x04,0x08,0x6f,0x3a,0x0c,0x52,0x50,0x47,0x3a,0x3a,0x53,0x45,0x08,0x3a,0x0a,0x40,0x6e,0x61,0x6d,0x65,0x49,0x22,0x0a,0x43,0x68,0x65,0x73,0x74,0x06,0x3a,0x06,0x45,0x54,0x3a,0x0b,0x40,0x70,0x69,0x74,0x63,0x68,0x69,0x69,0x3a,0x0c,0x40,0x76,0x6f,0x6c,0x75,0x6d,0x65,0x69,0x55))
  205(0,bytes(0x04,0x08,0x6f,0x3a,0x13,0x52,0x50,0x47,0x3a,0x3a,0x4d,0x6f,0x76,0x65,0x52,0x6f,0x75,0x74,0x65,0x09,0x3a,0x0c,0x40,0x72,0x65,0x70,0x65,0x61,0x74,0x46,0x3a,0x0f,0x40,0x73,0x6b,0x69,0x70,0x70,0x61,0x62,0x6c,0x65,0x46,0x3a,0x0a,0x40,0x77,0x61,0x69,0x74,0x54,0x3a,0x0a,0x40,0x6c,0x69,0x73,0x74,0x5b,0x0b,0x6f,0x3a,0x15,0x52,0x50,0x47,0x3a,0x3a,0x4d,0x6f,0x76,0x65,0x43,0x6f,0x6d,0x6d,0x61,0x6e,0x64,0x07,0x3a,0x0a,0x40,0x63,0x6f,0x64,0x65,0x69,0x29,0x3a,0x10,0x40,0x70,0x61,0x72,0x61,0x6d,0x65,0x74,0x65,0x72,0x73,0x5b,0x00,0x6f,0x3b,0x0a,0x07,0x3b,0x0b,0x69,0x16,0x3b,0x0c,0x5b,0x00,0x6f,0x3b,0x0a,0x07,0x3b,0x0b,0x69,0x14,0x3b,0x0c,0x5b,0x06,0x69,0x08,0x6f,0x3b,0x0a,0x07,0x3b,0x0b,0x69,0x17,0x3b,0x0c,0x5b,0x00,0x6f,0x3b,0x0a,0x07,0x3b,0x0b,0x69,0x14,0x3b,0x0c,0x5b,0x06,0x69,0x08,0x6f,0x3b,0x0a,0x07,0x3b,0x0b,0x69,0x00,0x3b,0x0c,0x5b,0x00))
  ChangeSelfSwitch("A",0)
  ChangeInventory_Item(75,0,0,1)
  0()
 PAGE   2
  // condition: self-switch A is ON
  0()



EVENT   8
 PAGE   1
  If(12,"unlock_level < 2")
   ShowMessageFace("",0,0,2,1)
   ShowMessage("The chest is locked.")
   EndEventProcessing()
   0()
  EndIf()
  250(bytes(0x04,0x08,0x6f,0x3a,0x0c,0x52,0x50,0x47,0x3a,0x3a,0x53,0x45,0x08,0x3a,0x0a,0x40,0x6e,0x61,0x6d,0x65,0x49,0x22,0x0a,0x43,0x68,0x65,0x73,0x74,0x06,0x3a,0x06,0x45,0x54,0x3a,0x0b,0x40,0x70,0x69,0x74,0x63,0x68,0x69,0x69,0x3a,0x0c,0x40,0x76,0x6f,0x6c,0x75,0x6d,0x65,0x69,0x55))
  205(0,bytes(0x04,0x08,0x6f,0x3a,0x13,0x52,0x50,0x47,0x3a,0x3a,0x4d,0x6f,0x76,0x65,0x52,0x6f,0x75,0x74,0x65,0x09,0x3a,0x0c,0x40,0x72,0x65,0x70,0x65,0x61,0x74,0x46,0x3a,0x0f,0x40,0x73,0x6b,0x69,0x70,0x70,0x61,0x62,0x6c,0x65,0x46,0x3a,0x0a,0x40,0x77,0x61,0x69,0x74,0x54,0x3a,0x0a,0x40,0x6c,0x69,0x73,0x74,0x5b,0x0b,0x6f,0x3a,0x15,0x52,0x50,0x47,0x3a,0x3a,0x4d,0x6f,0x76,0x65,0x43,0x6f,0x6d,0x6d,0x61,0x6e,0x64,0x07,0x3a,0x0a,0x40,0x63,0x6f,0x64,0x65,0x69,0x29,0x3a,0x10,0x40,0x70,0x61,0x72,0x61,0x6d,0x65,0x74,0x65,0x72,0x73,0x5b,0x00,0x6f,0x3b,0x0a,0x07,0x3b,0x0b,0x69,0x16,0x3b,0x0c,0x5b,0x00,0x6f,0x3b,0x0a,0x07,0x3b,0x0b,0x69,0x14,0x3b,0x0c,0x5b,0x06,0x69,0x08,0x6f,0x3b,0x0a,0x07,0x3b,0x0b,0x69,0x17,0x3b,0x0c,0x5b,0x00,0x6f,0x3b,0x0a,0x07,0x3b,0x0b,0x69,0x14,0x3b,0x0c,0x5b,0x06,0x69,0x08,0x6f,0x3b,0x0a,0x07,0x3b,0x0b,0x69,0x00,0x3b,0x0c,0x5b,0x00))
  ChangeSelfSwitch("A",0)
  ChangeInventoryArmor(1116,0,0,1)
  0()
 PAGE   2
  // condition: self-switch A is ON
  0()



EVENT   9
 PAGE   1
  0()



EVENT   10
 PAGE   1
  0()



EVENT   11
 PAGE   1
  0()



EVENT   12
 PAGE   1
  0()



EVENT   13
 PAGE   1
  0()



EVENT   14
 PAGE   1
  0()



EVENT   15
 PAGE   1
  0()



EVENT   16
 PAGE   1
  0()



EVENT   17
 PAGE   1
  ChangeSelfSwitch("A",0)
  ShowMessageFace("saniria_fc1",0,0,2,1)
  ShowMessage("\\n<King of San Ilia>This is the final floor. We're almost at the deepest section.")
  If(0,6,0)
   ShowMessageFace("sonia_fc2",2,0,2,2)
   ShowMessage("\\n<Sonya>But what are you going to do in there? You aren't seriously going to pray there, right?")
   0()
  Else()
   ShowMessageFace("ruka_fc1",0,0,2,3)
   ShowMessage("\\n<Luka>But what will you do in there? You don't really intend to pray there, right?")
   0()
  EndIf()
  ShowMessageFace("saniria_fc1",0,0,2,4)
  ShowMessage("\\n<King of San Ilia>Mm, that supposed ritual is just a ruse to deceive outsiders. I actually have something more important to do in there.")
  If(0,6,0)
   ShowMessageFace("saniria_fc1",0,0,2,5)
   ShowMessage("\\n<King of San Ilia>I believed we mentioned Lazarus earlier. He was involved in the attempt to assassinate me.")
   0()
  Else()
   ShowMessageFace("saniria_fc1",0,0,2,6)
   ShowMessage("\\n<King of San Ilia>I've heard that Lazarus has been taking care of you, but... he was involved in the attempt to assassinate me.")
   0()
  EndIf()
  If(0,6,0)
   ShowMessageFace("sonia_fc3",7,0,2,7)
   ShowMessage("\\n<Sonya>Uncle Lazarus was...?")
   0()
  Else()
   ShowMessageFace("ruka_fc1",0,0,2,8)
   ShowMessage("\\n<Luka>Uncle Lazarus was involved...?")
   0()
  EndIf()
  ShowMessageFace("saniria_fc1",0,0,2,9)
  ShowMessage("\\n<King of San Ilia>As far the public knows, I came out of that explosion with just some minor injuries. But, in reality, I was seriously wounded and nearly died.")
  ShowMessageFace("saniria_fc1",0,0,2,10)
  ShowMessage("\\n<King of San Ilia>I was in too hopeless a state for conventional medicine to do anything. On the brink of death, I was brought to this facility.")
  If(0,4,0)
   ShowMessageFace("alice_fc5",0,0,2,11)
   ShowMessage("\\n<Alice>I see. So there's a cutting-edge treatment facility in here. You've studied this technology enough to be able to use it.")
   0()
  EndIf()
  If(0,5,0)
   ShowMessageFace("iriasu_fc4",2,0,2,12)
   ShowMessage("\\n<Ilias>I see, so there's a cutting-edge treatment facility in here. You've researched this technology enough to be able to use it.")
   0()
  EndIf()
  ShowMessageFace("saniria_fc1",0,0,2,13)
  ShowMessage("\\n<King of San Ilia>Mm, that's how it is. Thanks to that, I was able to remain alive.")
  ShowMessageFace("saniria_fc1",0,0,2,14)
  ShowMessage("\\n<King of San Ilia>But, also thanks to that treatment, I've ended up with a rather cumbersome body. Once a year, I need to undergo a bit of a tune-up.")
  If(0,6,0)
   ShowMessageFace("sonia_fc2",2,0,2,15)
   ShowMessage("\\n<Sonya>So to receive that treatment, you have to go this far... Those are some complicated circumstances.")
   ShowMessageFace("sonia_fc2",2,0,2,16)
   ShowMessage("\\n<Sonya>But Uncle Lazarus isn't the culprit. He was just falsely accused.")
   0()
  Else()
   ShowMessageFace("ruka_fc1",0,0,2,17)
   ShowMessage("\\n<Luka>So in order to receive that treatment, you go all the way out here... These are some complicated circumstances.")
   ShowMessageFace("ruka_fc1",0,0,2,18)
   ShowMessage("\\n<Luka>But Uncle Lazarus wasn't the culprit. He just got falsely accused.")
   0()
  EndIf()
  ShowMessageFace("saniria_fc1",3,0,2,19)
  ShowMessage("\\n<King of San Ilia>The reason I cannot forgive the perpetrator is because they used a bomb. They used such a device, despite the danger they can pose to so many people.")
  ShowMessageFace("saniria_fc1",3,0,2,20)
  ShowMessage("\\n<King of San Ilia>And how foolish, to use a timed bomb. If my schedule had changed even slightly, their plan would have failed completely.")
  ShowMessageFace("saniria_fc1",3,0,2,21)
  ShowMessage("\\n<King of San Ilia>They could have used a remote or pressure-activated bomb. Why use something as devoid of craft as a timed bomb?")
  ShowMessageFace("saniria_fc1",3,0,2,22)
  ShowMessage("\\n<King of San Ilia>Had they utilized a pressure-sensitive sensor on my chair, they would have only required a tiny explosion. Despite that, they used such childish technology...")
  If(0,6,0)
   ShowMessageFace("sonia_fc3",2,0,2,23)
   ShowMessage("\\n<Sonya>Y-your Holiness?!")
   0()
  Else()
   ShowMessageFace("ruka_fc1",0,0,2,24)
   ShowMessage("\\n<Luka>Y-your Holiness?")
   0()
  EndIf()
  ShowMessageFace("saniria_fc1",0,0,2,25)
  ShowMessage("\\n<King of San Ilia>...Excuse me. Let's proceed.")
  ShowMessageFace("ruka_fc1",0,0,2,26)
  ShowMessage("\\n<Luka>......")
  If(4,41,0)
   ShowMessageFace("stein_fc2",1,0,2,27)
   ShowMessage("\\n<Promestein>Look, a touch screen! And it even reads vein patterns!")
   If(0,6,0)
    ShowMessageFace("sonia_fc2",2,0,2,28)
    ShowMessage("\\n<Sonya>She's having fun...")
    0()
   Else()
    ShowMessageFace("ruka_fc1",0,0,2,29)
    ShowMessage("\\n<Luka>She's having fun...")
    0()
   EndIf()
   0()
  EndIf()
  0()
 PAGE   2
  // condition: self-switch A is ON
  0()




EVENT   18
 PAGE   1
  // condition: variable 1022 >= 5
  ChangeSwitch(31,31,1)
  205(-1,bytes(0x04,0x08,0x6f,0x3a,0x13,0x52,0x50,0x47,0x3a,0x3a,0x4d,0x6f,0x76,0x65,0x52,0x6f,0x75,0x74,0x65,0x09,0x3a,0x0c,0x40,0x72,0x65,0x70,0x65,0x61,0x74,0x46,0x3a,0x0f,0x40,0x73,0x6b,0x69,0x70,0x70,0x61,0x62,0x6c,0x65,0x46,0x3a,0x0a,0x40,0x77,0x61,0x69,0x74,0x54,0x3a,0x0a,0x40,0x6c,0x69,0x73,0x74,0x5b,0x0d,0x6f,0x3a,0x15,0x52,0x50,0x47,0x3a,0x3a,0x4d,0x6f,0x76,0x65,0x43,0x6f,0x6d,0x6d,0x61,0x6e,0x64,0x07,0x3a,0x0a,0x40,0x63,0x6f,0x64,0x65,0x69,0x09,0x3a,0x10,0x40,0x70,0x61,0x72,0x61,0x6d,0x65,0x74,0x65,0x72,0x73,0x5b,0x00,0x6f,0x3b,0x0a,0x07,0x3b,0x0b,0x69,0x09,0x3b,0x0c,0x5b,0x00,0x6f,0x3b,0x0a,0x07,0x3b,0x0b,0x69,0x09,0x3b,0x0c,0x5b,0x00,0x6f,0x3b,0x0a,0x07,0x3b,0x0b,0x69,0x09,0x3b,0x0c,0x5b,0x00,0x6f,0x3b,0x0a,0x07,0x3b,0x0b,0x69,0x09,0x3b,0x0c,0x5b,0x00,0x6f,0x3b,0x0a,0x07,0x3b,0x0b,0x69,0x09,0x3b,0x0c,0x5b,0x00,0x6f,0x3b,0x0a,0x07,0x3b,0x0b,0x69,0x09,0x3b,0x0c,0x5b,0x00,0x6f,0x3b,0x0a,0x07,0x3b,0x0b,0x69,0x00,0x3b,0x0c,0x5b,0x00))
  217()
  PictureDisplay(5,"80_saniria_st01",0,0,0,0,100,100,0,0)
  PictureMove(5,null,0,0,0,0,100,100,255,0,30,true)
  ShowMessageFace("saniria_fc1",0,0,2,1)
  ShowMessage("\\n<King of San Ilia>Mm, this is the deepest part of the laboratory. More than half of the equipment here is still functioning.")
  PictureClear(5)
  ShowMessageFace("",0,0,2,2)
  ShowMessage("Highly advanced machines are lined up along the wall with a large capsule filled with liquid directly in front of us.")
  ShowMessageFace("ruka_fc1",0,0,2,3)
  ShowMessage("\\n<Luka>Eh? There's something inside...")
  ShowMessageFace("",0,0,2,4)
  ShowMessage("Looking inside the capsule, I see...")
  241(bytes(0x04,0x08,0x6f,0x3a,0x0d,0x52,0x50,0x47,0x3a,0x3a,0x42,0x47,0x4d,0x08,0x3a,0x0a,0x40,0x6e,0x61,0x6d,0x65,0x49,0x22,0x10,0x73,0x63,0x65,0x6e,0x65,0x5f,0x73,0x69,0x6e,0x70,0x69,0x06,0x3a,0x06,0x45,0x54,0x3a,0x0c,0x40,0x76,0x6f,0x6c,0x75,0x6d,0x65,0x69,0x69,0x3a,0x0b,0x40,0x70,0x69,0x74,0x63,0x68,0x69,0x69))
  PictureDisplay(5,"iv_brunhild1",0,0,0,0,100,100,0,0)
  PictureMove(5,null,0,0,0,-510,100,100,0,0,1,true)
  PictureMove(5,null,0,0,0,-510,100,100,255,0,60,true)
  PictureMove(5,null,0,0,0,0,100,100,255,0,300,true)
  ShowMessageFace("ruka_fc1",0,0,2,5)
  ShowMessage("\\n<Luka>A girl?! No, a machine?")
  ShowMessageFace("saniria_fc1",0,0,2,6)
  ShowMessage("\\n<King of San Ilia>We call her the Sleeping Beauty. Even the church's most sophisticated technology can't activate her.")
  If(4,41,0)
   ShowMessageFace("stein_fc2",2,0,2,7)
   ShowMessage("\\n<Promestein>No way, this is... It's a completely mechanical organism. From what I see, no biological parts were used at all...")
   ShowMessageFace("stein_fc2",2,0,2,8)
   ShowMessage("\\n<Promestein>Just how advanced was the technology of the people who made this laboratory? And where did those people go...?")
   0()
  EndIf()
  If(4,79,0)
   ShowMessageFace("nuruko_fc1",0,0,2,9)
   ShowMessage("\\n<Nuruko>Kyukyuu! Kyuu!")
   0()
  EndIf()
  ShowMessageFace("saniria_fc1",0,0,2,10)
  ShowMessage("\\n<King of San Ilia>Well, for now our business isn't with her, but with the other cutting-edge facilities that are here as well.")
  PictureMove(5,null,0,0,0,0,100,100,0,0,60,true)
  PictureClear(5)
  241(bytes(0x04,0x08,0x6f,0x3a,0x0d,0x52,0x50,0x47,0x3a,0x3a,0x42,0x47,0x4d,0x08,0x3a,0x0a,0x40,0x6e,0x61,0x6d,0x65,0x49,0x22,0x12,0x64,0x75,0x6e,0x67,0x65,0x6f,0x6e,0x5f,0x69,0x73,0x65,0x6b,0x69,0x06,0x3a,0x06,0x45,0x54,0x3a,0x0c,0x40,0x76,0x6f,0x6c,0x75,0x6d,0x65,0x69,0x55,0x3a,0x0b,0x40,0x70,0x69,0x74,0x63,0x68,0x69,0x69))
  ShowMessageFace("saniria_fc1",0,0,2,11)
  ShowMessage("\\n<King of San Ilia>Let's finish what we came here for. Now, to begin the maintenance...")
  TeleportEvent(19,0,23,14,0)
  205(19,bytes(0x04,0x08,0x6f,0x3a,0x13,0x52,0x50,0x47,0x3a,0x3a,0x4d,0x6f,0x76,0x65,0x52,0x6f,0x75,0x74,0x65,0x09,0x3a,0x0c,0x40,0x72,0x65,0x70,0x65,0x61,0x74,0x46,0x3a,0x0f,0x40,0x73,0x6b,0x69,0x70,0x70,0x61,0x62,0x6c,0x65,0x46,0x3a,0x0a,0x40,0x77,0x61,0x69,0x74,0x54,0x3a,0x0a,0x40,0x6c,0x69,0x73,0x74,0x5b,0x0d,0x6f,0x3a,0x15,0x52,0x50,0x47,0x3a,0x3a,0x4d,0x6f,0x76,0x65,0x43,0x6f,0x6d,0x6d,0x61,0x6e,0x64,0x07,0x3a,0x0a,0x40,0x63,0x6f,0x64,0x65,0x69,0x2a,0x3a,0x10,0x40,0x70,0x61,0x72,0x61,0x6d,0x65,0x74,0x65,0x72,0x73,0x5b,0x00,0x6f,0x3b,0x0a,0x07,0x3b,0x0b,0x69,0x22,0x3b,0x0c,0x5b,0x06,0x69,0x09,0x6f,0x3b,0x0a,0x07,0x3b,0x0b,0x69,0x23,0x3b,0x0c,0x5b,0x06,0x69,0x08,0x6f,0x3b,0x0a,0x07,0x3b,0x0b,0x69,0x07,0x3b,0x0c,0x5b,0x00,0x6f,0x3b,0x0a,0x07,0x3b,0x0b,0x69,0x07,0x3b,0x0c,0x5b,0x00,0x6f,0x3b,0x0a,0x07,0x3b,0x0b,0x69,0x07,0x3b,0x0c,0x5b,0x00,0x6f,0x3b,0x0a,0x07,0x3b,0x0b,0x69,0x09,0x3b,0x0c,0x5b,0x00,0x6f,0x3b,0x0a,0x07,0x3b,0x0b,0x69,0x00,0x3b,0x0c,0x5b,0x00))
  ShowMessageFace("saniria_fc1",0,0,2,12)
  ShowMessage("\\n<King of San Ilia>System start-up, connection start... Sorry, you'll have to wait a little until it's over.")
  If(0,6,0)
   ShowMessageFace("sonia_fc2",2,0,2,13)
   ShowMessage("\\n<Sonya>Um, that's a special medical procedure, right? Will you be okay doing it alone?")
   0()
  Else()
   ShowMessageFace("ruka_fc1",0,0,2,14)
   ShowMessage("\\n<Luka>Er, that's a special medical procedure, right? Will you be all right doing it by yourself...?")
   0()
  EndIf()
  ShowMessageFace("saniria_fc1",0,0,2,15)
  ShowMessage("\\n<King of San Ilia>The system here can be operated intuitively. It has an excellent interface.")
  ShowMessageFace("saniria_fc1",0,0,2,16)
  ShowMessage("\\n<King of San Ilia>I have a decent understanding of it too, so you needn't worry. Scanning... 10%, 20%...")
  If(4,41,0)
   ShowMessageFace("stein_fc2",1,0,2,17)
   ShowMessage("\\n<Promestein>Can I tour this place? These aren't x-rays... Neither is it magnetic resonance...")
   0()
  EndIf()
  If(0,4,0)
   ShowMessageFace("alice_fc5",0,0,2,18)
   ShowMessage("\\n<Alice>That bomb brought you to brink of death, right? No matter how advanced the medicine here is, can it heal that much?")
   0()
  EndIf()
  If(0,5,0)
   ShowMessageFace("iriasu_fc4",2,0,2,19)
   ShowMessage("\\n<Ilias>You received enough damage from that bomb to be on brink of death, didn't you? Even cutting-edge medicine shouldn't have been capable of healing that...")
   0()
  EndIf()
  ShowMessageFace("saniria_fc1",0,0,2,20)
  ShowMessage("\\n<King of San Ilia>80%, 90%... Scan complete. I lost more than half of my body to that explosion.")
  ShowMessageFace("ruka_fc1",0,0,2,21)
  ShowMessage("\\n<Luka>M-more than half of your body?!")
  250(bytes(0x04,0x08,0x6f,0x3a,0x0c,0x52,0x50,0x47,0x3a,0x3a,0x53,0x45,0x08,0x3a,0x0a,0x40,0x6e,0x61,0x6d,0x65,0x49,0x22,0x0e,0x50,0x61,0x72,0x61,0x6c,0x79,0x7a,0x65,0x31,0x06,0x3a,0x06,0x45,0x54,0x3a,0x0b,0x40,0x70,0x69,0x74,0x63,0x68,0x69,0x69,0x3a,0x0c,0x40,0x76,0x6f,0x6c,0x75,0x6d,0x65,0x69,0x55))
  ShowMessageFace("",0,0,2,22)
  ShowMessage("In my surprise I put my hand on a machine's operation panel. When I do, a shock similar to static electricity flows into me!")
  ShowMessageFace("ruka_fc1",0,0,2,23)
  ShowMessage("\\n<Luka>Wah!")
  250(bytes(0x04,0x08,0x6f,0x3a,0x0c,0x52,0x50,0x47,0x3a,0x3a,0x53,0x45,0x08,0x3a,0x0a,0x40,0x6e,0x61,0x6d,0x65,0x49,0x22,0x10,0x6d,0x6f,0x6e,0x5f,0x62,0x61,0x6b,0x75,0x7a,0x79,0x75,0x06,0x3a,0x06,0x45,0x54,0x3a,0x0b,0x40,0x70,0x69,0x74,0x63,0x68,0x69,0x69,0x3a,0x0c,0x40,0x76,0x6f,0x6c,0x75,0x6d,0x65,0x69,0x69))
  241(bytes(0x04,0x08,0x6f,0x3a,0x0d,0x52,0x50,0x47,0x3a,0x3a,0x42,0x47,0x4d,0x08,0x3a,0x0a,0x40,0x6e,0x61,0x6d,0x65,0x49,0x22,0x0a,0x6b,0x69,0x6b,0x69,0x32,0x06,0x3a,0x06,0x45,0x54,0x3a,0x0c,0x40,0x76,0x6f,0x6c,0x75,0x6d,0x65,0x69,0x69,0x3a,0x0b,0x40,0x70,0x69,0x74,0x63,0x68,0x69,0x69))
  ShowMessageFace("",0,0,2,24)
  ShowMessage("At the same time, the capsule the girl is in starts ringing, and the whole room begins to shake!")
  PictureDisplay(5,"iv_brunhild1",0,0,0,-100,100,100,0,0)
  PictureMove(5,null,0,0,0,-100,100,100,255,0,30,true)
  Wait(60)
  250(bytes(0x04,0x08,0x6f,0x3a,0x0c,0x52,0x50,0x47,0x3a,0x3a,0x53,0x45,0x08,0x3a,0x0a,0x40,0x6e,0x61,0x6d,0x65,0x49,0x22,0x0e,0x6d,0x6f,0x6e,0x5f,0x66,0x6c,0x61,0x73,0x68,0x06,0x3a,0x06,0x45,0x54,0x3a,0x0b,0x40,0x70,0x69,0x74,0x63,0x68,0x69,0x69,0x3a,0x0c,0x40,0x76,0x6f,0x6c,0x75,0x6d,0x65,0x69,0x69))
  PictureDisplay(5,"iv_brunhild2",0,0,0,-100,100,100,255,0)
  Wait(60)
  PictureDisplay(5,"iv_brunhild3",0,0,0,-100,100,100,255,0)
  ShowMessageFace("saniria_fc1",3,0,2,25)
  ShowMessage("\\n<King of San Ilia>Mmm...?")
  ShowMessageFace("ruka_fc1",0,0,2,26)
  ShowMessage("\\n<Luka>Eh?!")
  ShowMessageFace("",0,0,2,27)
  ShowMessage("The girl inside the capsule, who hadn't budged until now... suddenly opens her eyes wide!")
  PictureMove(5,null,0,0,0,-100,100,100,0,0,60,true)
  ShowMessageFace("saniria_fc1",3,0,2,28)
  ShowMessage("\\n<King of San Ilia>Impossible! Even my research team was unable to start her up...")
  If(0,4,0)
   ShowMessageFace("alice_fc5",6,0,2,29)
   ShowMessage("\\n<Alice>Luka! What on earth did you do?!")
   0()
  EndIf()
  If(0,5,0)
   ShowMessageFace("iriasu_fc4",7,0,2,30)
   ShowMessage("\\n<Ilias>Luka! What have you done?!")
   0()
  EndIf()
  ShowMessageFace("ruka_fc1",0,0,2,31)
  ShowMessage("\\n<Luka>I didn't do anything! Nothing, honest!")
  If(4,41,0)
   ShowMessageFace("stein_fc2",0,0,2,32)
   ShowMessage("\\n<Promestein>That's the stereotypical line of someone who's actually done something...")
   0()
  EndIf()
  PictureClear(5)
  Wait(15)
  250(bytes(0x04,0x08,0x6f,0x3a,0x0c,0x52,0x50,0x47,0x3a,0x3a,0x53,0x45,0x08,0x3a,0x0a,0x40,0x6e,0x61,0x6d,0x65,0x49,0x22,0x09,0x50,0x75,0x73,0x68,0x06,0x3a,0x06,0x45,0x54,0x3a,0x0b,0x40,0x70,0x69,0x74,0x63,0x68,0x69,0x69,0x3a,0x0c,0x40,0x76,0x6f,0x6c,0x75,0x6d,0x65,0x69,0x69))
  205(20,bytes(0x04,0x08,0x6f,0x3a,0x13,0x52,0x50,0x47,0x3a,0x3a,0x4d,0x6f,0x76,0x65,0x52,0x6f,0x75,0x74,0x65,0x09,0x3a,0x0c,0x40,0x72,0x65,0x70,0x65,0x61,0x74,0x46,0x3a,0x0f,0x40,0x73,0x6b,0x69,0x70,0x70,0x61,0x62,0x6c,0x65,0x46,0x3a,0x0a,0x40,0x77,0x61,0x69,0x74,0x54,0x3a,0x0a,0x40,0x6c,0x69,0x73,0x74,0x5b,0x07,0x6f,0x3a,0x15,0x52,0x50,0x47,0x3a,0x3a,0x4d,0x6f,0x76,0x65,0x43,0x6f,0x6d,0x6d,0x61,0x6e,0x64,0x07,0x3a,0x0a,0x40,0x63,0x6f,0x64,0x65,0x69,0x2a,0x3a,0x10,0x40,0x70,0x61,0x72,0x61,0x6d,0x65,0x74,0x65,0x72,0x73,0x5b,0x00,0x6f,0x3b,0x0a,0x07,0x3b,0x0b,0x69,0x00,0x3b,0x0c,0x5b,0x00))
  TeleportEvent(20,0,24,13,0)
  ShowMessageFace("",0,0,2,33)
  ShowMessage("The capsule slowly opens... and the mechanical girl stands up on her own two feet!")
  250(bytes(0x04,0x08,0x6f,0x3a,0x0c,0x52,0x50,0x47,0x3a,0x3a,0x53,0x45,0x08,0x3a,0x0a,0x40,0x6e,0x61,0x6d,0x65,0x49,0x22,0x0c,0x4d,0x61,0x63,0x68,0x69,0x6e,0x65,0x06,0x3a,0x06,0x45,0x54,0x3a,0x0b,0x40,0x70,0x69,0x74,0x63,0x68,0x69,0x69,0x3a,0x0c,0x40,0x76,0x6f,0x6c,0x75,0x6d,0x65,0x69,0x55))
  PictureDisplay(5,"80_brunhild_st11",0,0,0,0,100,100,0,0)
  PictureMove(5,null,0,0,0,0,100,100,255,0,30,true)
  ShowMessageFace("brunhild_fc1",0,0,2,34)
  ShowMessage("\\n<Machine Girl>System reboot... Current year: 1543 of Johannes calendar... Current coordinates: unknown...")
  ShowMessageFace("brunhild_fc1",0,0,2,35)
  ShowMessage("\\n<Brynhildr>Unit name: Brynhildr. Status: unknown.")
  ShowMessageFace("brunhild_fc1",0,0,2,36)
  ShowMessage("\\n<Brynhildr>...Why did Hild wake up? Hild wakes up when the world ends...")
  ShowMessageFace("brunhild_fc1",0,0,2,37)
  ShowMessage("\\n<Brynhildr>Are you destroying the world? Hild will protect the world, when the world ends...")
  If(4,41,0)
   ShowMessageFace("stein_fc2",2,0,2,38)
   ShowMessage("\\n<Promestein>As I thought, she's fully autonomous!")
   0()
  EndIf()
  If(0,6,0)
   ShowMessageFace("sonia_fc2",0,0,2,39)
   ShowMessage("\\n<Sonya>S-she's speaking?! What do I do... I'm bad with machines...")
   0()
  EndIf()
  ShowMessageFace("ruka_fc1",0,0,2,40)
  ShowMessage("\\n<Luka>C-calm down... Um, you are...?")
  241(bytes(0x04,0x08,0x6f,0x3a,0x0d,0x52,0x50,0x47,0x3a,0x3a,0x42,0x47,0x4d,0x08,0x3a,0x0a,0x40,0x6e,0x61,0x6d,0x65,0x49,0x22,0x0a,0x62,0x6f,0x73,0x73,0x30,0x06,0x3a,0x06,0x45,0x54,0x3a,0x0c,0x40,0x76,0x6f,0x6c,0x75,0x6d,0x65,0x69,0x69,0x3a,0x0b,0x40,0x70,0x69,0x74,0x63,0x68,0x69,0x69))
  250(bytes(0x04,0x08,0x6f,0x3a,0x0c,0x52,0x50,0x47,0x3a,0x3a,0x53,0x45,0x08,0x3a,0x0a,0x40,0x6e,0x61,0x6d,0x65,0x49,0x22,0x0e,0x44,0x61,0x72,0x6b,0x6e,0x65,0x73,0x73,0x35,0x06,0x3a,0x06,0x45,0x54,0x3a,0x0b,0x40,0x70,0x69,0x74,0x63,0x68,0x69,0x69,0x3a,0x0c,0x40,0x76,0x6f,0x6c,0x75,0x6d,0x65,0x69,0x55))
  PictureDisplay(5,"80_brunhild_st21",0,0,0,0,100,100,255,0)
  ShowMessageFace("brunhild_fc1",0,0,2,41)
  ShowMessage("\\n<Brynhildr>Combat mode: on. Those who destroy the world are Hild's enemies.")
  If(0,4,0)
   ShowMessageFace("alice_fc6",0,0,2,42)
   ShowMessage("\\n<Alice>Impossible! I can sense both dark and holy power? She can use both holy and dark powers at once?!")
   0()
  EndIf()
  If(0,5,0)
   ShowMessageFace("iriasu_fc4",5,0,2,43)
   ShowMessage("\\n<Ilias>No way, it can't be?! She has holy and dark powers?!")
   ShowMessageFace("iriasu_fc4",5,0,2,44)
   ShowMessage("\\n<Ilias>To think she can use both at once! Incredible, this high level of perfection for holy and dark fusion machinery is...")
   0()
  EndIf()
  If(4,41,0)
   ShowMessageFace("stein_fc2",2,0,2,45)
   ShowMessage("\\n<Promestein>Be careful, she's targeting us! We need to destroy her, otherwise we'll be the ones destroyed!")
   0()
  EndIf()
  PictureClear(5)
  Wait(15)
  205(19,bytes(0x04,0x08,0x6f,0x3a,0x13,0x52,0x50,0x47,0x3a,0x3a,0x4d,0x6f,0x76,0x65,0x52,0x6f,0x75,0x74,0x65,0x09,0x3a,0x0c,0x40,0x72,0x65,0x70,0x65,0x61,0x74,0x46,0x3a,0x0f,0x40,0x73,0x6b,0x69,0x70,0x70,0x61,0x62,0x6c,0x65,0x46,0x3a,0x0a,0x40,0x77,0x61,0x69,0x74,0x54,0x3a,0x0a,0x40,0x6c,0x69,0x73,0x74,0x5b,0x08,0x6f,0x3a,0x15,0x52,0x50,0x47,0x3a,0x3a,0x4d,0x6f,0x76,0x65,0x43,0x6f,0x6d,0x6d,0x61,0x6e,0x64,0x07,0x3a,0x0a,0x40,0x63,0x6f,0x64,0x65,0x69,0x06,0x3a,0x10,0x40,0x70,0x61,0x72,0x61,0x6d,0x65,0x74,0x65,0x72,0x73,0x5b,0x00,0x6f,0x3b,0x0a,0x07,0x3b,0x0b,0x69,0x17,0x3b,0x0c,0x5b,0x00,0x6f,0x3b,0x0a,0x07,0x3b,0x0b,0x69,0x00,0x3b,0x0c,0x5b,0x00))
  ShowMessageFace("saniria_fc1",3,0,2,46)
  ShowMessage("\\n<King of San Ilia>It seems that the situation is urgent. I'll assist you!")
  If(0,6,0)
   ShowMessageFace("sonia_fc3",7,0,2,47)
   ShowMessage("\\n<Sonya>Eh?! But Your Holiness can't fight, right?")
   0()
  Else()
   ShowMessageFace("ruka_fc1",0,0,2,48)
   ShowMessage("\\n<Luka>Eh?! But Your Holiness can't fight, right?!")
   0()
  EndIf()
  250(bytes(0x04,0x08,0x6f,0x3a,0x0c,0x52,0x50,0x47,0x3a,0x3a,0x53,0x45,0x08,0x3a,0x0a,0x40,0x6e,0x61,0x6d,0x65,0x49,0x22,0x0c,0x4d,0x61,0x63,0x68,0x69,0x6e,0x65,0x06,0x3a,0x06,0x45,0x54,0x3a,0x0b,0x40,0x70,0x69,0x74,0x63,0x68,0x69,0x69,0x3a,0x0c,0x40,0x76,0x6f,0x6c,0x75,0x6d,0x65,0x69,0x55))
  PictureDisplay(5,"80_saniria_st12",0,0,0,0,100,100,0,0)
  PictureMove(5,null,0,0,0,0,100,100,255,0,30,true)
  ChangeSwitch(31,31,0)
  ShowMessageFace("saniria_fc2",0,0,2,49)
  ShowMessage("\\n<King of San Ilia>Don't worry, my maintenance is already complete. Shifting to battle mode!")
  If(0,6,0)
   ShowMessageFace("sonia_fc3",2,0,2,50)
   ShowMessage("\\n<Sonya>Ehhh?!")
   0()
  EndIf()
  If(4,72,0)
   ShowMessageFace("phoenix_fc1",2,0,2,51)
   ShowMessage("\\n<Mini>Pooope was Mecha Pooope!")
   0()
  EndIf()
  355("add_actor_ex(531)")
  PictureDisplay(5,"80_brunhild_st21",0,0,0,0,100,100,0,0)
  PictureMove(5,null,0,0,0,0,100,100,255,0,30,true)
  If(4,129,0)
   ShowMessageFace("brunhild_fc1",0,0,2,52)
   ShowMessage("\\n<Hild>...Good morning, Hild.")
   ShowMessageFace("brunhild_fc1",2,0,2,53)
   ShowMessage("\\n<Brynhildr>The same type of machine? No, it's chaos's influence...")
   ShowMessageFace("brunhild_fc1",2,0,2,54)
   ShowMessage("\\n<Brynhildr>Class One Cross-World Contact, special matter β's generation. Erasing the target...")
   0()
  EndIf()
  ShowMessageFace("brunhild_fc1",0,0,2,55)
  ShowMessage("\\n<Brynhildr>Targeting complete. Starting combat.")
  If(0,4,0)
   ShowMessageFace("alice_fc6",1,0,2,56)
   ShowMessage("\\n<Alice>She's coming! Don't lose focus!")
   0()
  EndIf()
  If(0,5,0)
   ShowMessageFace("iriasu_fc4",7,0,2,57)
   ShowMessage("\\n<Ilias>She's approaching! Let's go full force!")
   0()
  EndIf()
  If(4,41,0)
   ShowMessageFace("stein_fc2",2,0,2,58)
   ShowMessage("\\n<Promestein>At the very least, try not to damage her head!")
   0()
  EndIf()
  TeleportEvent(19,0,49,0,4)
  TeleportEvent(20,0,49,1,2)
  PictureClear(5)
  SetBattleBGM(bytes(0x04,0x08,0x6f,0x3a,0x0d,0x52,0x50,0x47,0x3a,0x3a,0x42,0x47,0x4d,0x08,0x3a,0x0a,0x40,0x6e,0x61,0x6d,0x65,0x49,0x22,0x0a,0x62,0x6f,0x73,0x73,0x32,0x06,0x3a,0x06,0x45,0x54,0x3a,0x0c,0x40,0x76,0x6f,0x6c,0x75,0x6d,0x65,0x69,0x69,0x3a,0x0b,0x40,0x70,0x69,0x74,0x63,0x68,0x69,0x69))
  ChangeSwitch(22,22,0)
  Battle(0,183,false,false)
  ChangeSwitch(22,22,1)
  SetBattleBGM(bytes(0x04,0x08,0x6f,0x3a,0x0d,0x52,0x50,0x47,0x3a,0x3a,0x42,0x47,0x4d,0x08,0x3a,0x0a,0x40,0x6e,0x61,0x6d,0x65,0x49,0x22,0x0b,0x62,0x61,0x74,0x74,0x6c,0x65,0x06,0x3a,0x06,0x45,0x54,0x3a,0x0c,0x40,0x76,0x6f,0x6c,0x75,0x6d,0x65,0x69,0x69,0x3a,0x0b,0x40,0x70,0x69,0x74,0x63,0x68,0x69,0x69))
  205(20,bytes(0x04,0x08,0x6f,0x3a,0x13,0x52,0x50,0x47,0x3a,0x3a,0x4d,0x6f,0x76,0x65,0x52,0x6f,0x75,0x74,0x65,0x09,0x3a,0x0c,0x40,0x72,0x65,0x70,0x65,0x61,0x74,0x46,0x3a,0x0f,0x40,0x73,0x6b,0x69,0x70,0x70,0x61,0x62,0x6c,0x65,0x46,0x3a,0x0a,0x40,0x77,0x61,0x69,0x74,0x54,0x3a,0x0a,0x40,0x6c,0x69,0x73,0x74,0x5b,0x07,0x6f,0x3a,0x15,0x52,0x50,0x47,0x3a,0x3a,0x4d,0x6f,0x76,0x65,0x43,0x6f,0x6d,0x6d,0x61,0x6e,0x64,0x07,0x3a,0x0a,0x40,0x63,0x6f,0x64,0x65,0x69,0x2a,0x3a,0x10,0x40,0x70,0x61,0x72,0x61,0x6d,0x65,0x74,0x65,0x72,0x73,0x5b,0x00,0x6f,0x3b,0x0a,0x07,0x3b,0x0b,0x69,0x00,0x3b,0x0c,0x5b,0x00))
  TeleportEvent(20,0,24,13,0)
  PictureDisplay(5,"80_brunhild_st14",0,0,0,0,100,100,0,0)
  PictureMove(5,null,0,0,0,0,100,100,255,0,30,true)
  241(bytes(0x04,0x08,0x6f,0x3a,0x0d,0x52,0x50,0x47,0x3a,0x3a,0x42,0x47,0x4d,0x08,0x3a,0x0a,0x40,0x6e,0x61,0x6d,0x65,0x49,0x22,0x10,0x73,0x63,0x65,0x6e,0x65,0x5f,0x73,0x69,0x6e,0x70,0x69,0x06,0x3a,0x06,0x45,0x54,0x3a,0x0c,0x40,0x76,0x6f,0x6c,0x75,0x6d,0x65,0x69,0x55,0x3a,0x0b,0x40,0x70,0x69,0x74,0x63,0x68,0x69,0x69))
  ShowMessageFace("brunhild_fc1",4,0,2,59)
  ShowMessage("\\n<Brynhildr>Hild lost... I'm sorry Master, the world will be destroyed...")
  ShowMessageFace("ruka_fc1",0,0,2,60)
  ShowMessage("\\n<Luka>Wait a moment, we aren't going to destroy the world.")
  If(0,4,0)
   ShowMessageFace("alice_fc5",0,0,2,61)
   ShowMessage("\\n<Alice>Rather, we want just the opposite. We're journeying to save the world.")
   0()
  EndIf()
  If(0,5,0)
   ShowMessageFace("iriasu_fc4",7,0,2,62)
   ShowMessage("\\n<Ilias>Rather, we want the opposite. We're on an adventure to save the world.")
   0()
  EndIf()
  ShowMessageFace("brunhild_fc1",0,0,2,63)
  ShowMessage("\\n<Brynhildr>Is that so? That's the same as Hild... Hild was made to save the world.")
  ShowMessageFace("ruka_fc1",0,0,2,64)
  ShowMessage("\\n<Luka>Made by whom?")
  ShowMessageFace("brunhild_fc1",0,0,2,65)
  ShowMessage("\\n<Brynhildr>By Master.")
  If(0,6,0)
   ShowMessageFace("sonia_fc2",2,0,2,66)
   ShowMessage("\\n<Sonya>Um, who's your master?")
   0()
  Else()
   ShowMessageFace("ruka_fc1",0,0,2,67)
   ShowMessage("\\n<Luka>Er... Who is this master?")
   0()
  EndIf()
  ShowMessageFace("brunhild_fc1",0,0,2,68)
  ShowMessage("\\n<Brynhildr>Master is Master.")
  If(0,4,0)
   ShowMessageFace("alice_fc5",2,0,2,69)
   ShowMessage("\\n<Alice>...She seems like a complete dumbass. I feel like it's pointless to interrogate her.")
   0()
  EndIf()
  If(0,5,0)
   ShowMessageFace("iriasu_fc4",2,0,2,70)
   ShowMessage("\\n<Ilias>At its current learning stage, her artificial intelligence appears to be on par with a monkey.")
   0()
  EndIf()
  If(4,41,0)
   ShowMessageFace("stein_fc2",0,0,2,71)
   ShowMessage("\\n<Promestein>It's because she's only just started up... She must have only learned this much information in the first place.")
   0()
  EndIf()
  ShowMessageFace("brunhild_fc1",0,0,2,72)
  ShowMessage("\\n<Brynhildr>There's no Master... I don't know what to do without Master's orders.")
  ShowMessageFace("brunhild_fc1",0,0,2,73)
  ShowMessage("\\n<Brynhildr>Master, respond... What should Hild do? Master? Master? Master?")
  If(0,6,0)
   ShowMessageFace("sonia_fc2",2,0,2,74)
   ShowMessage("\\n<Sonya>Isn't she kinda pitiful? The person who made her isn't here, and she doesn't know what to do...")
   0()
  Else()
   ShowMessageFace("ruka_fc1",0,0,2,75)
   ShowMessage("\\n<Luka>She seems kind of pitiful. The person who made her isn't here, and now she doesn't know what to do...")
   0()
  EndIf()
  ShowMessageFace("ruka_fc1",0,0,2,76)
  ShowMessage("\\n<Luka>If you have nowhere to go, then how about going together with us for now?")
  ShowMessageFace("brunhild_fc1",0,0,2,77)
  ShowMessage("\\n<Brynhildr>Together...? I don't have Master's authorization... but Master isn't here... Delegating to Hild's free will...")
  ShowMessageFace("brunhild_fc1",0,0,2,78)
  ShowMessage("\\n<Brynhildr>Understood, we will go together. If you are saving the world, then your purpose is the same as Hild's.")
  PictureClear(5)
  205(20,bytes(0x04,0x08,0x6f,0x3a,0x13,0x52,0x50,0x47,0x3a,0x3a,0x4d,0x6f,0x76,0x65,0x52,0x6f,0x75,0x74,0x65,0x09,0x3a,0x0c,0x40,0x72,0x65,0x70,0x65,0x61,0x74,0x46,0x3a,0x0f,0x40,0x73,0x6b,0x69,0x70,0x70,0x61,0x62,0x6c,0x65,0x46,0x3a,0x0a,0x40,0x77,0x61,0x69,0x74,0x54,0x3a,0x0a,0x40,0x6c,0x69,0x73,0x74,0x5b,0x09,0x6f,0x3a,0x15,0x52,0x50,0x47,0x3a,0x3a,0x4d,0x6f,0x76,0x65,0x43,0x6f,0x6d,0x6d,0x61,0x6e,0x64,0x07,0x3a,0x0a,0x40,0x63,0x6f,0x64,0x65,0x69,0x2a,0x3a,0x10,0x40,0x70,0x61,0x72,0x61,0x6d,0x65,0x74,0x65,0x72,0x73,0x5b,0x00,0x6f,0x3b,0x0a,0x07,0x3b,0x0b,0x69,0x0f,0x3b,0x0c,0x5b,0x00,0x6f,0x3b,0x0a,0x07,0x3b,0x0b,0x69,0x2c,0x3b,0x0c,0x5b,0x00,0x6f,0x3b,0x0a,0x07,0x3b,0x0b,0x69,0x00,0x3b,0x0c,0x5b,0x00))
  355("add_actor_ex(129)")
  249(bytes(0x04,0x08,0x6f,0x3a,0x0c,0x52,0x50,0x47,0x3a,0x3a,0x4d,0x45,0x08,0x3a,0x0a,0x40,0x6e,0x61,0x6d,0x65,0x49,0x22,0x0c,0x66,0x61,0x6e,0x66,0x61,0x6c,0x65,0x06,0x3a,0x06,0x45,0x54,0x3a,0x0b,0x40,0x70,0x69,0x74,0x63,0x68,0x69,0x69,0x3a,0x0c,0x40,0x76,0x6f,0x6c,0x75,0x6d,0x65,0x69,0x69))
  ShowMessageFace("",0,0,2,79)
  ShowMessage("Brynhildr joined the party!")
  241(bytes(0x04,0x08,0x6f,0x3a,0x0d,0x52,0x50,0x47,0x3a,0x3a,0x42,0x47,0x4d,0x08,0x3a,0x0a,0x40,0x6e,0x61,0x6d,0x65,0x49,0x22,0x12,0x64,0x75,0x6e,0x67,0x65,0x6f,0x6e,0x5f,0x69,0x73,0x65,0x6b,0x69,0x06,0x3a,0x06,0x45,0x54,0x3a,0x0c,0x40,0x76,0x6f,0x6c,0x75,0x6d,0x65,0x69,0x55,0x3a,0x0b,0x40,0x70,0x69,0x74,0x63,0x68,0x69,0x69))
  Wait(60)
  ShowMessageFace("brunhild_fc1",0,0,2,80)
  ShowMessage("\\n<Brynhildr>Name: Luka... Registering as temporary master... Please take good care of me, Master.")
  ShowMessageFace("ruka_fc1",0,0,2,81)
  ShowMessage("\\n<Luka>Okay. Help us out too then.")
  If(4,41,0)
   ShowMessageFace("stein_fc2",1,0,2,82)
   ShowMessage("\\n<Promestein>Now, let's first take out the main memory unit...")
   If(0,6,0)
    ShowMessageFace("sonia_fc3",2,0,2,83)
    ShowMessage("\\n<Sonya>What are you trying to do?! That screwdriver's getting confiscated!")
    ShowMessageFace("stein_fc2",2,0,2,84)
    ShowMessage("\\n<Promestein>Ahh, my beloved tool...")
    0()
   Else()
    ShowMessageFace("ruka_fc1",0,0,2,85)
    ShowMessage("\\n<Luka>Hey, you can't do that!")
    0()
   EndIf()
   0()
  EndIf()
  PictureDisplay(5,"80_saniria_st11",0,0,0,0,100,100,0,0)
  PictureMove(5,null,0,0,0,0,100,100,255,0,30,true)
  ShowMessageFace("saniria_fc2",0,0,2,86)
  ShowMessage("\\n<King of San Ilia>Good grief, that was surprising. To think a machine would move of its own volition...")
  If(0,6,0)
   ShowMessageFace("sonia_fc4",0,0,2,87)
   ShowMessage("\\n<Sonya>Um... We were also surprised by Your Holiness's body...")
   0()
  Else()
   ShowMessageFace("ruka_fc1",0,0,2,88)
   ShowMessage("\\n<Luka>We're also surprised by your body...")
   0()
  EndIf()
  ShowMessageFace("saniria_fc2",0,0,2,89)
  ShowMessage("\\n<King of San Ilia>As I said, I lost more than half of my body in that explosion. I replaced it with machinery, and was thus able to prolong my life.")
  ShowMessageFace("saniria_fc2",0,0,2,90)
  ShowMessage("\\n<King of San Ilia>This is the church's most advanced technology, which is why we left it in this forbidden facility. And it's also connected to my life.")
  ShowMessageFace("ruka_fc1",0,0,2,91)
  ShowMessage("\\n<Luka>I see... No wonder it's a secret...")
  If(4,72,0)
   ShowMessageFace("phoenix_fc1",3,0,2,92)
   ShowMessage("\\n<Mini>Pooope also seems like a phoenix...")
   0()
  EndIf()
  ShowMessageFace("saniria_fc2",0,0,2,93)
  ShowMessage("\\n<King of San Ilia>In any case, my body's maintenance has been safely completed. Let's return to the surface.")
  If(4,41,0)
   ShowMessageFace("stein_fc2",1,0,2,94)
   ShowMessage("\\n<Promestein>I'll stay here and investigate a litt–")
   If(0,6,0)
    ShowMessageFace("sonia_fc2",2,0,2,95)
    ShowMessage("\\n<Sonya>C'mon, we're going.")
    0()
   Else()
    ShowMessageFace("ruka_fc1",0,0,2,96)
    ShowMessage("\\n<Luka>Come on, we're going back.")
    0()
   EndIf()
   0()
  EndIf()
  If(4,79,0)
   ShowMessageFace("nuruko_fc1",0,0,2,97)
   ShowMessage("\\n<Nuruko>Kyu!")
   0()
  EndIf()
  PictureClear(5)
  ShowMessageFace("",0,0,2,98)
  ShowMessage("We learned the shocking truth, welcomed a new mysterious comrade... and then, we left the laboratory.")
  221()
  Wait(60)
  314(0,0)
  ChangeSwitch(100,100,1)
  ChangeSwitch(31,31,1)
  TeleportPlayer(0,355,7,19,8,2)
  ChangeVariable(1022,1022,0,0,6)
  222()
  0()
 PAGE   2
  // condition: variable 1022 >= 6
  0()



EVENT   19
 PAGE   1
  0()
 PAGE   2
  // condition: switch 31 is ON
  0()



EVENT   20
 PAGE   1
  0()



EVENT   21
 PAGE   1
  // condition: variable 1022 >= 6
  // condition: party contains actor #41
  RunCommonEvent(317)
  ShowMessageFace("stein_fc2",0,0,2,1)
  ShowMessage("\\n<Promestein>Hild's dormancy capsule... I need to check the control computer here no matter what.")
  ShowMessageFace("stein_fc2",0,0,2,2)
  ShowMessage("\\n<Promestein>...Yes, as I suspected. The moment Luka touched the panel, Hild started up.")
  ShowMessageFace("stein_fc2",0,0,2,3)
  ShowMessage("\\n<Promestein>Hm, this is no coincidence. Luka's biometric data is registered as authentication data.")
  If(0,4,0)
   ShowMessageFace("alice_fc6",0,0,2,4)
   ShowMessage("\\n<Alice>What?!")
   0()
  EndIf()
  If(0,5,0)
   ShowMessageFace("iriasu_fc4",7,0,2,5)
   ShowMessage("\\n<Ilias>Luka's bios?!")
   0()
  EndIf()
  ShowMessageFace("ruka_fc1",0,0,2,6)
  ShowMessage("\\n<Luka>What do you mean by biometric information?")
  ShowMessageFace("stein_fc2",0,0,2,7)
  ShowMessage("\\n<Promestein>Fingerprints, vein patterns in the wrist, retinal scan, facial recognition... And that's just some of it.")
  ShowMessageFace("stein_fc2",0,0,2,8)
  ShowMessage("\\n<Promestein>The moment Luka touched the main computer's panel, Hild was programmed to automatically wake up.")
  If(0,6,0)
   ShowMessageFace("sonia_fc3",7,0,2,9)
   ShowMessage("\\n<Sonya>Why is Luka's data in these ruins? This is so weird!")
   0()
  Else()
   ShowMessageFace("ruka_fc1",0,0,2,10)
   ShowMessage("\\n<Luka>Why is my data in these ruins?")
   0()
  EndIf()
  ShowMessageFace("stein_fc2",0,0,2,11)
  ShowMessage("\\n<Promestein>I don't know. But, the only authentication data here is Luka's. No one else could have activated Hild.")
  If(0,4,0)
   ShowMessageFace("alice_fc5",2,0,2,12)
   ShowMessage("\\n<Alice>Luka, I'll ask you just in case. Does this laboratory ring any bells for you?")
   0()
  EndIf()
  If(0,5,0)
   ShowMessageFace("iriasu_fc4",2,0,2,13)
   ShowMessage("\\n<Ilias>Luka, let me confirm this. Do you really know nothing about this laboratory?")
   0()
  EndIf()
  ShowMessageFace("ruka_fc1",0,0,2,14)
  ShowMessage("\\n<Luka>I don't know anything! How the heck am I supposed to know something about an ancient laboratory?!")
  ShowMessageFace("stein_fc2",0,0,2,15)
  ShowMessage("\\n<Promestein>You've been saying that this is an ancient laboratory for a while now, but... do you really think that is what this is?")
  If(0,4,0)
   ShowMessageFace("alice_fc5",0,0,2,16)
   ShowMessage("\\n<Alice>It doesn't seem to be... Did it come from a parallel world?")
   0()
  EndIf()
  If(0,5,0)
   ShowMessageFace("iriasu_fc4",2,0,2,17)
   ShowMessage("\\n<Ilias>There was no such technology in ancient times. If you compare this technology with the items from parallel worlds, they're clearly similar.")
   0()
  EndIf()
  ShowMessageFace("stein_fc2",0,0,2,18)
  ShowMessage("\\n<Promestein>Yes. It looks like this place came from a parallel's world's future to me as well. Because of some event, it's pierced this world's stratum.")
  ShowMessageFace("stein_fc2",0,0,2,19)
  ShowMessage("\\n<Promestein>No... it was actually sent here most likely. That is, if we consider Hild's activation conditions and the fact that data was erased.")
  ShowMessageFace("stein_fc2",0,0,2,20)
  ShowMessage("\\n<Promestein>Hild, when you activated, you confirmed the current year in the Johannes calendar. What year is it supposed to be, according to your data?")
  ShowMessageFace("brunhild_fc1",0,0,2,21)
  ShowMessage("\\n<Hild>According to Hild's records, it is supposed to be Year 1543 of the Johannes calendar. Now I have it modified to Year 1455.")
  ShowMessageFace("stein_fc2",0,0,2,22)
  ShowMessage("\\n<Promestein>In other words, according to Hild she was 88 years ahead of us. These ruins were likely sent from that time period as well.")
  ShowMessageFace("stein_fc2",0,0,2,23)
  ShowMessage("\\n<Promestein>I don't know why this equipment was sent to the past. However, the most important thing for us to consider is the start-up condition.")
  If(0,4,0)
   ShowMessageFace("alice_fc5",3,0,2,24)
   ShowMessage("\\n<Alice>So Luka is the key after all... What on earth is he?")
   ShowMessageFace("ruka_fc1",0,0,2,25)
   ShowMessage("\\n<Luka>I have no idea...")
   0()
  EndIf()
  If(0,5,0)
   ShowMessageFace("iriasu_fc4",2,0,2,26)
   ShowMessage("\\n<Ilias>As I thought, Luka is the key... What on earth are you?")
   ShowMessageFace("ruka_fc1",0,0,2,27)
   ShowMessage("\\n<Luka>Even if the Goddess asks me that, I... Really, what am I?")
   0()
  EndIf()
  RunCommonEvent(318)
  ChangeSelfSwitch("A",0)
  0()
 PAGE   2
  // condition: self-switch A is ON
  0()
 PAGE   3
  // condition: variable 1022 >= 8
  205(0,bytes(0x04,0x08,0x6f,0x3a,0x13,0x52,0x50,0x47,0x3a,0x3a,0x4d,0x6f,0x76,0x65,0x52,0x6f,0x75,0x74,0x65,0x09,0x3a,0x0c,0x40,0x72,0x65,0x70,0x65,0x61,0x74,0x46,0x3a,0x0f,0x40,0x73,0x6b,0x69,0x70,0x70,0x61,0x62,0x6c,0x65,0x46,0x3a,0x0a,0x40,0x77,0x61,0x69,0x74,0x54,0x3a,0x0a,0x40,0x6c,0x69,0x73,0x74,0x5b,0x07,0x6f,0x3a,0x15,0x52,0x50,0x47,0x3a,0x3a,0x4d,0x6f,0x76,0x65,0x43,0x6f,0x6d,0x6d,0x61,0x6e,0x64,0x07,0x3a,0x0a,0x40,0x63,0x6f,0x64,0x65,0x69,0x2c,0x3a,0x10,0x40,0x70,0x61,0x72,0x61,0x6d,0x65,0x74,0x65,0x72,0x73,0x5b,0x00,0x6f,0x3b,0x0a,0x07,0x3b,0x0b,0x69,0x00,0x3b,0x0c,0x5b,0x00))
  217()
  If(0,5,0)
   ShowMessageFace("stein_fc2",0,0,2,1)
   ShowMessage("\\n<Promestein>この大容量データが、まるで用途が分からないんですよね。")
   ShowMessage("とりあえず、重要そうな分を手持ちのデバイスに――")
   250(bytes(0x04,0x08,0x6f,0x3a,0x0c,0x52,0x50,0x47,0x3a,0x3a,0x53,0x45,0x08,0x3a,0x0a,0x40,0x6e,0x61,0x6d,0x65,0x49,0x22,0x0e,0x6d,0x6f,0x6e,0x5f,0x77,0x69,0x6e,0x64,0x31,0x06,0x3a,0x06,0x45,0x54,0x3a,0x0b,0x40,0x70,0x69,0x74,0x63,0x68,0x69,0x69,0x3a,0x0c,0x40,0x76,0x6f,0x6c,0x75,0x6d,0x65,0x69,0x69))
   ChangeSwitch(33,33,0)
   205(-1,bytes(0x04,0x08,0x6f,0x3a,0x13,0x52,0x50,0x47,0x3a,0x3a,0x4d,0x6f,0x76,0x65,0x52,0x6f,0x75,0x74,0x65,0x09,0x3a,0x0c,0x40,0x72,0x65,0x70,0x65,0x61,0x74,0x46,0x3a,0x0f,0x40,0x73,0x6b,0x69,0x70,0x70,0x61,0x62,0x6c,0x65,0x46,0x3a,0x0a,0x40,0x77,0x61,0x69,0x74,0x54,0x3a,0x0a,0x40,0x6c,0x69,0x73,0x74,0x5b,0x07,0x6f,0x3a,0x15,0x52,0x50,0x47,0x3a,0x3a,0x4d,0x6f,0x76,0x65,0x43,0x6f,0x6d,0x6d,0x61,0x6e,0x64,0x07,0x3a,0x0a,0x40,0x63,0x6f,0x64,0x65,0x69,0x17,0x3a,0x10,0x40,0x70,0x61,0x72,0x61,0x6d,0x65,0x74,0x65,0x72,0x73,0x5b,0x00,0x6f,0x3b,0x0a,0x07,0x3b,0x0b,0x69,0x00,0x3b,0x0c,0x5b,0x00))
   Wait(60)
   ShowMessageFace("morrigan_fc1",0,0,2,2)
   ShowMessage("\\n<Morrigan>んっ？　お前達、ここで何をしてるんだ……？")
   ShowMessageFace("iriasu_fc4",7,0,2,3)
   ShowMessage("\\n<Ilias>あなたは……モリガン！")
   ShowMessageFace("ruka_fc1",0,0,2,4)
   ShowMessage("\\n<Luka>くっ！　待ち伏せか……！")
   ShowMessageFace("morrigan_fc1",0,0,2,5)
   ShowMessage("\\n<Morrigan>違う違う、今日のところはやる気はねぇよ。")
   ShowMessage("ここの施設を調べに来たのさ……")
   205(23,bytes(0x04,0x08,0x6f,0x3a,0x13,0x52,0x50,0x47,0x3a,0x3a,0x4d,0x6f,0x76,0x65,0x52,0x6f,0x75,0x74,0x65,0x09,0x3a,0x0c,0x40,0x72,0x65,0x70,0x65,0x61,0x74,0x46,0x3a,0x0f,0x40,0x73,0x6b,0x69,0x70,0x70,0x61,0x62,0x6c,0x65,0x46,0x3a,0x0a,0x40,0x77,0x61,0x69,0x74,0x54,0x3a,0x0a,0x40,0x6c,0x69,0x73,0x74,0x5b,0x07,0x6f,0x3a,0x15,0x52,0x50,0x47,0x3a,0x3a,0x4d,0x6f,0x76,0x65,0x43,0x6f,0x6d,0x6d,0x61,0x6e,0x64,0x07,0x3a,0x0a,0x40,0x63,0x6f,0x64,0x65,0x69,0x18,0x3a,0x10,0x40,0x70,0x61,0x72,0x61,0x6d,0x65,0x74,0x65,0x72,0x73,0x5b,0x00,0x6f,0x3b,0x0a,0x07,0x3b,0x0b,0x69,0x00,0x3b,0x0c,0x5b,0x00))
   0()
  EndIf()
  ShowMessageFace("morrigan_fc1",0,0,2,6)
  ShowMessage("\\n<Morrigan>これがメイン端末か……")
  ShowMessage("なるほど、うんうん……")
  ShowMessageFace("",0,0,2,7)
  ShowMessage("モリガンは端末を操作している……")
  ShowMessageFace("morrigan_fc1",0,0,2,8)
  ShowMessage("\\n<Morrigan>……うん！　さっぱり分かんねーや。")
  If(0,4,0)
   ShowMessageFace("alice_fc5",6,0,2,9)
   ShowMessage("\\n<Alice>分からんのか！")
   0()
  EndIf()
  If(0,5,0)
   ShowMessageFace("iriasu_fc4",5,0,2,10)
   ShowMessage("\\n<Ilias>分からないのですか！")
   0()
  EndIf()
  205(23,bytes(0x04,0x08,0x6f,0x3a,0x13,0x52,0x50,0x47,0x3a,0x3a,0x4d,0x6f,0x76,0x65,0x52,0x6f,0x75,0x74,0x65,0x09,0x3a,0x0c,0x40,0x72,0x65,0x70,0x65,0x61,0x74,0x46,0x3a,0x0f,0x40,0x73,0x6b,0x69,0x70,0x70,0x61,0x62,0x6c,0x65,0x46,0x3a,0x0a,0x40,0x77,0x61,0x69,0x74,0x54,0x3a,0x0a,0x40,0x6c,0x69,0x73,0x74,0x5b,0x07,0x6f,0x3a,0x15,0x52,0x50,0x47,0x3a,0x3a,0x4d,0x6f,0x76,0x65,0x43,0x6f,0x6d,0x6d,0x61,0x6e,0x64,0x07,0x3a,0x0a,0x40,0x63,0x6f,0x64,0x65,0x69,0x16,0x3a,0x10,0x40,0x70,0x61,0x72,0x61,0x6d,0x65,0x74,0x65,0x72,0x73,0x5b,0x00,0x6f,0x3b,0x0a,0x07,0x3b,0x0b,0x69,0x00,0x3b,0x0c,0x5b,0x00))
  ShowMessageFace("morrigan_fc1",2,0,2,11)
  ShowMessage("\\n<Morrigan>あたし達だって、全ての並行世界を把握してるわけじゃないんだ。")
  ShowMessage("何もかも、手探りなんだよ。")
  ShowMessageFace("morrigan_fc1",0,0,2,12)
  ShowMessage("\\n<Morrigan>おまけにあたし、コンピューターとかさっぱりだし。")
  ShowMessage("この研究機構がどこから来たのかなんて、全然分からねーよ。")
  ShowMessageFace("stein_fc2",0,0,2,13)
  ShowMessage("\\n<Promestein>まあ、期待はしていませんでしたけど。")
  ShowMessage("私は、問題のファイルをコピーしておきますね。")
  ShowMessageFace("stein_fc2",0,0,2,14)
  ShowMessage("\\n<Promestein>しかし、なぜこんなに大容量なんでしょう……")
  ShowMessage("このデータが解読できれば、何か分かるかもしれません。")
  ShowMessageFace("ruka_fc1",0,0,2,15)
  ShowMessage("\\n<Luka>モリガン達でも、ここの事はよく知らないんだね。")
  ShowMessage("何か分かると思ったのに……")
  ShowMessageFace("morrigan_fc1",0,0,2,16)
  ShowMessage("\\n<Morrigan>そう言うなよ、これでも色々がんばってるんだから。")
  ShowMessage("この世界で目覚めてから、ずっと試行錯誤の連続なんだぜ？")
  If(0,4,0)
   ShowMessageFace("alice_fc5",2,0,2,17)
   ShowMessage("\\n<Alice>この世界で目覚めた……だと？")
   ShowMessage("貴様らは、初代様が勝利を収めた世界から来たはずでは？")
   0()
  EndIf()
  If(0,5,0)
   ShowMessageFace("iriasu_fc4",7,0,2,18)
   ShowMessage("\\n<Ilias>この世界で目覚めた……ですって？")
   ShowMessage("あなた達は、邪神が勝利した世界から来たはずでは？")
   0()
  EndIf()
  ShowMessageFace("morrigan_fc1",2,0,2,19)
  ShowMessage("\\n<Morrigan>ああ、それは……")
  ShowMessage("う～ん、言っちゃっていいのかな……")
  ShowMessageFace("morrigan_fc1",0,0,2,20)
  ShowMessage("\\n<Morrigan>……もしもし？　聞いてる、姉貴？")
  ShowMessage("ごめん、また失言シチャッター♪")
  ShowMessageFace("morrigan_fc1",0,0,2,21)
  ShowMessage("\\n<Morrigan>それで……うんうん、あっ、知ってること全部言っていいの？")
  ShowMessage("どうせ大したこと知らないって……うわ、ひっで～。")
  ShowMessageFace("morrigan_fc1",1,0,2,22)
  ShowMessage("\\n<Morrigan>……そういうわけで、お許しが出たぜ。")
  ShowMessage("えっと、知りたいのはこの世界に来た方法だったな。")
  ShowMessageFace("stein_fc2",0,0,2,23)
  ShowMessage("\\n<Promestein>ええ、それはずっと気になっていました。")
  ShowMessageFace("stein_fc2",0,0,2,24)
  ShowMessage("\\n<Promestein>タルタロスを通じて並行世界を行き来できるのは、")
  ShowMessage("ルカさんとマルケルスさんだけなのに……")
  ShowMessageFace("morrigan_fc1",1,0,2,25)
  ShowMessage("\\n<Morrigan>そう、その通りだよ。")
  ShowMessage("だからあたし達は、タルタロスを通って来たんじゃないのさ。")
  If(0,4,0)
   ShowMessageFace("alice_fc5",2,0,2,26)
   ShowMessage("\\n<Alice>……なんだと？")
   0()
  EndIf()
  If(0,5,0)
   ShowMessageFace("iriasu_fc4",7,0,2,27)
   ShowMessage("\\n<Ilias>ならば、別の手段で……？")
   0()
  EndIf()
  ShowMessageFace("morrigan_fc1",1,0,2,28)
  ShowMessage("\\n<Morrigan>並行世界を分かつ扉は、神でさえ通れない。")
  ShowMessage("そこで邪神様が考えたのが、還網のネットワークを使う方法さ。")
  If(0,4,0)
   ShowMessageFace("alice_fc5",0,0,2,29)
   ShowMessage("\\n<Alice>還網のネットワークというと……")
   ShowMessage("イリアスが行った、反省会とかいうシステムだな。")
   0()
  EndIf()
  If(0,5,0)
   ShowMessageFace("iriasu_fc4",2,0,2,30)
   ShowMessage("\\n<Ilias>還網のネットワーク……")
   ShowMessage("反省会システムですか。")
   0()
  EndIf()
  ShowMessageFace("morrigan_fc1",1,0,2,31)
  ShowMessage("\\n<Morrigan>そう、魂が肉体から離れた時に作動するアレさ。")
  ShowMessage("ちなみに、あたし達の目的は知ってるよな？")
  If(0,4,0)
   ShowMessageFace("alice_fc5",0,0,2,32)
   ShowMessage("\\n<Alice>この世界の人間を皆殺しにし……")
   ShowMessage("還網の術を通じて、魂を初代様の世界に送るのだろう。")
   ShowMessageFace("alice_fc5",0,0,2,33)
   ShowMessage("\\n<Alice>そして、初代様の世界には並行世界の同一人物が存在する……")
   ShowMessage("その者に、魂を乗り移らせ合一させるのだったな。")
   0()
  EndIf()
  If(0,5,0)
   ShowMessageFace("iriasu_fc4",7,0,2,34)
   ShowMessage("\\n<Ilias>この世界の人間を皆殺しにして……")
   ShowMessage("還網の術を流用し、魂を邪神の世界に送るのでしょう。")
   ShowMessageFace("iriasu_fc4",7,0,2,35)
   ShowMessage("\\n<Ilias>その魂を、邪神の世界にいる同一人物に合一させる……")
   ShowMessage("並行世界の同一人物が一つになる、という寸法ですね。")
   0()
  EndIf()
  ShowMessageFace("morrigan_fc1",1,0,2,36)
  ShowMessage("\\n<Morrigan>その通り、そうやってこの世界の全員を導くわけだ。")
  ShowMessage("みんな、あたし達の世界に存在する自分と合一するんだよ。")
  ShowMessageFace("morrigan_fc1",1,0,2,37)
  ShowMessage("\\n<Morrigan>さて、あたし達がこの世界に来た方法の話だったな……")
  ShowMessage("今の手段を、逆に使ったのさ。")
  ShowMessageFace("stein_fc2",0,0,2,38)
  ShowMessage("\\n<Promestein>なるほど、そうですか。")
  ShowMessage("そんな手段を使って、この世界に……")
  ShowMessageFace("sonia_fc3",7,0,2,39)
  ShowMessage("\\n<Sonya>えっ？　どういう事……？")
  ShowMessageFace("stein_fc2",0,0,2,40)
  ShowMessage("\\n<Promestein>こちらの世界にも、この世界に属するリリス三姉妹が")
  ShowMessage("存在します。")
  ShowMessageFace("stein_fc2",0,0,2,41)
  ShowMessage("\\n<Promestein>聖魔大戦に敗北した彼女達は……")
  ShowMessage("この世界では、封印状態になっていたはずです。")
  ShowMessageFace("morrigan_fc1",2,0,2,42)
  ShowMessage("\\n<Morrigan>なんだよ、あたしが説明するはずなのに……ちぇっ。")
  ShowMessageFace("stein_fc2",0,0,2,43)
  ShowMessage("\\n<Promestein>おそらく邪神の世界から、こちらの世界に来るため……")
  ShowMessage("邪神の世界のリリス三姉妹は、自ら死んだのでは？")
  ShowMessageFace("morrigan_fc1",0,0,2,44)
  ShowMessage("\\n<Morrigan>自殺ってのとは、ちょっと違うな。")
  ShowMessage("ちゃんと適切に魂を取り出す準備を整えてだな――")
  ShowMessageFace("stein_fc2",0,0,2,45)
  ShowMessage("\\n<Promestein>ともかく、リリス三姉妹は魂を取り出されます。")
  ShowMessage("それはつまり、死に他ならないでしょう。")
  ShowMessageFace("stein_fc2",0,0,2,46)
  ShowMessage("\\n<Promestein>そしてリリス達の魂が向かった先は、この世界。")
  ShowMessage("封印されていたこの世界の三姉妹と、合一したのです。")
  ShowMessageFace("sonia_fc2",2,0,2,47)
  ShowMessage("\\n<Sonya>つまり……この世界のリリス三姉妹の肉体に、")
  ShowMessage("邪神の世界の三姉妹の魂が憑依した、ってこと？")
  ShowMessageFace("morrigan_fc1",0,0,2,48)
  ShowMessage("\\n<Morrigan>憑依と合一は違うのさ。二つの世界のあたし達が融合して、")
  ShowMessage("完全に一つの存在になったんだよ。")
  ShowMessageFace("morrigan_fc1",0,0,2,49)
  ShowMessage("\\n<Morrigan>だから正確には、あたしは邪神の世界のモリガンじゃない。")
  ShowMessage("この世界と邪神の世界のモリガンが、合一したのさ。")
  ShowMessageFace("ruka_fc1",0,0,2,50)
  ShowMessage("\\n<Luka>僕達の世界の人間を殺して、邪神の世界に導く手段を……")
  ShowMessage("この世界に来るため、逆に使ったってわけか。")
  ShowMessageFace("morrigan_fc1",1,0,2,51)
  ShowMessage("\\n<Morrigan>その通り、二つの世界のあたしは完全に一つになった。")
  ShowMessage("どちらかがどちらかを支配した、って話じゃないのさ。")
  ShowMessageFace("morrigan_fc1",1,0,2,52)
  ShowMessage("\\n<Morrigan>今のあたしは、両方の世界の記憶を持っている。")
  ShowMessage("それでいながら、人格も完全に統合されてるのさ。")
  If(0,4,0)
   ShowMessageFace("alice_fc5",0,0,2,53)
   ShowMessage("\\n<Alice>そして今度は、同じ手段でこの世界の全員を救おうという訳か。")
   ShowMessage("肉体から魂を解放し、邪神様の世界へと導いて……")
   0()
  EndIf()
  If(0,5,0)
   ShowMessageFace("iriasu_fc4",7,0,2,54)
   ShowMessage("\\n<Ilias>同じ手段で、この世界の者全員を邪神の世界に")
   ShowMessage("導こうというのですね……")
   0()
  EndIf()
  ShowMessageFace("morrigan_fc1",1,0,2,55)
  ShowMessage("\\n<Morrigan>この世界において、いったん肉体を殺さなきゃならない……")
  ShowMessage("それに対する嫌悪感や拒否感は、もちろん理解できるさ。")
  ShowMessageFace("morrigan_fc1",1,0,2,56)
  ShowMessage("\\n<Morrigan>でもあたし達は、一番最初にその施術を受けてるんだ。")
  ShowMessage("それが安全な手法だと、あたし達の存在が実証してるのさ。")
  If(0,4,0)
   ShowMessageFace("alice_fc5",3,0,2,57)
   ShowMessage("\\n<Alice>なるほど……")
   0()
  EndIf()
  If(0,5,0)
   ShowMessageFace("iriasu_fc4",7,0,2,58)
   ShowMessage("\\n<Ilias>なんというおぞましい……")
   ShowMessage("それは生命の理をねじまげる行為です。")
   0()
  EndIf()
  ShowMessageFace("stein_fc2",0,0,2,59)
  ShowMessage("\\n<Promestein>一つ聞きたいのですが……")
  ShowMessageFace("stein_fc2",0,0,2,60)
  ShowMessage("\\n<Promestein>並行世界の自分が全く異なっている性格だったら、")
  ShowMessage("どうなるのです？")
  ShowMessageFace("morrigan_fc1",0,0,2,61)
  ShowMessage("\\n<Morrigan>最初のうちは、二重人格っぽい感じになるって話だ。")
  ShowMessage("でもじきに、精神も統合されるみたいだぜ。")
  ShowMessageFace("stein_fc2",0,0,2,62)
  ShowMessage("\\n<Promestein>肉体自体が異なっていたら、どうなるのです……？")
  ShowMessage("片方の世界では大人で、片方では子供だったり。")
  ShowMessageFace("morrigan_fc1",0,0,2,63)
  ShowMessage("\\n<Morrigan>あんまり例はないけど……")
  ShowMessage("真ん中くらいになるんじゃね？")
  ShowMessageFace("sonia_fc4",0,0,2,64)
  ShowMessage("\\n<Sonya>そんな適当な……")
  ShowMessageFace("morrigan_fc1",1,0,2,65)
  ShowMessage("\\n<Morrigan>こっちだって、サンプルがいっぱいあるわけじゃないんだ。")
  ShowMessage("魔力が高い者だったら、二つの肉体を制御できるかもな。")
  ShowMessageFace("morrigan_fc1",1,0,2,66)
  ShowMessage("\\n<Morrigan>何にしろ、最終的にはなるべき形で合一されるはずさ。")
  ShowMessage("だって、世界自体が元々は一つだったんだからな！")
  ShowMessageFace("ruka_fc1",0,0,2,67)
  ShowMessage("\\n<Luka>……………………")
  ShowMessageFace("morrigan_fc1",1,0,2,68)
  ShowMessage("\\n<Morrigan>さて、こっちに来た方法の話に戻るぜ。")
  ShowMessageFace("morrigan_fc1",1,0,2,69)
  ShowMessage("\\n<Morrigan>実際のところ、あたし達三人をこっちの世界に送るだけでも")
  ShowMessage("試行錯誤の連続だったんだ。")
  ShowMessageFace("morrigan_fc1",1,0,2,70)
  ShowMessage("\\n<Morrigan>こっちの世界に来たあたし達も、色々と努力したのさ。")
  ShowMessage("邪神の世界とのゲートが繋がれば、仕事が楽だからな。")
  ShowMessageFace("morrigan_fc1",1,0,2,71)
  ShowMessage("\\n<Morrigan>それで、姉貴達が何か特異点？とか時空の係数？とか周波数？")
  ShowMessage("なんかそういうのを魔力で整えて、磁場の干渉がどうこう……")
  ShowMessageFace("stein_fc2",0,0,2,72)
  ShowMessage("\\n<Promestein>あなたには原理が理解不能でしたが……")
  ShowMessage("姉の二人が、この世界と邪神の世界を繋ごうとしていたと。")
  ShowMessageFace("morrigan_fc1",1,0,2,73)
  ShowMessage("\\n<Morrigan>そうそう、それそれ。")
  ShowMessageFace("morrigan_fc1",2,0,2,74)
  ShowMessage("\\n<Morrigan>だけど、あんまり上手くいかなくてな……")
  ShowMessage("通行自由なゲートなんて、結局は実現不可能だったんだよ。")
  ShowMessageFace("morrigan_fc1",2,0,2,75)
  ShowMessage("\\n<Morrigan>こっちと向こうの両側から、死ぬほど頑張って……")
  ShowMessage("玉藻様が時間限定で、思念をこちらに通す事が出来た程度さ。")
  ShowMessageFace("ruka_fc1",0,0,2,76)
  ShowMessage("\\n<Luka>思念を通すだけ？")
  ShowMessage("つまり……グランゴルドでの玉藻は、実体じゃなかったのか？")
  ShowMessageFace("morrigan_fc1",1,0,2,77)
  ShowMessage("\\n<Morrigan>いやいや、それも少し違う。")
  ShowMessage("玉藻様は、思念と肉体の相互操作に長けた大妖魔でな。")
  ShowMessageFace("morrigan_fc1",1,0,2,78)
  ShowMessage("\\n<Morrigan>思念だけでこちらの世界に来てから、肉体化したのさ。")
  ShowMessage("そんな芸当が出来るのは、六祖でも玉藻様だけだったんだよ。")
  ShowMessageFace("morrigan_fc1",1,0,2,79)
  ShowMessage("\\n<Morrigan>もちろん、それさえ時間限定の技だ。")
  ShowMessage("そういつまでも、肉体をこちらに置く事はできなかった。")
  ShowMessageFace("morrigan_fc1",1,0,2,80)
  ShowMessage("\\n<Morrigan>こちらのたまもも、フルパワーには時間制限があったようだが……")
  ShowMessage("実際の所、玉藻様もそうだったって訳なのさ。")
  If(0,4,0)
   ShowMessageFace("alice_fc5",0,0,2,81)
   ShowMessage("\\n<Alice>たまもに玉藻……")
   ShowMessage("まったく、得体の知れんキツネだ。")
   0()
  EndIf()
  If(0,5,0)
   ShowMessageFace("iriasu_fc4",2,0,2,82)
   ShowMessage("\\n<Ilias>あの狐、色々と奇妙な術を心得ていますからね……")
   ShowMessage("まったく、不愉快なケモノです。")
   0()
  EndIf()
  ShowMessageFace("morrigan_fc1",1,0,2,83)
  ShowMessage("\\n<Morrigan>そうまでして、通行に手こずる次元の扉……")
  ShowMessage("それを簡単に開けられるお前が、どれだけ貴重か分かるか？")
  ShowMessageFace("ruka_fc1",0,0,2,84)
  ShowMessage("\\n<Luka>どうして、僕がそんな力を……")
  ShowMessageFace("stein_fc2",0,0,2,85)
  ShowMessage("\\n<Promestein>……それに、もう一つ疑問があります。")
  ShowMessageFace("stein_fc2",0,0,2,86)
  ShowMessage("\\n<Promestein>女神が支配する世界で生まれた熾天使達は、")
  ShowMessage("どのようにこちらに来たのです？")
  If(0,4,0)
   ShowMessageFace("alice_fc5",0,0,2,87)
   ShowMessage("\\n<Alice>確かに、腑に落ちんな……")
   ShowMessage("エスタで、グノーシスはタルタロスを通ったように見えたぞ。")
   0()
  EndIf()
  If(0,5,0)
   ShowMessageFace("iriasu_fc4",7,0,2,88)
   ShowMessage("\\n<Ilias>確かにその点も、納得できませんね。")
   ShowMessage("エスタにて、シオンはタルタロスを通過していました。")
   0()
  EndIf()
  ShowMessageFace("morrigan_fc1",2,0,2,89)
  ShowMessage("\\n<Morrigan>あの世界の連中は、並行世界間の扉を自在に開けられる。")
  ShowMessage("何だか知らないが、そういうシステムを完成させたのさ。")
  ShowMessageFace("stein_fc2",2,0,2,90)
  ShowMessage("\\n<Promestein>並行世界間を自在に移動できるシステム……！？")
  ShowMessage("そんな、あまりにも都合が良すぎる物が……")
  ShowMessageFace("morrigan_fc1",2,0,2,91)
  ShowMessage("\\n<Morrigan>ああ、都合が良すぎるよ。")
  ShowMessage("あたし達はこれだけ苦労してるのに、卑怯だよな……")
  ShowMessageFace("morrigan_fc1",2,0,2,92)
  ShowMessage("\\n<Morrigan>邪神様がおっしゃるには……")
  ShowMessage("そのシステムは、あたし達の世界じゃ作れないらしい。")
  ShowMessageFace("morrigan_fc1",2,0,2,93)
  ShowMessage("\\n<Morrigan>なんでも、中核になる部品があたし達の世界にないって話だ。")
  ShowMessage("その部品とやらが、何なのかは知らないがな……")
  ShowMessageFace("stein_fc2",0,0,2,94)
  ShowMessage("\\n<Promestein>女神の世界にあって、邪神の世界にない部品……")
  ShowMessage("それは、いったい何なのでしょうか。")
  ShowMessageFace("morrigan_fc1",2,0,2,95)
  ShowMessage("\\n<Morrigan>そういうわけで……")
  ShowMessage("あの天使共は、簡単に並行世界間を往復できるってわけさ。")
  ShowMessageFace("morrigan_fc1",2,0,2,96)
  ShowMessage("\\n<Morrigan>あたし達は、もう向こうの世界には戻れないし……")
  ShowMessage("あっちに連絡を取る事さえ大変なのに、腹が立つぜ。")
  ShowMessageFace("sonia_fc2",2,0,2,97)
  ShowMessage("\\n<Sonya>向こうに戻れない、って……")
  ShowMessage("そうか、あっちの世界の肉体はもうないのよね。")
  ShowMessageFace("morrigan_fc1",2,0,2,98)
  ShowMessage("\\n<Morrigan>だからあたし達は……")
  ShowMessage("もう戻らない覚悟で、こっちの世界にやって来たのさ。")
  ShowMessageFace("morrigan_fc1",2,0,2,99)
  ShowMessage("\\n<Morrigan>この手で邪神の世界に送ってやる連中と違って……")
  ShowMessage("あたし達の体は、すでに向こうじゃ死んでるんだからな。")
  ShowMessageFace("ruka_fc1",0,0,2,100)
  ShowMessage("\\n<Luka>そうか、そういう事になるんだね……")
  ShowMessageFace("morrigan_fc1",2,0,2,101)
  ShowMessage("\\n<Morrigan>だから、全ての人間や魔物を邪神の世界に送った後も……")
  ShowMessage("あたし達はここに残って、この世界と共に滅ぶしかないのさ。")
  ShowMessageFace("sonia_fc2",2,0,2,102)
  ShowMessage("\\n<Sonya>そんな……")
  ShowMessageFace("morrigan_fc1",0,0,2,103)
  ShowMessage("\\n<Morrigan>……って覚悟だったが、ここに来て助かる道も出て来たんだ。")
  ShowMessage("それがルカ、お前の存在だよ。")
  ShowMessageFace("morrigan_fc1",0,0,2,104)
  ShowMessage("\\n<Morrigan>お前がいれば、ドアを開けて邪神の世界にひとっとび。")
  ShowMessage("なんだそりゃ、反則かよ！")
  ShowMessageFace("ruka_fc1",0,0,2,105)
  ShowMessage("\\n<Luka>……………………")
  ShowMessageFace("morrigan_fc1",0,0,2,106)
  ShowMessage("\\n<Morrigan>そういうわけで、協力してくれよな。")
  ShowMessage("あたし達が助かるかどうか、お前の決断次第なんだから――")
  241(bytes(0x04,0x08,0x6f,0x3a,0x0d,0x52,0x50,0x47,0x3a,0x3a,0x42,0x47,0x4d,0x08,0x3a,0x0a,0x40,0x6e,0x61,0x6d,0x65,0x49,0x22,0x0a,0x6b,0x69,0x6b,0x69,0x32,0x06,0x3a,0x06,0x45,0x54,0x3a,0x0c,0x40,0x76,0x6f,0x6c,0x75,0x6d,0x65,0x69,0x69,0x3a,0x0b,0x40,0x70,0x69,0x74,0x63,0x68,0x69,0x69))
  ShowMessageFace("",0,0,2,107)
  ShowMessage("\\n<？？？>いいえ、助かりはしないわ――")
  If(0,4,0)
   ShowMessageFace("alice_fc6",0,0,2,108)
   ShowMessage("\\n<Alice>き、貴様は……！")
   0()
  EndIf()
  If(0,5,0)
   ShowMessageFace("iriasu_fc4",7,0,2,109)
   ShowMessage("\\n<Ilias>あなたは……！")
   0()
  EndIf()
  ShowMessageFace("morrigan_fc1",2,0,2,110)
  ShowMessage("\\n<Morrigan>ちっ、接近に気付かなかったか……")
  ShowMessage("相変わらず、クセモノだな！")
  250(bytes(0x04,0x08,0x6f,0x3a,0x0c,0x52,0x50,0x47,0x3a,0x3a,0x53,0x45,0x08,0x3a,0x0a,0x40,0x6e,0x61,0x6d,0x65,0x49,0x22,0x0e,0x6d,0x6f,0x6e,0x5f,0x77,0x69,0x6e,0x64,0x31,0x06,0x3a,0x06,0x45,0x54,0x3a,0x0b,0x40,0x70,0x69,0x74,0x63,0x68,0x69,0x69,0x3a,0x0c,0x40,0x76,0x6f,0x6c,0x75,0x6d,0x65,0x69,0x69))
  ChangeSwitch(34,34,0)
  205(-1,bytes(0x04,0x08,0x6f,0x3a,0x13,0x52,0x50,0x47,0x3a,0x3a,0x4d,0x6f,0x76,0x65,0x52,0x6f,0x75,0x74,0x65,0x09,0x3a,0x0c,0x40,0x72,0x65,0x70,0x65,0x61,0x74,0x46,0x3a,0x0f,0x40,0x73,0x6b,0x69,0x70,0x70,0x61,0x62,0x6c,0x65,0x46,0x3a,0x0a,0x40,0x77,0x61,0x69,0x74,0x54,0x3a,0x0a,0x40,0x6c,0x69,0x73,0x74,0x5b,0x07,0x6f,0x3a,0x15,0x52,0x50,0x47,0x3a,0x3a,0x4d,0x6f,0x76,0x65,0x43,0x6f,0x6d,0x6d,0x61,0x6e,0x64,0x07,0x3a,0x0a,0x40,0x63,0x6f,0x64,0x65,0x69,0x16,0x3a,0x10,0x40,0x70,0x61,0x72,0x61,0x6d,0x65,0x74,0x65,0x72,0x73,0x5b,0x00,0x6f,0x3b,0x0a,0x07,0x3b,0x0b,0x69,0x00,0x3b,0x0c,0x5b,0x00))
  Wait(60)
  241(bytes(0x04,0x08,0x6f,0x3a,0x0d,0x52,0x50,0x47,0x3a,0x3a,0x42,0x47,0x4d,0x08,0x3a,0x0a,0x40,0x6e,0x61,0x6d,0x65,0x49,0x22,0x0a,0x62,0x6f,0x73,0x73,0x30,0x06,0x3a,0x06,0x45,0x54,0x3a,0x0c,0x40,0x76,0x6f,0x6c,0x75,0x6d,0x65,0x69,0x69,0x3a,0x0b,0x40,0x70,0x69,0x74,0x63,0x68,0x69,0x69))
  PictureDisplay(5,"80_arumaeruma_st64",0,0,0,0,100,100,0,0)
  PictureMove(5,null,0,0,0,0,100,100,255,0,30,true)
  ShowMessageFace("arumaeruma_fc2",3,0,2,111)
  ShowMessage("\\n<Alma Elma>ようやく見つけたわ、モリガン……")
  ShowMessage("悪いけれど、ここで討たせてもらうわよ。")
  If(0,4,0)
   ShowMessageFace("alice_fc5",2,0,2,112)
   ShowMessage("\\n<Alice>アルマエルマ……")
   ShowMessage("貴様はリリス三姉妹を追っていたのだったな。")
   ShowMessageFace("arumaeruma_fc2",3,0,2,113)
   ShowMessage("\\n<Alma Elma>ええ、魔王様……")
   ShowMessage("この三姉妹には、お返しをしないとね。")
   ShowMessageFace("morrigan_fc1",1,0,2,114)
   ShowMessage("\\n<Morrigan>ふん、執念深い奴だな……")
   ShowMessage("いいぜ、相手になってやるよ！")
   ShowMessageFace("ruka_fc1",0,0,2,115)
   ShowMessage("\\n<Luka>待ってくれ、アルマエルマ！")
   ShowMessageFace("arumaeruma_fc2",0,0,2,116)
   ShowMessage("\\n<Alma Elma>あら……何かしら？")
   ShowMessageFace("ruka_fc1",0,0,2,117)
   ShowMessage("\\n<Luka>経緯はどうあれ、僕達はモリガンを仲間として受け入れた。")
   ShowMessage("だから、このまま黙って彼女を討たせはしない……")
   ShowMessageFace("morrigan_fc1",2,0,2,118)
   ShowMessage("\\n<Morrigan>何だよそれ、黙ってたらあたしが討たれるみたいな流れ……")
   ShowMessage("ちょっと弱ってるからって、負けはしないっての！")
   ShowMessageFace("morrigan_fc1",0,0,2,119)
   ShowMessage("\\n<Morrigan>……でも、ちょっと嬉しいよな！　仲間サイコー！")
   ShowMessageFace("ruka_fc1",0,0,2,120)
   ShowMessage("\\n<Luka>そういうわけで、仲間は守る！")
   ShowMessageFace("arumaeruma_fc2",3,0,2,121)
   ShowMessage("\\n<Alma Elma>私と、敵対してでも……かしら？")
   ShowMessageFace("ruka_fc1",0,0,2,122)
   ShowMessage("\\n<Luka>それでも、モリガンを討つというなら！")
   ShowMessageFace("arumaeruma_fc2",3,0,2,123)
   ShowMessage("\\n<Alma Elma>これは、遊びじゃないわ……")
   ShowMessage("挑んでくる勇者に対して、手は抜かない主義よ。")
   ShowMessageFace("alice_fc5",2,0,2,124)
   ShowMessage("\\n<Alice>ふん……誰が手を抜いてほしいと言った。")
   ShowMessage("かつての部下とはいえ、こちらも容赦せんぞ！")
   ShowMessageFace("arumaeruma_fc2",3,0,2,125)
   ShowMessage("\\n<Alma Elma>負けたとしても、命は助けてもらえると思っていないわよね？")
   ShowMessage("私はサキュバス、敗者は最期の一滴まで啜り尽くすわ……")
   ShowMessageFace("ruka_fc1",0,0,2,126)
   ShowMessage("\\n<Luka>仲間を見捨てて、退きはしない！")
   0()
  EndIf()
  If(0,5,0)
   ShowMessageFace("iriasu_fc4",7,0,2,127)
   ShowMessage("\\n<Ilias>アルマエルマ……")
   ShowMessage("あなたはリリス三姉妹を追っていたのでしたね。")
   ShowMessageFace("arumaeruma_fc2",3,0,2,128)
   ShowMessage("\\n<Alma Elma>ええ、その通り……")
   ShowMessage("この三姉妹には、お返しをしないとね。")
   ShowMessageFace("morrigan_fc1",0,0,2,129)
   ShowMessage("\\n<Morrigan>ふん、執念深い奴だな……")
   ShowMessage("いいぜ、相手になってやるよ！")
   ShowMessageFace("morrigan_fc1",1,0,2,130)
   ShowMessage("\\n<Morrigan>……………………")
   ShowMessageFace("morrigan_fc1",2,0,2,131)
   ShowMessage("\\n<Morrigan>……って、ダメなのかよ！")
   ShowMessage("分かったよ姉貴、耳元で怒鳴るなって……！")
   ShowMessageFace("morrigan_fc1",0,0,2,132)
   ShowMessage("\\n<Morrigan>姉貴からダメ出しされたぜ。")
   ShowMessage("決断の時まで、大きな動きは控えろとさ！")
   ShowMessageFace("morrigan_fc1",0,0,2,133)
   ShowMessage("\\n<Morrigan>そういうわけで、ばいば～い！")
   250(bytes(0x04,0x08,0x6f,0x3a,0x0c,0x52,0x50,0x47,0x3a,0x3a,0x53,0x45,0x08,0x3a,0x0a,0x40,0x6e,0x61,0x6d,0x65,0x49,0x22,0x0e,0x6d,0x6f,0x6e,0x5f,0x77,0x69,0x6e,0x64,0x31,0x06,0x3a,0x06,0x45,0x54,0x3a,0x0b,0x40,0x70,0x69,0x74,0x63,0x68,0x69,0x69,0x3a,0x0c,0x40,0x76,0x6f,0x6c,0x75,0x6d,0x65,0x69,0x69))
   ChangeSwitch(33,33,1)
   ShowMessageFace("",0,0,2,134)
   ShowMessage("モリガンは疾風のように消え去った……")
   ShowMessageFace("arumaeruma_fc2",3,0,2,135)
   ShowMessage("\\n<Alma Elma>……………………")
   ShowMessageFace("iriasu_fc4",7,0,2,136)
   ShowMessage("\\n<Ilias>……追わないのですか？")
   ShowMessageFace("arumaeruma_fc2",0,0,2,137)
   ShowMessage("\\n<Alma Elma>あっちも、私と同じくらい素早いからね。")
   ShowMessage("殴り込んだだけじゃあ、逃げられちゃうわ……")
   ShowMessageFace("iriasu_fc4",7,0,2,138)
   ShowMessage("\\n<Ilias>つまらない意趣返しに血道を上げるより……")
   ShowMessage("大義のために戦いませんか？")
   ShowMessageFace("iriasu_fc4",7,0,2,139)
   ShowMessage("\\n<Ilias>アルマエルマ、私達と共に来なさい。")
   ShowMessage("そうすれば、リリス三姉妹と決着を付ける時も来るでしょう。")
   ShowMessageFace("arumaeruma_fc2",3,0,2,140)
   ShowMessage("\\n<Alma Elma>正直、悪くないお誘いだけど……")
   ShowMessage("私、自分より弱い相手に従いたくはないの。")
   ShowMessageFace("ruka_fc1",0,0,2,141)
   ShowMessage("\\n<Luka>今の僕達なら、決して弱くはないよ。")
   ShowMessage("だから、仲間になってくれないかな？")
   ShowMessageFace("arumaeruma_fc2",3,0,2,142)
   ShowMessage("\\n<Alma Elma>私より強いかどうか……")
   ShowMessage("ここで、力を示す覚悟はあるかしら？")
   ShowMessageFace("ruka_fc1",0,0,2,143)
   ShowMessage("\\n<Luka>もちろんだ！")
   ShowMessageFace("arumaeruma_fc2",3,0,2,144)
   ShowMessage("\\n<Alma Elma>これは、遊びじゃないわ……")
   ShowMessage("挑んでくる勇者に対して、手は抜かない主義よ。")
   ShowMessageFace("iriasu_fc4",7,0,2,145)
   ShowMessage("\\n<Ilias>手など抜く必要はありませんよ、アルマエルマ。")
   ShowMessage("あなたを従える力、ここで示しましょう……")
   ShowMessageFace("arumaeruma_fc2",3,0,2,146)
   ShowMessage("\\n<Alma Elma>負けたとしても、命は助けてもらえると思っていないわよね？")
   ShowMessage("私はサキュバス、敗者は最期の一滴まで啜り尽くすわ……")
   ShowMessageFace("ruka_fc1",0,0,2,147)
   ShowMessage("\\n<Luka>本気の勝負だ、僕も全力を尽くす！")
   0()
  EndIf()
  ShowMessageFace("arumaeruma_fc2",3,0,2,148)
  ShowMessage("\\n<Alma Elma>それじゃあ……その覚悟、試してあげるわ。")
  ShowMessage("クィーンサキュバスとして、全力で相手をするわよ！")
  PictureClear(5)
  SetBattleBGM(bytes(0x04,0x08,0x6f,0x3a,0x0d,0x52,0x50,0x47,0x3a,0x3a,0x42,0x47,0x4d,0x08,0x3a,0x0a,0x40,0x6e,0x61,0x6d,0x65,0x49,0x22,0x11,0x62,0x6f,0x73,0x73,0x5f,0x73,0x69,0x74,0x65,0x6e,0x6e,0x6f,0x06,0x3a,0x06,0x45,0x54,0x3a,0x0c,0x40,0x76,0x6f,0x6c,0x75,0x6d,0x65,0x69,0x69,0x3a,0x0b,0x40,0x70,0x69,0x74,0x63,0x68,0x69,0x69))
  ChangeSwitch(22,22,0)
  Battle(0,982,false,false)
  ChangeSwitch(22,22,1)
  SetBattleBGM(bytes(0x04,0x08,0x6f,0x3a,0x0d,0x52,0x50,0x47,0x3a,0x3a,0x42,0x47,0x4d,0x08,0x3a,0x0a,0x40,0x6e,0x61,0x6d,0x65,0x49,0x22,0x0b,0x62,0x61,0x74,0x74,0x6c,0x65,0x06,0x3a,0x06,0x45,0x54,0x3a,0x0c,0x40,0x76,0x6f,0x6c,0x75,0x6d,0x65,0x69,0x69,0x3a,0x0b,0x40,0x70,0x69,0x74,0x63,0x68,0x69,0x69))
  ChangeVariable(1022,1022,0,0,9)
  241(bytes(0x04,0x08,0x6f,0x3a,0x0d,0x52,0x50,0x47,0x3a,0x3a,0x42,0x47,0x4d,0x08,0x3a,0x0a,0x40,0x6e,0x61,0x6d,0x65,0x49,0x22,0x14,0x73,0x63,0x65,0x6e,0x65,0x5f,0x65,0x70,0x69,0x6c,0x6f,0x67,0x75,0x65,0x32,0x06,0x3a,0x06,0x45,0x54,0x3a,0x0c,0x40,0x76,0x6f,0x6c,0x75,0x6d,0x65,0x69,0x69,0x3a,0x0b,0x40,0x70,0x69,0x74,0x63,0x68,0x69,0x69))
  PictureDisplay(5,"80_arumaeruma_st63",0,0,0,0,100,100,0,0)
  PictureMove(5,null,0,0,0,0,100,100,255,0,30,true)
  ShowMessageFace("ruka_fc1",0,0,2,149)
  ShowMessage("\\n<Luka>僕達の勝ちだ！")
  ShowMessageFace("arumaeruma_fc2",2,0,2,150)
  ShowMessage("\\n<Alma Elma>ええ、私の完敗ね……")
  If(0,4,0)
   ShowMessageFace("alice_fc5",0,0,2,151)
   ShowMessage("\\n<Alice>アルマエルマよ……貴様はさほど執念深くもあるまい。")
   ShowMessage("三姉妹に捕らえられた恨みも、特に深くはないはずだ。")
   ShowMessageFace("alice_fc5",0,0,2,152)
   ShowMessage("\\n<Alice>リリス達を追い続ける理由は……")
   ShowMessage("ラダイト村での悲劇を、繰り返させないためだろう？")
   ShowMessageFace("arumaeruma_fc2",2,0,2,153)
   ShowMessage("\\n<Alma Elma>これでも、名目上はクィーンサキュバスだから……")
   ShowMessage("度を超えた同胞の蛮行は、看過できないのよ。")
   ShowMessageFace("morrigan_fc1",2,0,2,154)
   ShowMessage("\\n<Morrigan>だから、理由があるんだって……")
   ShowMessageFace("alice_fc5",2,0,2,155)
   ShowMessage("\\n<Alice>世の情勢というものも、風の如く変わるものだ。")
   ShowMessage("アルマエルマよ……今は、余と共に来い。")
   0()
  EndIf()
  If(0,5,0)
   ShowMessageFace("iriasu_fc4",1,0,2,156)
   ShowMessage("\\n<Ilias>約束通り、私達に従ってもらいますよ。")
   ShowMessage("まさか、異論はありませんよね……？")
   0()
  EndIf()
  ShowMessageFace("arumaeruma_fc2",3,0,2,157)
  ShowMessage("\\n<Alma Elma>クィーンサキュバスとして挑んで、完敗したのだから……")
  ShowMessage("敗者である私に、逆らう資格なんてないわね。")
  PictureDisplay(5,"80_arumaeruma_st67",0,0,0,0,100,100,0,0)
  ShowMessageFace("arumaeruma_fc2",6,0,2,158)
  ShowMessage("\\n<Alma Elma>そういうわけで……よろしくね、ルカちゃん♪")
  ShowMessageFace("ruka_fc1",0,0,2,159)
  ShowMessage("\\n<Luka>あ、うん……")
  ShowMessageFace("sonia_fc2",4,0,2,160)
  ShowMessage("\\n<Sonya>ギリッ……！")
  PictureClear(5)
  205(24,bytes(0x04,0x08,0x6f,0x3a,0x13,0x52,0x50,0x47,0x3a,0x3a,0x4d,0x6f,0x76,0x65,0x52,0x6f,0x75,0x74,0x65,0x09,0x3a,0x0c,0x40,0x72,0x65,0x70,0x65,0x61,0x74,0x46,0x3a,0x0f,0x40,0x73,0x6b,0x69,0x70,0x70,0x61,0x62,0x6c,0x65,0x46,0x3a,0x0a,0x40,0x77,0x61,0x69,0x74,0x54,0x3a,0x0a,0x40,0x6c,0x69,0x73,0x74,0x5b,0x0a,0x6f,0x3a,0x15,0x52,0x50,0x47,0x3a,0x3a,0x4d,0x6f,0x76,0x65,0x43,0x6f,0x6d,0x6d,0x61,0x6e,0x64,0x07,0x3a,0x0a,0x40,0x63,0x6f,0x64,0x65,0x69,0x2a,0x3a,0x10,0x40,0x70,0x61,0x72,0x61,0x6d,0x65,0x74,0x65,0x72,0x73,0x5b,0x00,0x6f,0x3b,0x0a,0x07,0x3b,0x0b,0x69,0x0f,0x3b,0x0c,0x5b,0x00,0x6f,0x3b,0x0a,0x07,0x3b,0x0b,0x69,0x0f,0x3b,0x0c,0x5b,0x00,0x6f,0x3b,0x0a,0x07,0x3b,0x0b,0x69,0x2c,0x3b,0x0c,0x5b,0x00,0x6f,0x3b,0x0a,0x07,0x3b,0x0b,0x69,0x00,0x3b,0x0c,0x5b,0x00))
  355("add_actor_ex(19)")
  249(bytes(0x04,0x08,0x6f,0x3a,0x0c,0x52,0x50,0x47,0x3a,0x3a,0x4d,0x45,0x08,0x3a,0x0a,0x40,0x6e,0x61,0x6d,0x65,0x49,0x22,0x0c,0x66,0x61,0x6e,0x66,0x61,0x6c,0x65,0x06,0x3a,0x06,0x45,0x54,0x3a,0x0b,0x40,0x70,0x69,0x74,0x63,0x68,0x69,0x69,0x3a,0x0c,0x40,0x76,0x6f,0x6c,0x75,0x6d,0x65,0x69,0x69))
  ShowMessageFace("",0,0,2,161)
  ShowMessage("アルマエルマが仲間に加わった！")
  ChangeSwitch(1922,1922,0)
  ChangeSwitch(34,34,1)
  Wait(60)
  If(0,4,0)
   ShowMessageFace("morrigan_fc1",0,0,2,162)
   ShowMessage("\\n<Morrigan>そういうわけで、よろしくなー！")
   ShowMessage("もうあたしは殴らないでくれよ！")
   ShowMessageFace("arumaeruma_fc2",0,0,2,163)
   ShowMessage("\\n<Alma Elma>まったく、物事にこだわらない淫魔よね……")
   ShowMessage("まあ私も、人の事は言えないけれど。")
   0()
  EndIf()
  If(0,5,0)
   ShowMessageFace("iriasu_fc4",2,0,2,164)
   ShowMessage("\\n<Ilias>しかし、かの汚らわしい淫魔をも迎え入れるとは……")
   ShowMessage("私も、つくづく丸くなりましたね。")
   ShowMessageFace("eden_fc1",0,0,2,165)
   ShowMessage("\\n<Eden>イリアス様は、いかなる時でも慈愛に溢れております。")
   0()
  EndIf()
  205(-1,bytes(0x04,0x08,0x6f,0x3a,0x13,0x52,0x50,0x47,0x3a,0x3a,0x4d,0x6f,0x76,0x65,0x52,0x6f,0x75,0x74,0x65,0x09,0x3a,0x0c,0x40,0x72,0x65,0x70,0x65,0x61,0x74,0x46,0x3a,0x0f,0x40,0x73,0x6b,0x69,0x70,0x70,0x61,0x62,0x6c,0x65,0x46,0x3a,0x0a,0x40,0x77,0x61,0x69,0x74,0x54,0x3a,0x0a,0x40,0x6c,0x69,0x73,0x74,0x5b,0x07,0x6f,0x3a,0x15,0x52,0x50,0x47,0x3a,0x3a,0x4d,0x6f,0x76,0x65,0x43,0x6f,0x6d,0x6d,0x61,0x6e,0x64,0x07,0x3a,0x0a,0x40,0x63,0x6f,0x64,0x65,0x69,0x15,0x3a,0x10,0x40,0x70,0x61,0x72,0x61,0x6d,0x65,0x74,0x65,0x72,0x73,0x5b,0x00,0x6f,0x3b,0x0a,0x07,0x3b,0x0b,0x69,0x00,0x3b,0x0c,0x5b,0x00))
  ShowMessageFace("ruka_fc1",0,0,2,166)
  ShowMessage("\\n<Luka>それじゃあ、冒険を続けよう。")
  ShowMessage("プロメスティンも、データのコピーは終わったよね？")
  ShowMessageFace("stein_fc2",0,0,2,167)
  ShowMessage("\\n<Promestein>ええ、必要なデータはコピーしました。")
  ShowMessage("解読が進めば、この研究施設の事も分かっていくはずです。")
  ShowMessageFace("stein_fc2",0,0,2,168)
  ShowMessage("\\n<Promestein>「ラプラス・プロトコル」……")
  ShowMessage("さて、この大容量データの正体は何なのでしょうね？")
  241(bytes(0x04,0x08,0x6f,0x3a,0x0d,0x52,0x50,0x47,0x3a,0x3a,0x42,0x47,0x4d,0x08,0x3a,0x0a,0x40,0x6e,0x61,0x6d,0x65,0x49,0x22,0x12,0x64,0x75,0x6e,0x67,0x65,0x6f,0x6e,0x5f,0x69,0x73,0x65,0x6b,0x69,0x06,0x3a,0x06,0x45,0x54,0x3a,0x0c,0x40,0x76,0x6f,0x6c,0x75,0x6d,0x65,0x69,0x69,0x3a,0x0b,0x40,0x70,0x69,0x74,0x63,0x68,0x69,0x69))
  355("gain_medal(2114)")
  EndEventProcessing()
  0()
 PAGE   4
  // condition: variable 1022 >= 9
  0()




EVENT   22
 PAGE   1
  ShowMessageFace("",0,0,2,1)
  ShowMessage("\\n<Machine>Energy supply device, activating...")
  250(bytes(0x04,0x08,0x6f,0x3a,0x0c,0x52,0x50,0x47,0x3a,0x3a,0x53,0x45,0x08,0x3a,0x0a,0x40,0x6e,0x61,0x6d,0x65,0x49,0x22,0x0a,0x48,0x65,0x61,0x6c,0x37,0x06,0x3a,0x06,0x45,0x54,0x3a,0x0b,0x40,0x70,0x69,0x74,0x63,0x68,0x69,0x69,0x3a,0x0c,0x40,0x76,0x6f,0x6c,0x75,0x6d,0x65,0x69,0x55))
  224(bytes(0x04,0x08,0x75,0x3a,0x0a,0x43,0x6f,0x6c,0x6f,0x72,0x25,0x00,0x00,0x00,0x00,0x00,0xe0,0x6f,0x40,0x00,0x00,0x00,0x00,0x00,0xe0,0x6f,0x40,0x00,0x00,0x00,0x00,0x00,0xe0,0x6f,0x40,0x00,0x00,0x00,0x00,0x00,0xe0,0x6f,0x40),30,true)
  314(0,0)
  ShowMessageFace("",0,0,2,2)
  ShowMessage("The party's HP and MP have been fully restored!")
  0()



EVENT   23
 PAGE   1
  // condition: switch 33 is ON
  0()



EVENT   24
 PAGE   1
  // condition: switch 34 is ON
  0()
