﻿
DisplayName "サン・イリア"



EVENT   1
 PAGE   1
  0()



EVENT   2
 PAGE   1
  0()



EVENT   3
 PAGE   1
  0()



EVENT   4
 PAGE   1
  0()



EVENT   5
 PAGE   1
  0()



EVENT   6
 PAGE   1
  0()



EVENT   7
 PAGE   1
  0()



EVENT   8
 PAGE   1
  0()



EVENT   9
 PAGE   1
  0()



EVENT   10
 PAGE   1
  0()



EVENT   11
 PAGE   1
  0()



EVENT   12
 PAGE   1
  0()



EVENT   13
 PAGE   1
  0()



EVENT   14
 PAGE   1
  0()



EVENT   15
 PAGE   1
  0()



EVENT   16
 PAGE   1
  0()



EVENT   17
 PAGE   1
  0()



EVENT   18
 PAGE   1
  0()



EVENT   19
 PAGE   1
  0()



EVENT   20
 PAGE   1
  0()



EVENT   21
 PAGE   1
  0()



EVENT   22
 PAGE   1
  0()



EVENT   23
 PAGE   1
  0()



EVENT   24
 PAGE   1
  0()



EVENT   25
 PAGE   1
  0()



EVENT   26
 PAGE   1
  0()



EVENT   27
 PAGE   1
  0()



EVENT   28
 PAGE   1
  0()



EVENT   29
 PAGE   1
  0()



EVENT   30
 PAGE   1
  0()



EVENT   31
 PAGE   1
  0()



EVENT   32
 PAGE   1
  0()



EVENT   33
 PAGE   1
  0()



EVENT   34
 PAGE   1
  0()



EVENT   35
 PAGE   1
  0()



EVENT   36
 PAGE   1
  0()



EVENT   37
 PAGE   1
  0()



EVENT   38
 PAGE   1
  0()



EVENT   39
 PAGE   1
  0()



EVENT   40
 PAGE   1
  0()



EVENT   41
 PAGE   1
  0()



EVENT   42
 PAGE   1
  0()



EVENT   43
 PAGE   1
  0()



EVENT   44
 PAGE   1
  0()



EVENT   45
 PAGE   1
  0()



EVENT   46
 PAGE   1
  0()



EVENT   47
 PAGE   1
  0()



EVENT   48
 PAGE   1
  0()



EVENT   49
 PAGE   1
  0()



EVENT   50
 PAGE   1
  0()



EVENT   51
 PAGE   1
  0()



EVENT   52
 PAGE   1
  0()



EVENT   53
 PAGE   1
  0()



EVENT   54
 PAGE   1
  0()



EVENT   55
 PAGE   1
  0()



EVENT   56
 PAGE   1
  0()



EVENT   57
 PAGE   1
  0()



EVENT   58
 PAGE   1
  0()



EVENT   59
 PAGE   1
  ChangeSwitch(31,31,1)
  If(2,"A",1)
   ChangeSelfSwitch("A",0)
   If(0,4,0)
    ShowMessageFace("alice_fc5",0,0,2,1)
    ShowMessage("\\n<Alice>結局、城下町では大した情報はなかったな。")
    ShowMessage("仕方ない、サン・イリア王の情報網に期待するか……")
    ShowMessageFace("alice_fc5",0,0,2,2)
    ShowMessage("\\n<Alice>貴様の父に関して、何か記録があるかもしれん。")
    ShowMessage("彼は、数十年前に名を馳せた勇者という話だからな。")
    0()
   EndIf()
   If(0,5,0)
    ShowMessageFace("iriasu_fc4",2,0,2,3)
    ShowMessage("\\n<Ilias>結局、城下町で大した情報は得られませんでしたね。")
    ShowMessage("サン・イリア王の情報網に期待しましょう。")
    ShowMessageFace("iriasu_fc4",0,0,2,4)
    ShowMessage("\\n<Ilias>マルケルスに関して、記録が残っている可能性が高いです。")
    ShowMessage("彼はれっきとした勇者なのですから……")
    0()
   EndIf()
   0()
  EndIf()
  281(0)
  250(bytes(0x04,0x08,0x6f,0x3a,0x0c,0x52,0x50,0x47,0x3a,0x3a,0x53,0x45,0x08,0x3a,0x0a,0x40,0x6e,0x61,0x6d,0x65,0x49,0x22,0x0b,0x45,0x61,0x72,0x74,0x68,0x34,0x06,0x3a,0x06,0x45,0x54,0x3a,0x0b,0x40,0x70,0x69,0x74,0x63,0x68,0x69,0x69,0x3a,0x0c,0x40,0x76,0x6f,0x6c,0x75,0x6d,0x65,0x69,0x55))
  205(0,bytes(0x04,0x08,0x6f,0x3a,0x13,0x52,0x50,0x47,0x3a,0x3a,0x4d,0x6f,0x76,0x65,0x52,0x6f,0x75,0x74,0x65,0x09,0x3a,0x0c,0x40,0x72,0x65,0x70,0x65,0x61,0x74,0x46,0x3a,0x0f,0x40,0x73,0x6b,0x69,0x70,0x70,0x61,0x62,0x6c,0x65,0x46,0x3a,0x0a,0x40,0x77,0x61,0x69,0x74,0x54,0x3a,0x0a,0x40,0x6c,0x69,0x73,0x74,0x5b,0x0c,0x6f,0x3a,0x15,0x52,0x50,0x47,0x3a,0x3a,0x4d,0x6f,0x76,0x65,0x43,0x6f,0x6d,0x6d,0x61,0x6e,0x64,0x07,0x3a,0x0a,0x40,0x63,0x6f,0x64,0x65,0x69,0x16,0x3a,0x10,0x40,0x70,0x61,0x72,0x61,0x6d,0x65,0x74,0x65,0x72,0x73,0x5b,0x00,0x6f,0x3b,0x0a,0x07,0x3b,0x0b,0x69,0x14,0x3b,0x0c,0x5b,0x06,0x69,0x08,0x6f,0x3b,0x0a,0x07,0x3b,0x0b,0x69,0x17,0x3b,0x0c,0x5b,0x00,0x6f,0x3b,0x0a,0x07,0x3b,0x0b,0x69,0x14,0x3b,0x0c,0x5b,0x06,0x69,0x08,0x6f,0x3b,0x0a,0x07,0x3b,0x0b,0x69,0x18,0x3b,0x0c,0x5b,0x00,0x6f,0x3b,0x0a,0x07,0x3b,0x0b,0x69,0x2a,0x3b,0x0c,0x5b,0x00,0x6f,0x3b,0x0a,0x07,0x3b,0x0b,0x69,0x00,0x3b,0x0c,0x5b,0x00))
  205(-1,bytes(0x04,0x08,0x6f,0x3a,0x13,0x52,0x50,0x47,0x3a,0x3a,0x4d,0x6f,0x76,0x65,0x52,0x6f,0x75,0x74,0x65,0x09,0x3a,0x0c,0x40,0x72,0x65,0x70,0x65,0x61,0x74,0x46,0x3a,0x0f,0x40,0x73,0x6b,0x69,0x70,0x70,0x61,0x62,0x6c,0x65,0x54,0x3a,0x0a,0x40,0x77,0x61,0x69,0x74,0x54,0x3a,0x0a,0x40,0x6c,0x69,0x73,0x74,0x5b,0x07,0x6f,0x3a,0x15,0x52,0x50,0x47,0x3a,0x3a,0x4d,0x6f,0x76,0x65,0x43,0x6f,0x6d,0x6d,0x61,0x6e,0x64,0x07,0x3a,0x0a,0x40,0x63,0x6f,0x64,0x65,0x69,0x11,0x3a,0x10,0x40,0x70,0x61,0x72,0x61,0x6d,0x65,0x74,0x65,0x72,0x73,0x5b,0x00,0x6f,0x3b,0x0a,0x07,0x3b,0x0b,0x69,0x00,0x3b,0x0c,0x5b,0x00))
  250(bytes(0x04,0x08,0x6f,0x3a,0x0c,0x52,0x50,0x47,0x3a,0x3a,0x53,0x45,0x08,0x3a,0x0a,0x40,0x6e,0x61,0x6d,0x65,0x49,0x22,0x09,0x4d,0x6f,0x76,0x65,0x06,0x3a,0x06,0x45,0x54,0x3a,0x0b,0x40,0x70,0x69,0x74,0x63,0x68,0x69,0x69,0x3a,0x0c,0x40,0x76,0x6f,0x6c,0x75,0x6d,0x65,0x69,0x55))
  TeleportPlayer(0,355,22,58,0,0)
  0()



EVENT   60
 PAGE   1
  ShowMessageFace("",0,0,2,1)
  ShowMessage("ルカは仲間を外に待たせ、一人で民家に入った……")
  216(1)
  250(bytes(0x04,0x08,0x6f,0x3a,0x0c,0x52,0x50,0x47,0x3a,0x3a,0x53,0x45,0x08,0x3a,0x0a,0x40,0x6e,0x61,0x6d,0x65,0x49,0x22,0x0a,0x4f,0x70,0x65,0x6e,0x31,0x06,0x3a,0x06,0x45,0x54,0x3a,0x0b,0x40,0x70,0x69,0x74,0x63,0x68,0x69,0x69,0x3a,0x0c,0x40,0x76,0x6f,0x6c,0x75,0x6d,0x65,0x69,0x55))
  205(0,bytes(0x04,0x08,0x6f,0x3a,0x13,0x52,0x50,0x47,0x3a,0x3a,0x4d,0x6f,0x76,0x65,0x52,0x6f,0x75,0x74,0x65,0x09,0x3a,0x0c,0x40,0x72,0x65,0x70,0x65,0x61,0x74,0x46,0x3a,0x0f,0x40,0x73,0x6b,0x69,0x70,0x70,0x61,0x62,0x6c,0x65,0x46,0x3a,0x0a,0x40,0x77,0x61,0x69,0x74,0x54,0x3a,0x0a,0x40,0x6c,0x69,0x73,0x74,0x5b,0x0c,0x6f,0x3a,0x15,0x52,0x50,0x47,0x3a,0x3a,0x4d,0x6f,0x76,0x65,0x43,0x6f,0x6d,0x6d,0x61,0x6e,0x64,0x07,0x3a,0x0a,0x40,0x63,0x6f,0x64,0x65,0x69,0x16,0x3a,0x10,0x40,0x70,0x61,0x72,0x61,0x6d,0x65,0x74,0x65,0x72,0x73,0x5b,0x00,0x6f,0x3b,0x0a,0x07,0x3b,0x0b,0x69,0x14,0x3b,0x0c,0x5b,0x06,0x69,0x08,0x6f,0x3b,0x0a,0x07,0x3b,0x0b,0x69,0x17,0x3b,0x0c,0x5b,0x00,0x6f,0x3b,0x0a,0x07,0x3b,0x0b,0x69,0x14,0x3b,0x0c,0x5b,0x06,0x69,0x08,0x6f,0x3b,0x0a,0x07,0x3b,0x0b,0x69,0x18,0x3b,0x0c,0x5b,0x00,0x6f,0x3b,0x0a,0x07,0x3b,0x0b,0x69,0x2a,0x3b,0x0c,0x5b,0x00,0x6f,0x3b,0x0a,0x07,0x3b,0x0b,0x69,0x00,0x3b,0x0c,0x5b,0x00))
  205(-1,bytes(0x04,0x08,0x6f,0x3a,0x13,0x52,0x50,0x47,0x3a,0x3a,0x4d,0x6f,0x76,0x65,0x52,0x6f,0x75,0x74,0x65,0x09,0x3a,0x0c,0x40,0x72,0x65,0x70,0x65,0x61,0x74,0x46,0x3a,0x0f,0x40,0x73,0x6b,0x69,0x70,0x70,0x61,0x62,0x6c,0x65,0x54,0x3a,0x0a,0x40,0x77,0x61,0x69,0x74,0x54,0x3a,0x0a,0x40,0x6c,0x69,0x73,0x74,0x5b,0x07,0x6f,0x3a,0x15,0x52,0x50,0x47,0x3a,0x3a,0x4d,0x6f,0x76,0x65,0x43,0x6f,0x6d,0x6d,0x61,0x6e,0x64,0x07,0x3a,0x0a,0x40,0x63,0x6f,0x64,0x65,0x69,0x11,0x3a,0x10,0x40,0x70,0x61,0x72,0x61,0x6d,0x65,0x74,0x65,0x72,0x73,0x5b,0x00,0x6f,0x3b,0x0a,0x07,0x3b,0x0b,0x69,0x00,0x3b,0x0c,0x5b,0x00))
  250(bytes(0x04,0x08,0x6f,0x3a,0x0c,0x52,0x50,0x47,0x3a,0x3a,0x53,0x45,0x08,0x3a,0x0a,0x40,0x6e,0x61,0x6d,0x65,0x49,0x22,0x09,0x4d,0x6f,0x76,0x65,0x06,0x3a,0x06,0x45,0x54,0x3a,0x0b,0x40,0x70,0x69,0x74,0x63,0x68,0x69,0x69,0x3a,0x0c,0x40,0x76,0x6f,0x6c,0x75,0x6d,0x65,0x69,0x55))
  TeleportPlayer(0,28,17,48,0,0)
  0()



EVENT   61
 PAGE   1
  ShowMessageFace("",0,0,2,1)
  ShowMessage("扉は固く閉ざされている……")
  0()



EVENT   62
 PAGE   1
  ShowMessageFace("",0,0,2,1)
  ShowMessage("扉は固く閉ざされている……")
  0()



EVENT   63
 PAGE   1
  250(bytes(0x04,0x08,0x6f,0x3a,0x0c,0x52,0x50,0x47,0x3a,0x3a,0x53,0x45,0x08,0x3a,0x0a,0x40,0x6e,0x61,0x6d,0x65,0x49,0x22,0x0a,0x4f,0x70,0x65,0x6e,0x31,0x06,0x3a,0x06,0x45,0x54,0x3a,0x0b,0x40,0x70,0x69,0x74,0x63,0x68,0x69,0x69,0x3a,0x0c,0x40,0x76,0x6f,0x6c,0x75,0x6d,0x65,0x69,0x55))
  205(0,bytes(0x04,0x08,0x6f,0x3a,0x13,0x52,0x50,0x47,0x3a,0x3a,0x4d,0x6f,0x76,0x65,0x52,0x6f,0x75,0x74,0x65,0x09,0x3a,0x0c,0x40,0x72,0x65,0x70,0x65,0x61,0x74,0x46,0x3a,0x0f,0x40,0x73,0x6b,0x69,0x70,0x70,0x61,0x62,0x6c,0x65,0x46,0x3a,0x0a,0x40,0x77,0x61,0x69,0x74,0x54,0x3a,0x0a,0x40,0x6c,0x69,0x73,0x74,0x5b,0x0c,0x6f,0x3a,0x15,0x52,0x50,0x47,0x3a,0x3a,0x4d,0x6f,0x76,0x65,0x43,0x6f,0x6d,0x6d,0x61,0x6e,0x64,0x07,0x3a,0x0a,0x40,0x63,0x6f,0x64,0x65,0x69,0x16,0x3a,0x10,0x40,0x70,0x61,0x72,0x61,0x6d,0x65,0x74,0x65,0x72,0x73,0x5b,0x00,0x6f,0x3b,0x0a,0x07,0x3b,0x0b,0x69,0x14,0x3b,0x0c,0x5b,0x06,0x69,0x08,0x6f,0x3b,0x0a,0x07,0x3b,0x0b,0x69,0x17,0x3b,0x0c,0x5b,0x00,0x6f,0x3b,0x0a,0x07,0x3b,0x0b,0x69,0x14,0x3b,0x0c,0x5b,0x06,0x69,0x08,0x6f,0x3b,0x0a,0x07,0x3b,0x0b,0x69,0x18,0x3b,0x0c,0x5b,0x00,0x6f,0x3b,0x0a,0x07,0x3b,0x0b,0x69,0x2a,0x3b,0x0c,0x5b,0x00,0x6f,0x3b,0x0a,0x07,0x3b,0x0b,0x69,0x00,0x3b,0x0c,0x5b,0x00))
  205(-1,bytes(0x04,0x08,0x6f,0x3a,0x13,0x52,0x50,0x47,0x3a,0x3a,0x4d,0x6f,0x76,0x65,0x52,0x6f,0x75,0x74,0x65,0x09,0x3a,0x0c,0x40,0x72,0x65,0x70,0x65,0x61,0x74,0x46,0x3a,0x0f,0x40,0x73,0x6b,0x69,0x70,0x70,0x61,0x62,0x6c,0x65,0x54,0x3a,0x0a,0x40,0x77,0x61,0x69,0x74,0x54,0x3a,0x0a,0x40,0x6c,0x69,0x73,0x74,0x5b,0x07,0x6f,0x3a,0x15,0x52,0x50,0x47,0x3a,0x3a,0x4d,0x6f,0x76,0x65,0x43,0x6f,0x6d,0x6d,0x61,0x6e,0x64,0x07,0x3a,0x0a,0x40,0x63,0x6f,0x64,0x65,0x69,0x11,0x3a,0x10,0x40,0x70,0x61,0x72,0x61,0x6d,0x65,0x74,0x65,0x72,0x73,0x5b,0x00,0x6f,0x3b,0x0a,0x07,0x3b,0x0b,0x69,0x00,0x3b,0x0c,0x5b,0x00))
  250(bytes(0x04,0x08,0x6f,0x3a,0x0c,0x52,0x50,0x47,0x3a,0x3a,0x53,0x45,0x08,0x3a,0x0a,0x40,0x6e,0x61,0x6d,0x65,0x49,0x22,0x09,0x4d,0x6f,0x76,0x65,0x06,0x3a,0x06,0x45,0x54,0x3a,0x0b,0x40,0x70,0x69,0x74,0x63,0x68,0x69,0x69,0x3a,0x0c,0x40,0x76,0x6f,0x6c,0x75,0x6d,0x65,0x69,0x55))
  TeleportPlayer(0,28,51,16,0,0)
  0()



EVENT   64
 PAGE   1
  250(bytes(0x04,0x08,0x6f,0x3a,0x0c,0x52,0x50,0x47,0x3a,0x3a,0x53,0x45,0x08,0x3a,0x0a,0x40,0x6e,0x61,0x6d,0x65,0x49,0x22,0x0a,0x4f,0x70,0x65,0x6e,0x31,0x06,0x3a,0x06,0x45,0x54,0x3a,0x0b,0x40,0x70,0x69,0x74,0x63,0x68,0x69,0x69,0x3a,0x0c,0x40,0x76,0x6f,0x6c,0x75,0x6d,0x65,0x69,0x55))
  205(0,bytes(0x04,0x08,0x6f,0x3a,0x13,0x52,0x50,0x47,0x3a,0x3a,0x4d,0x6f,0x76,0x65,0x52,0x6f,0x75,0x74,0x65,0x09,0x3a,0x0c,0x40,0x72,0x65,0x70,0x65,0x61,0x74,0x46,0x3a,0x0f,0x40,0x73,0x6b,0x69,0x70,0x70,0x61,0x62,0x6c,0x65,0x46,0x3a,0x0a,0x40,0x77,0x61,0x69,0x74,0x54,0x3a,0x0a,0x40,0x6c,0x69,0x73,0x74,0x5b,0x0c,0x6f,0x3a,0x15,0x52,0x50,0x47,0x3a,0x3a,0x4d,0x6f,0x76,0x65,0x43,0x6f,0x6d,0x6d,0x61,0x6e,0x64,0x07,0x3a,0x0a,0x40,0x63,0x6f,0x64,0x65,0x69,0x16,0x3a,0x10,0x40,0x70,0x61,0x72,0x61,0x6d,0x65,0x74,0x65,0x72,0x73,0x5b,0x00,0x6f,0x3b,0x0a,0x07,0x3b,0x0b,0x69,0x14,0x3b,0x0c,0x5b,0x06,0x69,0x08,0x6f,0x3b,0x0a,0x07,0x3b,0x0b,0x69,0x17,0x3b,0x0c,0x5b,0x00,0x6f,0x3b,0x0a,0x07,0x3b,0x0b,0x69,0x14,0x3b,0x0c,0x5b,0x06,0x69,0x08,0x6f,0x3b,0x0a,0x07,0x3b,0x0b,0x69,0x18,0x3b,0x0c,0x5b,0x00,0x6f,0x3b,0x0a,0x07,0x3b,0x0b,0x69,0x2a,0x3b,0x0c,0x5b,0x00,0x6f,0x3b,0x0a,0x07,0x3b,0x0b,0x69,0x00,0x3b,0x0c,0x5b,0x00))
  205(-1,bytes(0x04,0x08,0x6f,0x3a,0x13,0x52,0x50,0x47,0x3a,0x3a,0x4d,0x6f,0x76,0x65,0x52,0x6f,0x75,0x74,0x65,0x09,0x3a,0x0c,0x40,0x72,0x65,0x70,0x65,0x61,0x74,0x46,0x3a,0x0f,0x40,0x73,0x6b,0x69,0x70,0x70,0x61,0x62,0x6c,0x65,0x54,0x3a,0x0a,0x40,0x77,0x61,0x69,0x74,0x54,0x3a,0x0a,0x40,0x6c,0x69,0x73,0x74,0x5b,0x07,0x6f,0x3a,0x15,0x52,0x50,0x47,0x3a,0x3a,0x4d,0x6f,0x76,0x65,0x43,0x6f,0x6d,0x6d,0x61,0x6e,0x64,0x07,0x3a,0x0a,0x40,0x63,0x6f,0x64,0x65,0x69,0x11,0x3a,0x10,0x40,0x70,0x61,0x72,0x61,0x6d,0x65,0x74,0x65,0x72,0x73,0x5b,0x00,0x6f,0x3b,0x0a,0x07,0x3b,0x0b,0x69,0x00,0x3b,0x0c,0x5b,0x00))
  250(bytes(0x04,0x08,0x6f,0x3a,0x0c,0x52,0x50,0x47,0x3a,0x3a,0x53,0x45,0x08,0x3a,0x0a,0x40,0x6e,0x61,0x6d,0x65,0x49,0x22,0x09,0x4d,0x6f,0x76,0x65,0x06,0x3a,0x06,0x45,0x54,0x3a,0x0b,0x40,0x70,0x69,0x74,0x63,0x68,0x69,0x69,0x3a,0x0c,0x40,0x76,0x6f,0x6c,0x75,0x6d,0x65,0x69,0x55))
  TeleportPlayer(0,28,82,18,0,0)
  0()



EVENT   65
 PAGE   1
  ShowMessageFace("",0,0,2,1)
  ShowMessage("扉は固く閉ざされている……")
  0()



EVENT   66
 PAGE   1
  ShowMessageFace("",0,0,2,1)
  ShowMessage("扉は固く閉ざされている……")
  0()



EVENT   67
 PAGE   1
  ShowMessageFace("",0,0,2,1)
  ShowMessage("扉は固く閉ざされている……")
  0()



EVENT   68
 PAGE   1
  250(bytes(0x04,0x08,0x6f,0x3a,0x0c,0x52,0x50,0x47,0x3a,0x3a,0x53,0x45,0x08,0x3a,0x0a,0x40,0x6e,0x61,0x6d,0x65,0x49,0x22,0x09,0x4d,0x6f,0x76,0x65,0x06,0x3a,0x06,0x45,0x54,0x3a,0x0b,0x40,0x70,0x69,0x74,0x63,0x68,0x69,0x69,0x3a,0x0c,0x40,0x76,0x6f,0x6c,0x75,0x6d,0x65,0x69,0x55))
  TeleportPlayer(0,2,236,260,2,0)
  0()



EVENT   69
 PAGE   1
  250(bytes(0x04,0x08,0x6f,0x3a,0x0c,0x52,0x50,0x47,0x3a,0x3a,0x53,0x45,0x08,0x3a,0x0a,0x40,0x6e,0x61,0x6d,0x65,0x49,0x22,0x09,0x4d,0x6f,0x76,0x65,0x06,0x3a,0x06,0x45,0x54,0x3a,0x0b,0x40,0x70,0x69,0x74,0x63,0x68,0x69,0x69,0x3a,0x0c,0x40,0x76,0x6f,0x6c,0x75,0x6d,0x65,0x69,0x55))
  TeleportPlayer(0,2,236,260,2,0)
  0()



EVENT   70
 PAGE   1
  250(bytes(0x04,0x08,0x6f,0x3a,0x0c,0x52,0x50,0x47,0x3a,0x3a,0x53,0x45,0x08,0x3a,0x0a,0x40,0x6e,0x61,0x6d,0x65,0x49,0x22,0x09,0x4d,0x6f,0x76,0x65,0x06,0x3a,0x06,0x45,0x54,0x3a,0x0b,0x40,0x70,0x69,0x74,0x63,0x68,0x69,0x69,0x3a,0x0c,0x40,0x76,0x6f,0x6c,0x75,0x6d,0x65,0x69,0x55))
  TeleportPlayer(0,2,236,260,2,0)
  0()



EVENT   71
 PAGE   1
  250(bytes(0x04,0x08,0x6f,0x3a,0x0c,0x52,0x50,0x47,0x3a,0x3a,0x53,0x45,0x08,0x3a,0x0a,0x40,0x6e,0x61,0x6d,0x65,0x49,0x22,0x09,0x4d,0x6f,0x76,0x65,0x06,0x3a,0x06,0x45,0x54,0x3a,0x0b,0x40,0x70,0x69,0x74,0x63,0x68,0x69,0x69,0x3a,0x0c,0x40,0x76,0x6f,0x6c,0x75,0x6d,0x65,0x69,0x55))
  TeleportPlayer(0,2,236,260,2,0)
  0()



EVENT   72
 PAGE   1
  250(bytes(0x04,0x08,0x6f,0x3a,0x0c,0x52,0x50,0x47,0x3a,0x3a,0x53,0x45,0x08,0x3a,0x0a,0x40,0x6e,0x61,0x6d,0x65,0x49,0x22,0x09,0x4d,0x6f,0x76,0x65,0x06,0x3a,0x06,0x45,0x54,0x3a,0x0b,0x40,0x70,0x69,0x74,0x63,0x68,0x69,0x69,0x3a,0x0c,0x40,0x76,0x6f,0x6c,0x75,0x6d,0x65,0x69,0x55))
  TeleportPlayer(0,2,236,260,2,0)
  0()



EVENT   73
 PAGE   1
  250(bytes(0x04,0x08,0x6f,0x3a,0x0c,0x52,0x50,0x47,0x3a,0x3a,0x53,0x45,0x08,0x3a,0x0a,0x40,0x6e,0x61,0x6d,0x65,0x49,0x22,0x09,0x4d,0x6f,0x76,0x65,0x06,0x3a,0x06,0x45,0x54,0x3a,0x0b,0x40,0x70,0x69,0x74,0x63,0x68,0x69,0x69,0x3a,0x0c,0x40,0x76,0x6f,0x6c,0x75,0x6d,0x65,0x69,0x55))
  TeleportPlayer(0,2,236,260,2,0)
  0()



EVENT   74
 PAGE   1
  250(bytes(0x04,0x08,0x6f,0x3a,0x0c,0x52,0x50,0x47,0x3a,0x3a,0x53,0x45,0x08,0x3a,0x0a,0x40,0x6e,0x61,0x6d,0x65,0x49,0x22,0x09,0x4d,0x6f,0x76,0x65,0x06,0x3a,0x06,0x45,0x54,0x3a,0x0b,0x40,0x70,0x69,0x74,0x63,0x68,0x69,0x69,0x3a,0x0c,0x40,0x76,0x6f,0x6c,0x75,0x6d,0x65,0x69,0x55))
  TeleportPlayer(0,28,22,26,0,0)
  0()



EVENT   75
 PAGE   1
  250(bytes(0x04,0x08,0x6f,0x3a,0x0c,0x52,0x50,0x47,0x3a,0x3a,0x53,0x45,0x08,0x3a,0x0a,0x40,0x6e,0x61,0x6d,0x65,0x49,0x22,0x09,0x4d,0x6f,0x76,0x65,0x06,0x3a,0x06,0x45,0x54,0x3a,0x0b,0x40,0x70,0x69,0x74,0x63,0x68,0x69,0x69,0x3a,0x0c,0x40,0x76,0x6f,0x6c,0x75,0x6d,0x65,0x69,0x55))
  TeleportPlayer(0,2,236,260,2,0)
  0()



EVENT   76
 PAGE   1
  250(bytes(0x04,0x08,0x6f,0x3a,0x0c,0x52,0x50,0x47,0x3a,0x3a,0x53,0x45,0x08,0x3a,0x0a,0x40,0x6e,0x61,0x6d,0x65,0x49,0x22,0x09,0x4d,0x6f,0x76,0x65,0x06,0x3a,0x06,0x45,0x54,0x3a,0x0b,0x40,0x70,0x69,0x74,0x63,0x68,0x69,0x69,0x3a,0x0c,0x40,0x76,0x6f,0x6c,0x75,0x6d,0x65,0x69,0x55))
  TeleportPlayer(0,2,236,260,2,0)
  0()



EVENT   77
 PAGE   1
  250(bytes(0x04,0x08,0x6f,0x3a,0x0c,0x52,0x50,0x47,0x3a,0x3a,0x53,0x45,0x08,0x3a,0x0a,0x40,0x6e,0x61,0x6d,0x65,0x49,0x22,0x09,0x4d,0x6f,0x76,0x65,0x06,0x3a,0x06,0x45,0x54,0x3a,0x0b,0x40,0x70,0x69,0x74,0x63,0x68,0x69,0x69,0x3a,0x0c,0x40,0x76,0x6f,0x6c,0x75,0x6d,0x65,0x69,0x55))
  TeleportPlayer(0,2,236,260,2,0)
  0()



EVENT   78
 PAGE   1
  250(bytes(0x04,0x08,0x6f,0x3a,0x0c,0x52,0x50,0x47,0x3a,0x3a,0x53,0x45,0x08,0x3a,0x0a,0x40,0x6e,0x61,0x6d,0x65,0x49,0x22,0x09,0x4d,0x6f,0x76,0x65,0x06,0x3a,0x06,0x45,0x54,0x3a,0x0b,0x40,0x70,0x69,0x74,0x63,0x68,0x69,0x69,0x3a,0x0c,0x40,0x76,0x6f,0x6c,0x75,0x6d,0x65,0x69,0x55))
  TeleportPlayer(0,2,236,260,2,0)
  0()



EVENT   79
 PAGE   1
  250(bytes(0x04,0x08,0x6f,0x3a,0x0c,0x52,0x50,0x47,0x3a,0x3a,0x53,0x45,0x08,0x3a,0x0a,0x40,0x6e,0x61,0x6d,0x65,0x49,0x22,0x09,0x4d,0x6f,0x76,0x65,0x06,0x3a,0x06,0x45,0x54,0x3a,0x0b,0x40,0x70,0x69,0x74,0x63,0x68,0x69,0x69,0x3a,0x0c,0x40,0x76,0x6f,0x6c,0x75,0x6d,0x65,0x69,0x55))
  TeleportPlayer(0,2,236,260,2,0)
  0()



EVENT   80
 PAGE   1
  250(bytes(0x04,0x08,0x6f,0x3a,0x0c,0x52,0x50,0x47,0x3a,0x3a,0x53,0x45,0x08,0x3a,0x0a,0x40,0x6e,0x61,0x6d,0x65,0x49,0x22,0x09,0x4d,0x6f,0x76,0x65,0x06,0x3a,0x06,0x45,0x54,0x3a,0x0b,0x40,0x70,0x69,0x74,0x63,0x68,0x69,0x69,0x3a,0x0c,0x40,0x76,0x6f,0x6c,0x75,0x6d,0x65,0x69,0x55))
  TeleportPlayer(0,2,236,260,2,0)
  0()



EVENT   81
 PAGE   1
  250(bytes(0x04,0x08,0x6f,0x3a,0x0c,0x52,0x50,0x47,0x3a,0x3a,0x53,0x45,0x08,0x3a,0x0a,0x40,0x6e,0x61,0x6d,0x65,0x49,0x22,0x09,0x4d,0x6f,0x76,0x65,0x06,0x3a,0x06,0x45,0x54,0x3a,0x0b,0x40,0x70,0x69,0x74,0x63,0x68,0x69,0x69,0x3a,0x0c,0x40,0x76,0x6f,0x6c,0x75,0x6d,0x65,0x69,0x55))
  TeleportPlayer(0,2,236,260,2,0)
  0()



EVENT   82
 PAGE   1
  ShowMessageFace("",0,0,2,1)
  ShowMessage("\\n<神官>おお、神よ……")
  If(4,531,0)
   ShowMessageFace("saniria_fc2",0,0,2,2)
   ShowMessage("\\n<King of San Ilia>命に別状はないな……")
   ShowMessage("すまないが、しばらく救護を待ってくれ。")
   ShowMessageFace("",0,0,2,3)
   ShowMessage("\\n<神官>はい……どうか他の者達を……")
   0()
  EndIf()
  0()



EVENT   83
 PAGE   1
  0()



EVENT   84
 PAGE   1
  ChangeSelfSwitch("A",0)
  If(0,4,0)
   ShowMessageFace("alice_fc5",2,0,2,1)
   ShowMessage("\\n<Alice>サン・イリアを攻めているのは、人魚の大群か！")
   ShowMessage("クィーンマーメイドめ、魔王の軍門に下ったな！")
   0()
  EndIf()
  If(0,5,0)
   ShowMessageFace("iriasu_fc4",7,0,2,2)
   ShowMessage("\\n<Ilias>サン・イリアを攻めているのは、人魚の大群ですね。")
   ShowMessage("クィーンマーメイド……魔王の軍門に下りましたか！")
   0()
  EndIf()
  If(4,118,0)
   ShowMessageFace("meia_fc1",3,0,2,3)
   ShowMessage("\\n<Meia>ああ、なんという事でしょう……")
   0()
  EndIf()
  ShowMessageFace("ruka_fc1",0,0,2,4)
  ShowMessage("\\n<Luka>じゃあ、人魚達を統率してるクィーンマーメイドを討てばいいんだね？")
  If(0,4,0)
   ShowMessageFace("alice_fc5",2,0,2,5)
   ShowMessage("\\n<Alice>女王本人が自ら軍を率いているとは限らん……")
   ShowMessage("が、リーダーがいるのは間違いない。")
   ShowMessageFace("alice_fc5",2,0,2,6)
   ShowMessage("\\n<Alice>軍を指揮している者を見つけ出し、そいつを叩きのめすぞ！")
   0()
  EndIf()
  If(0,5,0)
   ShowMessageFace("iriasu_fc4",7,0,2,7)
   ShowMessage("\\n<Ilias>女王本人が自ら軍を率いているとは限りませんが……")
   ShowMessage("リーダーは必ず存在するはずです。")
   ShowMessageFace("iriasu_fc4",7,0,2,8)
   ShowMessage("\\n<Ilias>その者を見つけ出し、討ち取りましょう！")
   0()
  EndIf()
  If(4,45,0)
   ShowMessageFace("alicetromeria_fc1",4,0,2,9)
   ShowMessage("\\n<Alicetroemeria>水から上がった魚が、陸を欲しがってどうしようというのか……")
   ShowMessage("俎の上に乗るだけですわね。")
   0()
  EndIf()
  ShowMessageFace("ruka_fc1",0,0,2,10)
  ShowMessage("\\n<Luka>よし、行くぞっ！")
  0()
 PAGE   2
  // condition: self-switch A is ON
  0()



EVENT   85
 PAGE   1
  0()
 PAGE   2
  // condition: switch 2227 is ON
  ShowMessageFace("g_marmaid_fc1",2,0,2,1)
  ShowMessage("\\n<ジェネラルマーメイド>エル様！？")
  0()



EVENT   86
 PAGE   1
  0()
 PAGE   2
  // condition: switch 2227 is ON
  ShowMessageFace("g_marmaid_fc1",2,0,2,1)
  ShowMessage("\\n<ジェネラルマーメイド>くっ、ここで指揮を執らねば……")
  0()



EVENT   87
 PAGE   1
  ShowMessageFace("",2,0,2,1)
  ShowMessage("\\n<騎士>一歩も退かぬぞ！　ぬぉぉぉぉ！！")
  ShowMessageFace("knight_mermaid_fc1",0,0,2,2)
  ShowMessage("\\n<ナイトマーメイド>女王様のために！")
  0()



EVENT   88
 PAGE   1
  ShowMessageFace("",2,0,2,1)
  ShowMessage("\\n<騎士>一歩も退かぬぞ！　ぬぉぉぉぉ！！")
  ShowMessageFace("knight_mermaid_fc1",0,0,2,2)
  ShowMessage("\\n<ナイトマーメイド>女王様のために！")
  0()



EVENT   90
 PAGE   1
  ShowMessageFace("k_mermaid_fc1",0,0,2,1)
  ShowMessage("\\n<Mermaid Pirate>……………………")
  ShowMessageFace("",0,0,2,2)
  ShowMessage("\\n<Young Boy>うわーん！")
  ShowMessageFace("",0,0,2,3)
  ShowMessage("\\n<Young Girl>ママー！")
  ShowMessageFace("ruka_fc1",0,0,2,4)
  ShowMessage("\\n<Luka>やめろっ！")
  ShowMessageFace("k_mermaid_fc1",0,0,2,5)
  ShowMessage("\\n<Mermaid Pirate>……大声出さないの！")
  ShowMessage("子供達が怯えてるのが分からない……？")
  ShowMessageFace("k_mermaid_fc1",0,0,2,6)
  ShowMessage("\\n<Mermaid Pirate>ほら、おうちはどこ？")
  ShowMessage("近くの避難所に送ってあげるから、泣かないで。")
  ShowMessageFace("ruka_fc1",0,0,2,7)
  ShowMessage("\\n<Luka>……………………")
  355("actor_label_jump")
  EndEventProcessing()
  DefineLabel("99")
  ShowMessageFace("namazu_fc1",0,0,2,8)
  ShowMessage("\\n<ギギ>ここは放っておいて良さそうじゃな……")
  EndEventProcessing()
  0()



EVENT   91
 PAGE   1
  ShowMessageFace("k_mermaid_fc1",0,0,2,1)
  ShowMessage("\\n<Mermaid Pirate>……………………")
  ShowMessageFace("",0,0,2,2)
  ShowMessage("\\n<Young Boy>うわーん！")
  ShowMessageFace("",0,0,2,3)
  ShowMessage("\\n<Young Girl>ママー！")
  ShowMessageFace("ruka_fc1",0,0,2,4)
  ShowMessage("\\n<Luka>やめろっ！")
  ShowMessageFace("k_mermaid_fc1",0,0,2,5)
  ShowMessage("\\n<Mermaid Pirate>……大声出さないの！")
  ShowMessage("子供達が怯えてるのが分からない……？")
  ShowMessageFace("k_mermaid_fc1",0,0,2,6)
  ShowMessage("\\n<Mermaid Pirate>ほら、おうちはどこ？")
  ShowMessage("近くの避難所に送ってあげるから、泣かないで。")
  ShowMessageFace("ruka_fc1",0,0,2,7)
  ShowMessage("\\n<Luka>……………………")
  355("actor_label_jump")
  EndEventProcessing()
  DefineLabel("99")
  ShowMessageFace("namazu_fc1",0,0,2,8)
  ShowMessage("\\n<ギギ>ここは放っておいて良さそうじゃな……")
  EndEventProcessing()
  0()



EVENT   92
 PAGE   1
  If(0,2222,1)
   ShowMessageFace("mermaid_fc1",3,0,2,1)
   ShowMessage("\\n<マーメイド>魔物の良さ、教えてあげるわ……")
   ShowMessageFace("",0,0,2,2)
   ShowMessage("\\n<神官>ああ……だ、ダメです……！！")
   0()
  EndIf()
  If(0,2222,0)
   ShowMessageFace("",0,0,2,3)
   ShowMessage("\\n<神官>もう少しで、罪を犯していたところでした……")
   0()
  EndIf()
  0()



EVENT   93
 PAGE   1
  ShowMessageFace("knight_mermaid_fc1",0,0,2,1)
  ShowMessage("\\n<ナイトマーメイド>……………………")
  0()



EVENT   94
 PAGE   1
  ShowMessageFace("",0,0,2,1)
  ShowMessage("\\n<騎士>この身、骸と化しても……！")
  ShowMessageFace("knight_mermaid_fc1",0,0,2,2)
  ShowMessage("\\n<ナイトマーメイド>邪魔よ、どいてっ！")
  0()



EVENT   95
 PAGE   1
  ShowMessageFace("knight_mermaid_fc1",0,0,2,1)
  ShowMessage("\\n<ナイトマーメイド>……………………")
  0()



EVENT   96
 PAGE   1
  ShowMessageFace("",0,0,2,1)
  ShowMessage("\\n<Youth>たつのこ、がんばれー！")
  0()



EVENT   97
 PAGE   1
  ShowMessageFace("knight_mermaid_fc1",0,0,2,1)
  ShowMessage("\\n<ナイトマーメイド>人間にしては、腕が立つようね……")
  ShowMessage("でも、その程度じゃ人魚の騎士には勝てないわよ！")
  ShowMessageFace("",0,0,2,2)
  ShowMessage("\\n<騎士>ぐっ、なんという強さ……！")
  ShowMessage("どうか、ご助力を……！")
  ShowMessageFace("ruka_fc1",0,0,2,3)
  ShowMessage("\\n<Luka>僕が相手だっ！")
  Battle(0,795,false,false)
  ChangeSwitch(2225,2225,0)
  ShowMessageFace("",0,0,2,4)
  ShowMessage("\\n<騎士>危ないところを、ありがとうございます。")
  ShowMessage("お礼に、これを……")
  250(bytes(0x04,0x08,0x6f,0x3a,0x0c,0x52,0x50,0x47,0x3a,0x3a,0x53,0x45,0x08,0x3a,0x0a,0x40,0x6e,0x61,0x6d,0x65,0x49,0x22,0x0a,0x49,0x74,0x65,0x6d,0x31,0x06,0x3a,0x06,0x45,0x54,0x3a,0x0b,0x40,0x70,0x69,0x74,0x63,0x68,0x69,0x69,0x3a,0x0c,0x40,0x76,0x6f,0x6c,0x75,0x6d,0x65,0x69,0x55))
  ChangeInventory_Item(404,0,0,1)
  EndEventProcessing()
  0()
 PAGE   2
  // condition: switch 2225 is ON
  0()



EVENT   98
 PAGE   1
  0()



EVENT   99
 PAGE   1
  0()



EVENT   100
 PAGE   1
  ShowMessageFace("",0,0,2,1)
  ShowMessage("\\n<ガラの悪そうな若者>やっぱ、まっとうに生きなきゃダメだな……")
  0()



EVENT   101
 PAGE   1
  0()



EVENT   102
 PAGE   1
  ShowMessageFace("",0,0,2,1)
  ShowMessage("\\n<Middle-age Man>神聖なるサン・イリアが……魔物に蹂躙されるなんて……")
  0()



EVENT   103
 PAGE   1
  If(0,2225,1)
   ShowMessageFace("knight_mermaid_fc1",0,0,2,1)
   ShowMessage("\\n<ナイトマーメイド>人間にしては、腕が立つようね……")
   ShowMessage("でも、その程度じゃ人魚の騎士には勝てないわよ！")
   ShowMessageFace("",0,0,2,2)
   ShowMessage("\\n<騎士>ぐっ、なんという強さ……！")
   ShowMessage("どうか、ご助力を……！")
   0()
  EndIf()
  If(0,2225,0)
   ShowMessageFace("",0,0,2,3)
   ShowMessage("\\n<騎士>傷が深い……少し休まなければ。")
   0()
  EndIf()
  0()



EVENT   104
 PAGE   1
  ShowMessageFace("",0,0,2,1)
  ShowMessage("\\n<Soldier>ふんばってやる……！")
  0()



EVENT   105
 PAGE   1
  0()
 PAGE   2
  // condition: switch 2227 is ON
  0()



EVENT   106
 PAGE   1
  0()



EVENT   107
 PAGE   1
  ShowMessageFace("k_mermaid_fc1",0,0,2,1)
  ShowMessage("\\n<Mermaid Pirate>……………………")
  ShowMessageFace("",0,0,2,2)
  ShowMessage("\\n<Young Boy>うわーん！")
  ShowMessageFace("",0,0,2,3)
  ShowMessage("\\n<Young Girl>ママー！")
  ShowMessageFace("ruka_fc1",0,0,2,4)
  ShowMessage("\\n<Luka>やめろっ！")
  ShowMessageFace("k_mermaid_fc1",0,0,2,5)
  ShowMessage("\\n<Mermaid Pirate>……大声出さないの！")
  ShowMessage("子供達が怯えてるのが分からない……？")
  ShowMessageFace("k_mermaid_fc1",0,0,2,6)
  ShowMessage("\\n<Mermaid Pirate>ほら、おうちはどこ？")
  ShowMessage("近くの避難所に送ってあげるから、泣かないで。")
  ShowMessageFace("ruka_fc1",0,0,2,7)
  ShowMessage("\\n<Luka>……………………")
  355("actor_label_jump")
  EndEventProcessing()
  DefineLabel("99")
  ShowMessageFace("namazu_fc1",0,0,2,8)
  ShowMessage("\\n<ギギ>ここは放っておいて良さそうじゃな……")
  EndEventProcessing()
  0()



EVENT   108
 PAGE   1
  ShowMessageFace("",0,0,2,1)
  ShowMessage("\\n<老人>ナタリアポートに住む孫に伝えてくれ……")
  ShowMessage("人魚を嫁に取るな、一生尻に敷かれる……と。")
  If(4,118,0)
   ShowMessageFace("meia_fc1",3,0,2,2)
   ShowMessage("\\n<Meia>そんな事、しないですよ……")
   0()
  EndIf()
  0()



EVENT   109
 PAGE   1
  ShowMessageFace("",0,0,2,1)
  ShowMessage("\\n<Soldier>この数……防ぎきれん……")
  0()



EVENT   110
 PAGE   1
  ShowMessageFace("",0,0,2,1)
  ShowMessage("\\n<おばさん>あんた……無事でいておくれよ……")
  0()



EVENT   111
 PAGE   1
  ShowMessageFace("",2,0,2,1)
  ShowMessage("\\n<騎士>おのれ、魔物め！　聖都から去れ！")
  ShowMessageFace("mermaid_fc1",3,0,2,2)
  ShowMessage("\\n<マーメイド>水の流れる都市……ここは私達が頂くわ！")
  0()



EVENT   112
 PAGE   1
  ShowMessageFace("",0,0,2,1)
  ShowMessage("\\n<神官>聖なるオーラで、対抗します！")
  ShowMessageFace("mermaid_fc1",3,0,2,2)
  ShowMessage("\\n<マーメイド>ああもう、面倒ね……！")
  0()



EVENT   113
 PAGE   1
  ShowMessageFace("",0,0,2,1)
  ShowMessage("\\n<Soldier>うぉぉぉぉ！！　通すかー！！")
  0()



EVENT   114
 PAGE   1
  ShowMessageFace("",2,0,2,1)
  ShowMessage("\\n<騎士>おのれ、魔物め！　聖都から去れ！")
  ShowMessageFace("mermaid_fc1",3,0,2,2)
  ShowMessage("\\n<マーメイド>水の流れる都市……ここは私達が頂くわ！")
  0()



EVENT   115
 PAGE   1
  ShowMessageFace("",0,0,2,1)
  ShowMessage("\\n<Thug>人魚にやられるなんて……")
  0()



EVENT   116
 PAGE   1
  ShowMessageFace("",0,0,2,1)
  ShowMessage("\\n<騎士>イリアス様、どうかご加護を……")
  355("actor_label_jump")
  EndEventProcessing()
  DefineLabel("26")
  ShowMessageFace("iriasu_fc4",2,0,2,2)
  ShowMessage("\\n<Ilias>数回ヌかれただけで、命に別状はありませんね。")
  ShowMessage("まったく、不甲斐ない……")
  EndEventProcessing()
  0()



EVENT   117
 PAGE   1
  ShowMessageFace("",0,0,2,1)
  ShowMessage("\\n<Soldier>一太刀も当てられないなんて……")
  0()



EVENT   118
 PAGE   1
  ShowMessageFace("mermaid_fc1",3,0,2,1)
  ShowMessage("\\n<マーメイド>……")
  0()



EVENT   119
 PAGE   1
  ShowMessageFace("",0,0,2,1)
  ShowMessage("\\n<Middle-age Man>海賊まで侵入してきてるのか……")
  ShowMessage("ああ……もう終わりだ……")
  0()



EVENT   120
 PAGE   1
  ShowMessageFace("",0,0,2,1)
  ShowMessage("\\n<白魔導師>ちょっと海賊に同情したくなりますね……")
  0()



EVENT   121
 PAGE   1
  ShowMessageFace("",0,0,2,1)
  ShowMessage("\\n<Youth>はぅぅぅ……")
  0()



EVENT   122
 PAGE   1
  ShowMessageFace("",0,0,2,1)
  ShowMessage("\\n<騎士>力、及ばず……")
  0()



EVENT   123
 PAGE   1
  0()



EVENT   124
 PAGE   1
  250(bytes(0x04,0x08,0x6f,0x3a,0x0c,0x52,0x50,0x47,0x3a,0x3a,0x53,0x45,0x08,0x3a,0x0a,0x40,0x6e,0x61,0x6d,0x65,0x49,0x22,0x0a,0x49,0x74,0x65,0x6d,0x31,0x06,0x3a,0x06,0x45,0x54,0x3a,0x0b,0x40,0x70,0x69,0x74,0x63,0x68,0x69,0x69,0x3a,0x0c,0x40,0x76,0x6f,0x6c,0x75,0x6d,0x65,0x69,0x55))
  ChangeSelfSwitch("A",0)
  ChangeInventory_Item(101,0,0,1)
  0()
 PAGE   2
  // condition: self-switch A is ON
  0()



EVENT   125
 PAGE   1
  250(bytes(0x04,0x08,0x6f,0x3a,0x0c,0x52,0x50,0x47,0x3a,0x3a,0x53,0x45,0x08,0x3a,0x0a,0x40,0x6e,0x61,0x6d,0x65,0x49,0x22,0x0a,0x49,0x74,0x65,0x6d,0x31,0x06,0x3a,0x06,0x45,0x54,0x3a,0x0b,0x40,0x70,0x69,0x74,0x63,0x68,0x69,0x69,0x3a,0x0c,0x40,0x76,0x6f,0x6c,0x75,0x6d,0x65,0x69,0x55))
  ChangeSelfSwitch("A",0)
  ChangeInventory_Item(109,0,0,1)
  0()
 PAGE   2
  // condition: self-switch A is ON
  0()



EVENT   126
 PAGE   1
  ShowMessageFace("mermaid_fc1",3,0,2,1)
  ShowMessage("\\n<マーメイド>女同士でも、イイでしょ……？")
  ShowMessageFace("",0,0,2,2)
  ShowMessage("\\n<バニー>ああっ……こんなぁ……")
  ShowMessageFace("ruka_fc1",0,0,2,3)
  ShowMessage("\\n<Luka>やめろっ！")
  ShowMessageFace("",0,0,2,4)
  ShowMessage("\\n<バニー>ちょっと、邪魔しないでよ……いい所なのにぃ……")
  ShowMessageFace("ruka_fc1",0,0,2,5)
  ShowMessage("\\n<Luka>なんだ、和姦か……")
  If(4,529,0)
   ShowMessageFace("sara_fc1",4,0,2,6)
   ShowMessage("\\n<Sara>ちょっと、うらやましい……")
   0()
  EndIf()
  0()



EVENT   127
 PAGE   1
  ShowMessageFace("",0,0,2,1)
  ShowMessage("\\n<老人>イリアス様を軽んじた報いか……")
  0()



EVENT   128
 PAGE   1
  ShowMessageFace("knight_mermaid_fc1",0,0,2,1)
  ShowMessage("\\n<ナイトマーメイド>……………………")
  0()



EVENT   129
 PAGE   1
  ShowMessageFace("",0,0,2,1)
  ShowMessage("\\n<剣士>こいつは俺に任せろ……！")
  ShowMessageFace("knight_mermaid_fc1",0,0,2,2)
  ShowMessage("\\n<ナイトマーメイド>さすがは聖都、腕の立つ者が多いわね……！")
  0()



EVENT   130
 PAGE   1
  ShowMessageFace("tatunoko_k_fc1",1,0,2,1)
  ShowMessage("\\n<Sea Horse Marine>海兵集団奥義、ボコボコの陣！")
  ShowMessageFace("k_mermaid_fc1",0,0,2,2)
  ShowMessage("\\n<Mermaid Pirate>こんなの、卑怯でしょー！？")
  0()

EVENT   132
 PAGE   1
  ShowMessageFace("dog_fc1",0,0,2,1)
  ShowMessage("\\n<Dog Girl>Woof, woof!")
  ShowMessageFace("mermaid_fc1",3,0,2,2)
  ShowMessage("\\n<マーメイド>あら、かわいい……")
  ShowMessage("お手できますか？")
  ShowMessageFace("dog_fc1",4,0,2,3)
  ShowMessage("\\n<Dog Girl>わう！")
  ShowMessageFace("mermaid_fc1",3,0,2,4)
  ShowMessage("\\n<マーメイド>うふふっ、いい子……")
  ShowMessage("こんぶ飴をあげますね。")
  ShowMessageFace("dog_fc1",4,0,2,5)
  ShowMessage("\\n<Dog Girl>わう～♪")
  355("actor_label_jump")
  EndEventProcessing()
  DefineLabel("60")
  ShowMessageFace("dog_fc1",0,0,2,6)
  ShowMessage("\\n<Pochi>あたしにはくれないの……？")
  ShowMessageFace("mermaid_fc1",3,0,2,7)
  ShowMessage("\\n<マーメイド>はい、どうぞ。")
  ShowMessageFace("dog_fc1",4,0,2,8)
  ShowMessage("\\n<Pochi>わん♪")
  EndEventProcessing()
  DefineLabel("222")
  ShowMessageFace("nekomata_fc1",2,0,2,9)
  ShowMessage("\\n<Tama>にゃ～ん……")
  ShowMessageFace("mermaid_fc1",3,0,2,10)
  ShowMessage("\\n<マーメイド>あら、この子も欲しいんですか……？")
  ShowMessage("はい、どうぞ。")
  ShowMessageFace("nekomata_fc1",2,0,2,11)
  ShowMessage("\\n<Tama>にゃっ♪")
  EndEventProcessing()
  0()



EVENT   134
 PAGE   1
  0()



EVENT   135
 PAGE   1
  0()



EVENT   136
 PAGE   1
  0()



EVENT   141
 PAGE   1
  0()



EVENT   142
 PAGE   1
  0()



EVENT   143
 PAGE   1
  ShowMessageFace("mermaid_fc1",3,0,2,1)
  ShowMessage("\\n<マーメイド>魔物の良さ、教えてあげるわ……")
  ShowMessageFace("",0,0,2,2)
  ShowMessage("\\n<神官>ああ……だ、ダメです……！！")
  ShowMessageFace("ruka_fc1",0,0,2,3)
  ShowMessage("\\n<Luka>やめろっ！")
  If(4,224,0)
   ShowMessageFace("kappa_fc1",0,0,2,4)
   ShowMessage("\\n<Kawako>かっぱっぱ～！")
   ShowMessage("人魚と相撲だよ～！")
   0()
  EndIf()
  Battle(0,579,false,false)
  ChangeSwitch(2222,2222,0)
  ShowMessageFace("",0,0,2,5)
  ShowMessage("\\n<神官>た、助かりました……これをどうぞ！")
  250(bytes(0x04,0x08,0x6f,0x3a,0x0c,0x52,0x50,0x47,0x3a,0x3a,0x53,0x45,0x08,0x3a,0x0a,0x40,0x6e,0x61,0x6d,0x65,0x49,0x22,0x0a,0x49,0x74,0x65,0x6d,0x31,0x06,0x3a,0x06,0x45,0x54,0x3a,0x0b,0x40,0x70,0x69,0x74,0x63,0x68,0x69,0x69,0x3a,0x0c,0x40,0x76,0x6f,0x6c,0x75,0x6d,0x65,0x69,0x55))
  ChangeInventory_Item(28,0,0,1)
  EndEventProcessing()
  0()
 PAGE   2
  // condition: switch 2222 is ON
  0()



EVENT   144
 PAGE   1
  0()



EVENT   145
 PAGE   1
  0()



EVENT   146
 PAGE   1
  0()



EVENT   147
 PAGE   1
  0()



EVENT   148
 PAGE   1
  0()



EVENT   149
 PAGE   1
  0()



EVENT   150
 PAGE   1
  0()



EVENT   151
 PAGE   1
  0()



EVENT   152
 PAGE   1
  0()



EVENT   153
 PAGE   1
  ShowMessageFace("",0,0,2,1)
  ShowMessage("\\n<Officer>これ以上、中央に進ませはしないぞ！")
  0()



EVENT   154
 PAGE   1
  ShowMessageFace("g_marmaid_fc1",0,0,2,1)
  ShowMessage("\\n<ジェネラルマーメイド>……………………")
  0()



EVENT   155
 PAGE   1
  ShowMessageFace("mermaid_fc1",3,0,2,1)
  ShowMessage("\\n<マーメイド>……")
  0()



EVENT   156
 PAGE   1
  ShowMessageFace("mermaid_fc1",3,0,2,1)
  ShowMessage("\\n<マーメイド>……")
  0()



EVENT   157
 PAGE   1
  ShowMessageFace("",3,0,2,1)
  ShowMessage("\\n<マーメイド>……")
  0()



EVENT   158
 PAGE   1
  ShowMessageFace("mermaid_fc1",3,0,2,1)
  ShowMessage("\\n<マーメイド>……")
  0()



EVENT   159
 PAGE   1
  ShowMessageFace("mermaid_fc1",3,0,2,1)
  ShowMessage("\\n<マーメイド>……")
  0()



EVENT   160
 PAGE   1
  ShowMessageFace("knight_mermaid_fc1",0,0,2,1)
  ShowMessage("\\n<ナイトマーメイド>……………………")
  0()



EVENT   161
 PAGE   1
  ShowMessageFace("knight_mermaid_fc1",0,0,2,1)
  ShowMessage("\\n<ナイトマーメイド>……………………")
  0()



EVENT   162
 PAGE   1
  ShowMessageFace("knight_mermaid_fc1",0,0,2,1)
  ShowMessage("\\n<ナイトマーメイド>……………………")
  0()



EVENT   163
 PAGE   1
  0()



EVENT   164
 PAGE   1
  0()



EVENT   165
 PAGE   1
  0()



EVENT   166
 PAGE   1
  ShowMessageFace("",0,0,2,1)
  ShowMessage("\\n<騎士>この身、骸と化しても……！")
  ShowMessageFace("knight_mermaid_fc1",0,0,2,2)
  ShowMessage("\\n<ナイトマーメイド>邪魔よ、どいてっ！")
  0()



EVENT   167
 PAGE   1
  0()



EVENT   168
 PAGE   1
  ShowMessageFace("",0,0,2,1)
  ShowMessage("\\n<騎士>これ以上、体が動かん……")
  0()



EVENT   169
 PAGE   1
  If(0,2223,1)
   ShowMessageFace("knight_mermaid_fc1",0,0,2,1)
   ShowMessage("\\n<ナイトマーメイド>ちょっと精気を補給させてもらうわ……")
   ShowMessageFace("",0,0,2,2)
   ShowMessage("\\n<Youth>あ……あ、あぁぁ――！！")
   0()
  EndIf()
  If(0,2223,0)
   ShowMessageFace("",0,0,2,3)
   ShowMessage("\\n<Youth>忘れられなくなりそうだ……")
   0()
  EndIf()
  0()



EVENT   170
 PAGE   1
  ShowMessageFace("knight_mermaid_fc1",0,0,2,1)
  ShowMessage("\\n<ナイトマーメイド>ちょっと精気を補給させてもらうわ……")
  ShowMessageFace("",0,0,2,2)
  ShowMessage("\\n<Youth>あ……あ、あぁぁ――！！")
  ShowMessageFace("ruka_fc1",0,0,2,3)
  ShowMessage("\\n<Luka>やめろっ！")
  If(4,203,0)
   ShowMessageFace("tatunoko_k_fc1",0,0,2,4)
   ShowMessage("\\n<Tatsuko>強姦罪の現行犯で逮捕するのです！")
   0()
  EndIf()
  Battle(0,795,false,false)
  ChangeSwitch(2223,2223,0)
  ShowMessageFace("",0,0,2,5)
  ShowMessage("\\n<Youth>はぅぅ……これ、どうぞ……")
  250(bytes(0x04,0x08,0x6f,0x3a,0x0c,0x52,0x50,0x47,0x3a,0x3a,0x53,0x45,0x08,0x3a,0x0a,0x40,0x6e,0x61,0x6d,0x65,0x49,0x22,0x0a,0x49,0x74,0x65,0x6d,0x31,0x06,0x3a,0x06,0x45,0x54,0x3a,0x0b,0x40,0x70,0x69,0x74,0x63,0x68,0x69,0x69,0x3a,0x0c,0x40,0x76,0x6f,0x6c,0x75,0x6d,0x65,0x69,0x55))
  ChangeInventory_Item(342,0,0,1)
  EndEventProcessing()
  0()
 PAGE   2
  // condition: switch 2223 is ON
  0()



EVENT   171
 PAGE   1
  ShowMessageFace("s_mermaid_fc1",1,0,2,1)
  ShowMessage("\\n<商人マーメイド>うちのおっぱい、買いたいやろ……")
  ShowMessage("1500Gで、使い放題やで？")
  ShowMessageFace("",0,0,2,2)
  ShowMessage("\\n<ガラの悪そうな若者>うわぁ、押し売りだー！！")
  ShowMessageFace("ruka_fc1",0,0,2,3)
  ShowMessage("\\n<Luka>やめろっ！")
  If(4,300,0)
   ShowMessageFace("youki_fc1",0,0,2,4)
   ShowMessage("\\n<くれは>ケンカなら、いくらでも買うぜ！")
   0()
  EndIf()
  Battle(0,580,false,false)
  ChangeSwitch(2224,2224,0)
  ShowMessageFace("",0,0,2,5)
  ShowMessage("\\n<ガラの悪そうな若者>押し売り、マジこぇぇ……")
  ShowMessage("これ、持っていってくれよ。")
  250(bytes(0x04,0x08,0x6f,0x3a,0x0c,0x52,0x50,0x47,0x3a,0x3a,0x53,0x45,0x08,0x3a,0x0a,0x40,0x6e,0x61,0x6d,0x65,0x49,0x22,0x0a,0x49,0x74,0x65,0x6d,0x31,0x06,0x3a,0x06,0x45,0x54,0x3a,0x0b,0x40,0x70,0x69,0x74,0x63,0x68,0x69,0x69,0x3a,0x0c,0x40,0x76,0x6f,0x6c,0x75,0x6d,0x65,0x69,0x55))
  ChangeInventory_Item(32,0,0,1)
  EndEventProcessing()
  0()
 PAGE   2
  // condition: switch 2224 is ON
  0()



EVENT   173
 PAGE   1
  ShowMessageFace("k_mermaid_fc1",0,0,2,1)
  ShowMessage("\\n<Mermaid Pirate>……")
  0()



EVENT   174
 PAGE   1
  ShowMessageFace("tatunoko_k_fc1",1,0,2,1)
  ShowMessage("\\n<Sea Horse Marine>海軍より救援に来たのです！")
  ShowMessage("海賊討伐は海軍の役目なのです！")
  ShowMessageFace("k_mermaid_fc1",0,0,2,2)
  ShowMessage("\\n<Mermaid Pirate>海兵はいつも邪魔！")
  ShowMessage("ぶっ倒しちゃうからー！")
  0()



EVENT   175
 PAGE   1
  ShowMessageFace("k_mermaid_fc1",0,0,2,1)
  ShowMessage("\\n<Mermaid Pirate>……")
  0()



EVENT   176
 PAGE   1
  ShowMessageFace("tatunoko_k_fc1",1,0,2,1)
  ShowMessage("\\n<Sea Horse Marine>海軍より救援に来たのです！")
  ShowMessage("海賊討伐は海軍の役目なのです！")
  ShowMessageFace("k_mermaid_fc1",0,0,2,2)
  ShowMessage("\\n<Mermaid Pirate>海兵はいつも邪魔！")
  ShowMessage("ぶっ倒しちゃうからー！")
  0()



EVENT   177
 PAGE   1
  ShowMessageFace("tatunoko_k_fc1",1,0,2,1)
  ShowMessage("\\n<Sea Horse Marine>海軍より救援に来たのです！")
  ShowMessage("海賊討伐は海軍の役目なのです！")
  ShowMessageFace("k_mermaid_fc1",0,0,2,2)
  ShowMessage("\\n<Mermaid Pirate>海兵はいつも邪魔！")
  ShowMessage("ぶっ倒しちゃうからー！")
  0()



EVENT   178
 PAGE   1
  0()



EVENT   179
 PAGE   1
  ShowMessageFace("tatunoko_k_fc1",1,0,2,1)
  ShowMessage("\\n<Sea Horse Marine>海軍より救援に来たのです！")
  ShowMessage("海賊討伐は海軍の役目なのです！")
  ShowMessageFace("k_mermaid_fc1",0,0,2,2)
  ShowMessage("\\n<Mermaid Pirate>海兵はいつも邪魔！")
  ShowMessage("ぶっ倒しちゃうからー！")
  0()



EVENT   180
 PAGE   1
  ShowMessageFace("tatunoko_k_fc1",1,0,2,1)
  ShowMessage("\\n<Sea Horse Marine>海軍より救援に来たのです！")
  ShowMessage("海賊討伐は海軍の役目なのです！")
  ShowMessageFace("k_mermaid_fc1",0,0,2,2)
  ShowMessage("\\n<Mermaid Pirate>海兵はいつも邪魔！")
  ShowMessage("ぶっ倒しちゃうからー！")
  0()



EVENT   181
 PAGE   1
  ShowMessageFace("tatunoko_k_fc1",1,0,2,1)
  ShowMessage("\\n<Sea Horse Marine>海軍より救援に来たのです！")
  ShowMessage("海賊討伐は海軍の役目なのです！")
  ShowMessageFace("k_mermaid_fc1",0,0,2,2)
  ShowMessage("\\n<Mermaid Pirate>海兵はいつも邪魔！")
  ShowMessage("ぶっ倒しちゃうからー！")
  0()



EVENT   182
 PAGE   1
  ShowMessageFace("tatunoko_k_fc1",1,0,2,1)
  ShowMessage("\\n<Sea Horse Marine>海軍より救援に来たのです！")
  ShowMessage("海賊討伐は海軍の役目なのです！")
  ShowMessageFace("k_mermaid_fc1",0,0,2,2)
  ShowMessage("\\n<Mermaid Pirate>海兵はいつも邪魔！")
  ShowMessage("ぶっ倒しちゃうからー！")
  0()



EVENT   183
 PAGE   1
  ShowMessageFace("k_mermaid_fc1",0,0,2,1)
  ShowMessage("\\n<Mermaid Pirate>……")
  0()



EVENT   184
 PAGE   1
  ShowMessageFace("tatunoko_k_fc1",1,0,2,1)
  ShowMessage("\\n<Sea Horse Marine>海軍より救援に来たのです！")
  ShowMessage("海賊討伐は海軍の役目なのです！")
  ShowMessageFace("k_mermaid_fc1",0,0,2,2)
  ShowMessage("\\n<Mermaid Pirate>海兵はいつも邪魔！")
  ShowMessage("ぶっ倒しちゃうからー！")
  0()



EVENT   185
 PAGE   1
  ShowMessageFace("tatunoko_k_fc1",1,0,2,1)
  ShowMessage("\\n<Sea Horse Marine>海兵集団奥義、ボコボコの陣！")
  ShowMessageFace("k_mermaid_fc1",0,0,2,2)
  ShowMessage("\\n<Mermaid Pirate>こんなの、卑怯でしょー！？")
  0()



EVENT   186
 PAGE   1
  ShowMessageFace("tatunoko_k_fc1",1,0,2,1)
  ShowMessage("\\n<Sea Horse Marine>海兵集団奥義、ボコボコの陣！")
  ShowMessageFace("k_mermaid_fc1",0,0,2,2)
  ShowMessage("\\n<Mermaid Pirate>こんなの、卑怯でしょー！？")
  0()



EVENT   187
 PAGE   1
  ShowMessageFace("tatunoko_k_fc1",1,0,2,1)
  ShowMessage("\\n<Sea Horse Marine>海軍より救援に来たのです！")
  ShowMessage("海賊討伐は海軍の役目なのです！")
  ShowMessageFace("k_mermaid_fc1",0,0,2,2)
  ShowMessage("\\n<Mermaid Pirate>海兵はいつも邪魔！")
  ShowMessage("ぶっ倒しちゃうからー！")
  0()



EVENT   188
 PAGE   1
  ShowMessageFace("tatunoko_k_fc1",1,0,2,1)
  ShowMessage("\\n<Sea Horse Marine>海兵集団奥義、ボコボコの陣！")
  ShowMessageFace("k_mermaid_fc1",0,0,2,2)
  ShowMessage("\\n<Mermaid Pirate>こんなの、卑怯でしょー！？")
  0()



EVENT   189
 PAGE   1
  ShowMessageFace("tatunoko_k_fc1",1,0,2,1)
  ShowMessage("\\n<Sea Horse Marine>海軍より救援に来たのです！")
  ShowMessage("海賊討伐は海軍の役目なのです！")
  ShowMessageFace("k_mermaid_fc1",0,0,2,2)
  ShowMessage("\\n<Mermaid Pirate>海兵はいつも邪魔！")
  ShowMessage("ぶっ倒しちゃうからー！")
  0()



EVENT   190
 PAGE   1
  ShowMessageFace("tatunoko_k_fc1",1,0,2,1)
  ShowMessage("\\n<Sea Horse Marine>海軍より救援に来たのです！")
  ShowMessage("海賊討伐は海軍の役目なのです！")
  ShowMessageFace("k_mermaid_fc1",0,0,2,2)
  ShowMessage("\\n<Mermaid Pirate>海兵はいつも邪魔！")
  ShowMessage("ぶっ倒しちゃうからー！")
  0()



EVENT   191
 PAGE   1
  ShowMessageFace("tatunoko_k_fc1",1,0,2,1)
  ShowMessage("\\n<Sea Horse Marine>海軍より救援に来たのです！")
  ShowMessage("海賊討伐は海軍の役目なのです！")
  ShowMessageFace("k_mermaid_fc1",0,0,2,2)
  ShowMessage("\\n<Mermaid Pirate>海兵はいつも邪魔！")
  ShowMessage("ぶっ倒しちゃうからー！")
  0()



EVENT   192
 PAGE   1
  ShowMessageFace("tatunoko_k_fc1",1,0,2,1)
  ShowMessage("\\n<Sea Horse Marine>海軍より救援に来たのです！")
  ShowMessage("海賊討伐は海軍の役目なのです！")
  ShowMessageFace("k_mermaid_fc1",0,0,2,2)
  ShowMessage("\\n<Mermaid Pirate>海兵はいつも邪魔！")
  ShowMessage("ぶっ倒しちゃうからー！")
  0()



EVENT   193
 PAGE   1
  ShowMessageFace("tatunoko_k_fc1",1,0,2,1)
  ShowMessage("\\n<Sea Horse Marine>海兵集団奥義、ボコボコの陣！")
  ShowMessageFace("k_mermaid_fc1",0,0,2,2)
  ShowMessage("\\n<Mermaid Pirate>こんなの、卑怯でしょー！？")
  0()



EVENT   194
 PAGE   1
  ShowMessageFace("tatunoko_k_fc1",1,0,2,1)
  ShowMessage("\\n<Sea Horse Marine>海兵集団奥義、ボコボコの陣！")
  ShowMessageFace("k_mermaid_fc1",0,0,2,2)
  ShowMessage("\\n<Mermaid Pirate>こんなの、卑怯でしょー！？")
  0()



EVENT   195
 PAGE   1
  ShowMessageFace("tatunoko_k_fc1",1,0,2,1)
  ShowMessage("\\n<Sea Horse Marine>海兵集団奥義、ボコボコの陣！")
  ShowMessageFace("k_mermaid_fc1",0,0,2,2)
  ShowMessage("\\n<Mermaid Pirate>こんなの、卑怯でしょー！？")
  0()



EVENT   196
 PAGE   1
  ShowMessageFace("knight_mermaid_fc1",0,0,2,1)
  ShowMessage("\\n<ナイトマーメイド>……………………")
  0()



EVENT   197
 PAGE   1
  ShowMessageFace("dog_fc1",0,0,2,1)
  ShowMessage("\\n<Dog Girl>Woof, woof!")
  ShowMessageFace("mermaid_fc1",3,0,2,2)
  ShowMessage("\\n<マーメイド>あら、かわいい……")
  ShowMessage("お手できますか？")
  ShowMessageFace("dog_fc1",4,0,2,3)
  ShowMessage("\\n<Dog Girl>わう！")
  ShowMessageFace("mermaid_fc1",3,0,2,4)
  ShowMessage("\\n<マーメイド>うふふっ、いい子……")
  ShowMessage("こんぶ飴をあげますね。")
  ShowMessageFace("dog_fc1",4,0,2,5)
  ShowMessage("\\n<Dog Girl>わう～♪")
  355("actor_label_jump")
  EndEventProcessing()
  DefineLabel("60")
  ShowMessageFace("dog_fc1",0,0,2,6)
  ShowMessage("\\n<Pochi>あたしにはくれないの……？")
  ShowMessageFace("mermaid_fc1",3,0,2,7)
  ShowMessage("\\n<マーメイド>はい、どうぞ。")
  ShowMessageFace("dog_fc1",4,0,2,8)
  ShowMessage("\\n<Pochi>わん♪")
  EndEventProcessing()
  DefineLabel("222")
  ShowMessageFace("nekomata_fc1",2,0,2,9)
  ShowMessage("\\n<Tama>にゃ～ん……")
  ShowMessageFace("mermaid_fc1",3,0,2,10)
  ShowMessage("\\n<マーメイド>あら、この子も欲しいんですか……？")
  ShowMessage("はい、どうぞ。")
  ShowMessageFace("nekomata_fc1",2,0,2,11)
  ShowMessage("\\n<Tama>にゃっ♪")
  EndEventProcessing()
  0()



EVENT   198
 PAGE   1
  ShowMessageFace("knight_mermaid_fc1",0,0,2,1)
  ShowMessage("\\n<ナイトマーメイド>邪魔はさせないわ……行くわよ！")
  If(4,220,0)
   ShowMessageFace("samuraielf_fc1",0,0,2,2)
   ShowMessage("\\n<月花>いざ、参る……！")
   0()
  EndIf()
  Battle(0,795,false,false)
  TemporaryRemoveEvent()
  0()



EVENT   199
 PAGE   1
  ShowMessageFace("mermaid_fc1",3,0,2,1)
  ShowMessage("\\n<マーメイド>あなたの精、美味しそうね……")
  ShowMessage("お姉さんとイイ事しましょ♪")
  If(4,215,0)
   ShowMessageFace("h_mino_fc1",0,0,2,2)
   ShowMessage("\\n<キャロル>あら、残念……")
   ShowMessage("お姉さんが、もっとイイ事をしてあげるわね！")
   0()
  EndIf()
  Battle(0,594,false,false)
  TemporaryRemoveEvent()
  0()



EVENT   200
 PAGE   1
  ShowMessageFace("",0,0,2,1)
  ShowMessage("\\n<剣士>こいつは俺に任せろ……！")
  ShowMessageFace("knight_mermaid_fc1",0,0,2,2)
  ShowMessage("\\n<ナイトマーメイド>さすがは聖都、腕の立つ者が多いわね……！")
  0()



EVENT   201
 PAGE   1
  ShowMessageFace("g_marmaid_fc1",0,0,2,1)
  ShowMessage("\\n<ジェネラルマーメイド>ここらの男は張り合いがないわね……")
  ShowMessage("あんた、私の相手をしてみる？")
  If(4,212,0)
   ShowMessageFace("durahan_fc1",0,0,2,2)
   ShowMessage("\\n<Arthur>女王の親衛隊か……")
   ShowMessage("相手にとって、不足はない！")
   0()
  EndIf()
  Battle(0,796,false,false)
  TemporaryRemoveEvent()
  0()



EVENT   202
 PAGE   1
  ShowMessageFace("",0,0,2,1)
  ShowMessage("\\n<騎士>この強さ、女王の親衛隊か……")
  0()



EVENT   203
 PAGE   1
  ShowMessageFace("",0,0,2,1)
  ShowMessage("\\n<Soldier>つ、強い……")
  0()



EVENT   204
 PAGE   1
  ShowMessageFace("g_marmaid_fc1",0,0,2,1)
  ShowMessage("\\n<ジェネラルマーメイド>人間……やはりこの程度ね。")
  ShowMessageFace("",0,0,2,2)
  ShowMessage("\\n<騎士Ａ>三人掛かりで、足止めが精一杯とは……！")
  ShowMessageFace("",0,0,2,3)
  ShowMessage("\\n<騎士Ｂ>騎士の誇りにかけて、こいつはここで倒す……！")
  0()



EVENT   205
 PAGE   1
  ShowMessageFace("g_marmaid_fc1",0,0,2,1)
  ShowMessage("\\n<ジェネラルマーメイド>人間……やはりこの程度ね。")
  ShowMessageFace("",0,0,2,2)
  ShowMessage("\\n<騎士Ａ>三人掛かりで、足止めが精一杯とは……！")
  ShowMessageFace("",0,0,2,3)
  ShowMessage("\\n<騎士Ｂ>騎士の誇りにかけて、こいつはここで倒す……！")
  0()



EVENT   206
 PAGE   1
  ShowMessageFace("g_marmaid_fc1",0,0,2,1)
  ShowMessage("\\n<ジェネラルマーメイド>人間……やはりこの程度ね。")
  ShowMessageFace("",0,0,2,2)
  ShowMessage("\\n<騎士Ａ>三人掛かりで、足止めが精一杯とは……！")
  ShowMessageFace("",0,0,2,3)
  ShowMessage("\\n<騎士Ｂ>騎士の誇りにかけて、こいつはここで倒す……！")
  0()



EVENT   207
 PAGE   1
  ShowMessageFace("g_marmaid_fc1",0,0,2,1)
  ShowMessage("\\n<ジェネラルマーメイド>人間……やはりこの程度ね。")
  ShowMessageFace("",0,0,2,2)
  ShowMessage("\\n<騎士Ａ>三人掛かりで、足止めが精一杯とは……！")
  ShowMessageFace("",0,0,2,3)
  ShowMessage("\\n<騎士Ｂ>騎士の誇りにかけて、こいつはここで倒す……！")
  0()



EVENT   208
 PAGE   1
  ShowMessageFace("",0,0,2,1)
  ShowMessage("\\n<Soldier>う……ぐぅ……")
  0()



EVENT   209
 PAGE   1
  0()



EVENT   210
 PAGE   1
  ShowMessageFace("",0,0,2,1)
  ShowMessage("\\n<Soldier>う……ぐぅ……")
  0()



EVENT   211
 PAGE   1
  ShowMessageFace("",0,0,2,1)
  ShowMessage("\\n<神官>どうか、救いを……")
  0()



EVENT   212
 PAGE   1
  ShowMessageFace("",2,0,2,1)
  ShowMessage("\\n<騎士>これ以上の狼藉は許さん！")
  ShowMessageFace("mermaid_fc1",3,0,2,2)
  ShowMessage("\\n<マーメイド>いきの良い人間……後でたっぷり犯してあげるわ。")
  0()



EVENT   213
 PAGE   1
  ShowMessageFace("",2,0,2,1)
  ShowMessage("\\n<騎士>これ以上の狼藉は許さん！")
  ShowMessageFace("mermaid_fc1",3,0,2,2)
  ShowMessage("\\n<マーメイド>いきの良い人間……後でたっぷり犯してあげるわ。")
  0()



EVENT   214
 PAGE   1
  ShowMessageFace("",0,0,2,1)
  ShowMessage("\\n<神官>ああ、神よ……")
  0()



EVENT   215
 PAGE   1
  ShowMessageFace("",0,0,2,1)
  ShowMessage("\\n<神官>聖なるオーラで、対抗します！")
  ShowMessageFace("mermaid_fc1",3,0,2,2)
  ShowMessage("\\n<マーメイド>ああもう、面倒ね……！")
  0()



EVENT   216
 PAGE   1
  ShowMessageFace("",0,0,2,1)
  ShowMessage("\\n<神官>聖なるオーラで、対抗します！")
  ShowMessageFace("mermaid_fc1",3,0,2,2)
  ShowMessage("\\n<マーメイド>ああもう、面倒ね……！")
  0()



EVENT   217
 PAGE   1
  ShowMessageFace("",0,0,2,1)
  ShowMessage("\\n<神官>聖なるオーラで、対抗します！")
  ShowMessageFace("mermaid_fc1",3,0,2,2)
  ShowMessage("\\n<マーメイド>ああもう、面倒ね……！")
  0()



EVENT   218
 PAGE   1
  ShowMessageFace("",0,0,2,1)
  ShowMessage("\\n<神官>信心が足りなかった……")
  0()



EVENT   219
 PAGE   1
  ShowMessageFace("",0,0,2,1)
  ShowMessage("\\n<神官>神よ……")
  0()



EVENT   220
 PAGE   1
  ShowMessageFace("knight_mermaid_fc1",0,0,2,1)
  ShowMessage("\\n<ナイトマーメイド>骨がありそうね……尋常に、勝負！")
  If(4,267,0)
   ShowMessageFace("mononohuyonbi_fc1",0,0,2,2)
   ShowMessage("\\n<イヅナ>いざ、行くぞ！")
   0()
  EndIf()
  Battle(0,795,false,false)
  TemporaryRemoveEvent()
  0()



EVENT   221
 PAGE   1
  0()



EVENT   222
 PAGE   1
  0()



EVENT   223
 PAGE   1
  0()



EVENT   224
 PAGE   1
  0()



EVENT   225
 PAGE   1
  0()



EVENT   226
 PAGE   1
  0()



EVENT   227
 PAGE   1
  0()



EVENT   228
 PAGE   1
  0()



EVENT   229
 PAGE   1
  0()



EVENT   230
 PAGE   1
  0()



EVENT   231
 PAGE   1
  0()



EVENT   232
 PAGE   1
  0()



EVENT   233
 PAGE   1
  0()



EVENT   234
 PAGE   1
  0()



EVENT   235
 PAGE   1
  0()



EVENT   236
 PAGE   1
  ShowMessageFace("knight_mermaid_fc1",0,0,2,1)
  ShowMessage("\\n<ナイトマーメイド>……………………")
  0()



EVENT   237
 PAGE   1
  ShowMessageFace("",0,0,2,1)
  ShowMessage("城門前で激闘が繰り広げられている！")
  0()



EVENT   238
 PAGE   1
  ShowMessageFace("",0,0,2,1)
  ShowMessage("城門前で激闘が繰り広げられている！")
  0()



EVENT   239
 PAGE   1
  0()



EVENT   240
 PAGE   1
  0()



EVENT   241
 PAGE   1
  ShowMessageFace("",0,0,2,1)
  ShowMessage("城門前で激闘が繰り広げられている！")
  0()



EVENT   242
 PAGE   1
  ShowMessageFace("",0,0,2,1)
  ShowMessage("\\n<Soldier>もう戦えない……")
  0()



EVENT   243
 PAGE   1
  ShowMessageFace("",0,0,2,1)
  ShowMessage("城門前で激闘が繰り広げられている！")
  0()



EVENT   244
 PAGE   1
  ShowMessageFace("",0,0,2,1)
  ShowMessage("城門前で激闘が繰り広げられている！")
  0()



EVENT   245
 PAGE   1
  ShowMessageFace("",0,0,2,1)
  ShowMessage("\\n<騎士>我ながら、情けない……")
  0()



EVENT   246
 PAGE   1
  PictureDisplay(5,"80_loreley_st01",0,0,0,0,100,100,0,0)
  PictureMove(5,null,0,0,0,0,100,100,255,0,30,true)
  ShowMessageFace("loreley_fc1",0,0,2,1)
  ShowMessage("\\n<ローレライ>……………………")
  ShowMessageFace("",0,0,2,2)
  ShowMessage("\\n<Soldier>う、うぅぅ……")
  ShowMessageFace("",0,0,2,3)
  ShowMessage("\\n<騎士>この人魚、信じられない強さだ……")
  ShowMessageFace("loreley_fc1",0,0,2,4)
  ShowMessage("\\n<ローレライ>エル様の元には行かせないわ……")
  ShowMessageFace("ruka_fc1",0,0,2,5)
  ShowMessage("\\n<Luka>なら、押し通る！")
  If(4,15,0)
   ShowMessageFace("salamander_fc1",2,0,2,6)
   ShowMessage("\\n<Salamander>焼き尽くしてくれよう！")
   0()
  EndIf()
  PictureClear(5)
  Battle(0,798,false,false)
  ShowMessageFace("loreley_fc1",0,0,2,7)
  ShowMessage("\\n<ローレライ>エル様……")
  ChangeSwitch(2226,2226,0)
  205(-1,bytes(0x04,0x08,0x6f,0x3a,0x13,0x52,0x50,0x47,0x3a,0x3a,0x4d,0x6f,0x76,0x65,0x52,0x6f,0x75,0x74,0x65,0x09,0x3a,0x0c,0x40,0x72,0x65,0x70,0x65,0x61,0x74,0x46,0x3a,0x0f,0x40,0x73,0x6b,0x69,0x70,0x70,0x61,0x62,0x6c,0x65,0x46,0x3a,0x0a,0x40,0x77,0x61,0x69,0x74,0x54,0x3a,0x0a,0x40,0x6c,0x69,0x73,0x74,0x5b,0x07,0x6f,0x3a,0x15,0x52,0x50,0x47,0x3a,0x3a,0x4d,0x6f,0x76,0x65,0x43,0x6f,0x6d,0x6d,0x61,0x6e,0x64,0x07,0x3a,0x0a,0x40,0x63,0x6f,0x64,0x65,0x69,0x18,0x3a,0x10,0x40,0x70,0x61,0x72,0x61,0x6d,0x65,0x74,0x65,0x72,0x73,0x5b,0x00,0x6f,0x3b,0x0a,0x07,0x3b,0x0b,0x69,0x00,0x3b,0x0c,0x5b,0x00))
  ScrollMap(8,5,5)
  Wait(60)
  205(105,bytes(0x04,0x08,0x6f,0x3a,0x13,0x52,0x50,0x47,0x3a,0x3a,0x4d,0x6f,0x76,0x65,0x52,0x6f,0x75,0x74,0x65,0x09,0x3a,0x0c,0x40,0x72,0x65,0x70,0x65,0x61,0x74,0x46,0x3a,0x0f,0x40,0x73,0x6b,0x69,0x70,0x70,0x61,0x62,0x6c,0x65,0x46,0x3a,0x0a,0x40,0x77,0x61,0x69,0x74,0x54,0x3a,0x0a,0x40,0x6c,0x69,0x73,0x74,0x5b,0x08,0x6f,0x3a,0x15,0x52,0x50,0x47,0x3a,0x3a,0x4d,0x6f,0x76,0x65,0x43,0x6f,0x6d,0x6d,0x61,0x6e,0x64,0x07,0x3a,0x0a,0x40,0x63,0x6f,0x64,0x65,0x69,0x13,0x3a,0x10,0x40,0x70,0x61,0x72,0x61,0x6d,0x65,0x74,0x65,0x72,0x73,0x5b,0x07,0x69,0x00,0x69,0x00,0x6f,0x3b,0x0a,0x07,0x3b,0x0b,0x69,0x13,0x3b,0x0c,0x5b,0x07,0x69,0x00,0x69,0x00,0x6f,0x3b,0x0a,0x07,0x3b,0x0b,0x69,0x00,0x3b,0x0c,0x5b,0x00))
  PictureDisplay(5,"80_ningyohime_st05",0,0,0,0,100,100,0,0)
  PictureMove(5,null,0,0,0,0,100,100,255,0,30,true)
  ShowMessageFace("ningyohime_fc1",4,0,2,8)
  ShowMessage("\\n<エル>いけいけ～！　やっちゃえ～！")
  If(0,4,0)
   ShowMessageFace("alice_fc5",2,0,2,9)
   ShowMessage("\\n<Alice>あれは……クィーンマーメイドの娘、人魚姫か。")
   ShowMessage("この軍は奴が率いているようだな。")
   0()
  EndIf()
  If(0,5,0)
   ShowMessageFace("iriasu_fc4",7,0,2,10)
   ShowMessage("\\n<Ilias>あれは……クィーンマーメイドの娘、人魚姫ですね。")
   ShowMessage("この軍はあの者が率いているようです。")
   0()
  EndIf()
  PictureDisplay(5,"80_ningyohime_st07",0,0,0,0,100,100,255,0)
  ShowMessageFace("ningyohime_fc1",6,0,2,11)
  ShowMessage("\\n<エル>いけいけ～！　……わぁ、あれ何？")
  If(0,6,0)
   ShowMessageFace("sonia_fc3",7,0,2,12)
   ShowMessage("\\n<Sonya>見て！　城壁に、ものすごい大砲が……！！")
   0()
  Else()
   ShowMessageFace("ruka_fc1",0,0,2,13)
   ShowMessage("\\n<Luka>城壁に、ものすごい大砲が……！！")
   0()
  EndIf()
  If(4,531,0)
   ShowMessageFace("saniria_fc2",0,0,2,14)
   ShowMessage("\\n<King of San Ilia>ほう……この局面に、間に合ったか。")
   0()
  EndIf()
  PictureClear(5)
  ShowMessageFace("",0,0,2,15)
  ShowMessage("\\n<サン・イリア技師Ａ>よし、発射準備完了だ！")
  ShowMessageFace("",0,0,2,16)
  ShowMessage("\\n<サン・イリア技師Ｂ>8.8cm滅魔教会砲……発射！")
  212(105,785,true)
  205(105,bytes(0x04,0x08,0x6f,0x3a,0x13,0x52,0x50,0x47,0x3a,0x3a,0x4d,0x6f,0x76,0x65,0x52,0x6f,0x75,0x74,0x65,0x09,0x3a,0x0c,0x40,0x72,0x65,0x70,0x65,0x61,0x74,0x46,0x3a,0x0f,0x40,0x73,0x6b,0x69,0x70,0x70,0x61,0x62,0x6c,0x65,0x46,0x3a,0x0a,0x40,0x77,0x61,0x69,0x74,0x54,0x3a,0x0a,0x40,0x6c,0x69,0x73,0x74,0x5b,0x07,0x6f,0x3a,0x15,0x52,0x50,0x47,0x3a,0x3a,0x4d,0x6f,0x76,0x65,0x43,0x6f,0x6d,0x6d,0x61,0x6e,0x64,0x07,0x3a,0x0a,0x40,0x63,0x6f,0x64,0x65,0x69,0x13,0x3a,0x10,0x40,0x70,0x61,0x72,0x61,0x6d,0x65,0x74,0x65,0x72,0x73,0x5b,0x07,0x69,0x00,0x69,0x00,0x6f,0x3b,0x0a,0x07,0x3b,0x0b,0x69,0x00,0x3b,0x0c,0x5b,0x00))
  ShowMessageFace("ningyohime_fc2",0,0,2,17)
  ShowMessage("\\n<エル>うわ～ん！")
  205(-1,bytes(0x04,0x08,0x6f,0x3a,0x13,0x52,0x50,0x47,0x3a,0x3a,0x4d,0x6f,0x76,0x65,0x52,0x6f,0x75,0x74,0x65,0x09,0x3a,0x0c,0x40,0x72,0x65,0x70,0x65,0x61,0x74,0x46,0x3a,0x0f,0x40,0x73,0x6b,0x69,0x70,0x70,0x61,0x62,0x6c,0x65,0x46,0x3a,0x0a,0x40,0x77,0x61,0x69,0x74,0x54,0x3a,0x0a,0x40,0x6c,0x69,0x73,0x74,0x5b,0x07,0x6f,0x3a,0x15,0x52,0x50,0x47,0x3a,0x3a,0x4d,0x6f,0x76,0x65,0x43,0x6f,0x6d,0x6d,0x61,0x6e,0x64,0x07,0x3a,0x0a,0x40,0x63,0x6f,0x64,0x65,0x69,0x15,0x3a,0x10,0x40,0x70,0x61,0x72,0x61,0x6d,0x65,0x74,0x65,0x72,0x73,0x5b,0x00,0x6f,0x3b,0x0a,0x07,0x3b,0x0b,0x69,0x00,0x3b,0x0c,0x5b,0x00))
  205(105,bytes(0x04,0x08,0x6f,0x3a,0x13,0x52,0x50,0x47,0x3a,0x3a,0x4d,0x6f,0x76,0x65,0x52,0x6f,0x75,0x74,0x65,0x09,0x3a,0x0c,0x40,0x72,0x65,0x70,0x65,0x61,0x74,0x46,0x3a,0x0f,0x40,0x73,0x6b,0x69,0x70,0x70,0x61,0x62,0x6c,0x65,0x46,0x3a,0x0a,0x40,0x77,0x61,0x69,0x74,0x54,0x3a,0x0a,0x40,0x6c,0x69,0x73,0x74,0x5b,0x19,0x6f,0x3a,0x15,0x52,0x50,0x47,0x3a,0x3a,0x4d,0x6f,0x76,0x65,0x43,0x6f,0x6d,0x6d,0x61,0x6e,0x64,0x07,0x3a,0x0a,0x40,0x63,0x6f,0x64,0x65,0x69,0x29,0x3a,0x10,0x40,0x70,0x61,0x72,0x61,0x6d,0x65,0x74,0x65,0x72,0x73,0x5b,0x00,0x6f,0x3b,0x0a,0x07,0x3b,0x0b,0x69,0x2a,0x3b,0x0c,0x5b,0x00,0x6f,0x3b,0x0a,0x07,0x3b,0x0b,0x69,0x22,0x3b,0x0c,0x5b,0x06,0x69,0x0b,0x6f,0x3b,0x0a,0x07,0x3b,0x0b,0x69,0x23,0x3b,0x0c,0x5b,0x06,0x69,0x0a,0x6f,0x3b,0x0a,0x07,0x3b,0x0b,0x69,0x06,0x3b,0x0c,0x5b,0x00,0x6f,0x3b,0x0a,0x07,0x3b,0x0b,0x69,0x06,0x3b,0x0c,0x5b,0x00,0x6f,0x3b,0x0a,0x07,0x3b,0x0b,0x69,0x06,0x3b,0x0c,0x5b,0x00,0x6f,0x3b,0x0a,0x07,0x3b,0x0b,0x69,0x06,0x3b,0x0c,0x5b,0x00,0x6f,0x3b,0x0a,0x07,0x3b,0x0b,0x69,0x06,0x3b,0x0c,0x5b,0x00,0x6f,0x3b,0x0a,0x07,0x3b,0x0b,0x69,0x06,0x3b,0x0c,0x5b,0x00,0x6f,0x3b,0x0a,0x07,0x3b,0x0b,0x69,0x06,0x3b,0x0c,0x5b,0x00,0x6f,0x3b,0x0a,0x07,0x3b,0x0b,0x69,0x06,0x3b,0x0c,0x5b,0x00,0x6f,0x3b,0x0a,0x07,0x3b,0x0b,0x69,0x06,0x3b,0x0c,0x5b,0x00,0x6f,0x3b,0x0a,0x07,0x3b,0x0b,0x69,0x06,0x3b,0x0c,0x5b,0x00,0x6f,0x3b,0x0a,0x07,0x3b,0x0b,0x69,0x06,0x3b,0x0c,0x5b,0x00,0x6f,0x3b,0x0a,0x07,0x3b,0x0b,0x69,0x06,0x3b,0x0c,0x5b,0x00,0x6f,0x3b,0x0a,0x07,0x3b,0x0b,0x69,0x06,0x3b,0x0c,0x5b,0x00,0x6f,0x3b,0x0a,0x07,0x3b,0x0b,0x69,0x06,0x3b,0x0c,0x5b,0x00,0x6f,0x3b,0x0a,0x07,0x3b,0x0b,0x69,0x06,0x3b,0x0c,0x5b,0x00,0x6f,0x3b,0x0a,0x07,0x3b,0x0b,0x69,0x00,0x3b,0x0c,0x5b,0x00))
  ScrollMap(2,5,6)
  Wait(60)
  ChangeSwitch(2227,2227,0)
  EndEventProcessing()
  0()
 PAGE   2
  // condition: switch 2226 is ON
  0()



EVENT   247
 PAGE   1
  ShowMessageFace("",0,0,2,1)
  ShowMessage("\\n<騎士>……………………")
  0()



EVENT   248
 PAGE   1
  ShowMessageFace("",0,0,2,1)
  ShowMessage("\\n<Soldier>……………………")
  0()



EVENT   249
 PAGE   1
  ShowMessageFace("",0,0,2,1)
  ShowMessage("\\n<騎士>…………………")
  0()



EVENT   250
 PAGE   1
  ShowMessageFace("",0,0,2,1)
  ShowMessage("\\n<Soldier>……………………")
  0()



EVENT   251
 PAGE   1
  ShowMessageFace("",0,0,2,1)
  ShowMessage("\\n<Soldier>……………………")
  0()



EVENT   252
 PAGE   1
  ShowMessageFace("",0,0,2,1)
  ShowMessage("\\n<騎士>…………………")
  0()



EVENT   253
 PAGE   1
  ShowMessageFace("",0,0,2,1)
  ShowMessage("\\n<Soldier>……………………")
  0()



EVENT   254
 PAGE   1
  ShowMessageFace("",0,0,2,1)
  ShowMessage("\\n<Soldier>……………………")
  0()



EVENT   255
 PAGE   1
  ShowMessageFace("",0,0,2,1)
  ShowMessage("\\n<Soldier>……………………")
  0()



EVENT   256
 PAGE   1
  ShowMessageFace("",0,0,2,1)
  ShowMessage("\\n<Soldier>……………………")
  0()



EVENT   257
 PAGE   1
  ShowMessageFace("g_marmaid_fc1",0,0,2,1)
  ShowMessage("\\n<ジェネラルマーメイド>何を急いでいるのかしら……？")
  ShowMessage("ちょっと付き合ってもらうわよ！")
  If(4,297,0)
   ShowMessageFace("basilisk_fc1",0,0,2,2)
   ShowMessage("\\n<バージリン>ふん……石にしてくれる！")
   0()
  EndIf()
  Battle(0,796,false,false)
  TemporaryRemoveEvent()
  0()



EVENT   258
 PAGE   1
  ShowMessageFace("",0,0,2,1)
  ShowMessage("\\n<神官>どうか、サン・イリアをお守り下さい……")
  0()



EVENT   259
 PAGE   1
  ShowMessageFace("",0,0,2,1)
  ShowMessage("\\n<神官>きっと、勇者様が……")
  0()



EVENT   260
 PAGE   1
  ShowMessageFace("",0,0,2,1)
  ShowMessage("\\n<Young Girl>お魚なんて、きらい……")
  If(4,118,0)
   ShowMessageFace("meia_fc1",3,0,2,2)
   ShowMessage("\\n<Meia>そんな……")
   0()
  EndIf()
  0()



EVENT   261
 PAGE   1
  ShowMessageFace("loreley_fc1",0,0,2,1)
  ShowMessage("\\n<ローレライ>ここは通さないわ……")
  205(-1,bytes(0x04,0x08,0x6f,0x3a,0x13,0x52,0x50,0x47,0x3a,0x3a,0x4d,0x6f,0x76,0x65,0x52,0x6f,0x75,0x74,0x65,0x09,0x3a,0x0c,0x40,0x72,0x65,0x70,0x65,0x61,0x74,0x46,0x3a,0x0f,0x40,0x73,0x6b,0x69,0x70,0x70,0x61,0x62,0x6c,0x65,0x46,0x3a,0x0a,0x40,0x77,0x61,0x69,0x74,0x54,0x3a,0x0a,0x40,0x6c,0x69,0x73,0x74,0x5b,0x07,0x6f,0x3a,0x15,0x52,0x50,0x47,0x3a,0x3a,0x4d,0x6f,0x76,0x65,0x43,0x6f,0x6d,0x6d,0x61,0x6e,0x64,0x07,0x3a,0x0a,0x40,0x63,0x6f,0x64,0x65,0x69,0x06,0x3a,0x10,0x40,0x70,0x61,0x72,0x61,0x6d,0x65,0x74,0x65,0x72,0x73,0x5b,0x00,0x6f,0x3b,0x0a,0x07,0x3b,0x0b,0x69,0x00,0x3b,0x0c,0x5b,0x00))
  0()
 PAGE   2
  // condition: switch 2227 is ON
  0()



EVENT   262
 PAGE   1
  ShowMessageFace("loreley_fc1",0,0,2,1)
  ShowMessage("\\n<ローレライ>ここは通さないわ……")
  205(-1,bytes(0x04,0x08,0x6f,0x3a,0x13,0x52,0x50,0x47,0x3a,0x3a,0x4d,0x6f,0x76,0x65,0x52,0x6f,0x75,0x74,0x65,0x09,0x3a,0x0c,0x40,0x72,0x65,0x70,0x65,0x61,0x74,0x46,0x3a,0x0f,0x40,0x73,0x6b,0x69,0x70,0x70,0x61,0x62,0x6c,0x65,0x46,0x3a,0x0a,0x40,0x77,0x61,0x69,0x74,0x54,0x3a,0x0a,0x40,0x6c,0x69,0x73,0x74,0x5b,0x07,0x6f,0x3a,0x15,0x52,0x50,0x47,0x3a,0x3a,0x4d,0x6f,0x76,0x65,0x43,0x6f,0x6d,0x6d,0x61,0x6e,0x64,0x07,0x3a,0x0a,0x40,0x63,0x6f,0x64,0x65,0x69,0x06,0x3a,0x10,0x40,0x70,0x61,0x72,0x61,0x6d,0x65,0x74,0x65,0x72,0x73,0x5b,0x00,0x6f,0x3b,0x0a,0x07,0x3b,0x0b,0x69,0x00,0x3b,0x0c,0x5b,0x00))
  0()
 PAGE   2
  // condition: switch 2227 is ON
  0()



EVENT   263
 PAGE   1
  0()
 PAGE   2
  // condition: switch 2227 is ON
  241(bytes(0x04,0x08,0x6f,0x3a,0x0d,0x52,0x50,0x47,0x3a,0x3a,0x42,0x47,0x4d,0x08,0x3a,0x0a,0x40,0x6e,0x61,0x6d,0x65,0x49,0x22,0x0a,0x62,0x6f,0x73,0x73,0x30,0x06,0x3a,0x06,0x45,0x54,0x3a,0x0c,0x40,0x76,0x6f,0x6c,0x75,0x6d,0x65,0x69,0x69,0x3a,0x0b,0x40,0x70,0x69,0x74,0x63,0x68,0x69,0x69))
  PictureDisplay(5,"80_ningyohime_st09",0,0,0,0,100,100,0,0)
  PictureMove(5,null,0,0,0,0,100,100,255,0,60,true)
  ShowMessageFace("ningyohime_fc2",0,0,2,1)
  ShowMessage("\\n<エル>うわ～ん、ひどいよ～！")
  ShowMessage("痛かったよ～！")
  If(0,4,0)
   ShowMessageFace("alice_fc6",1,0,2,2)
   ShowMessage("\\n<Alice>何をボケた事を言っている！")
   ShowMessage("貴様以上に痛い思いをしている者が、ここにはいくらでもいるのだぞ！")
   0()
  EndIf()
  If(0,5,0)
   ShowMessageFace("iriasu_fc4",7,0,2,3)
   ShowMessage("\\n<Ilias>何を寝言を言っているのです！")
   ShowMessage("この聖都に、大いなる苦痛をばら撒いておきながら！")
   0()
  EndIf()
  PictureDisplay(5,"80_ningyohime_st03",0,0,0,0,100,100,255,0)
  ShowMessageFace("ningyohime_fc1",2,0,2,4)
  ShowMessage("\\n<エル>だって、人間は悪者なんだよ！")
  ShowMessage("お母さんが言ってたもん、人間は滅びても仕方ない悪だって……！")
  If(0,4,0)
   ShowMessageFace("alice_fc5",2,0,2,5)
   ShowMessage("\\n<Alice>母にそう吹き込まれ、暴虐の尖兵となったわけか……")
   ShowMessage("自身の憎悪を娘に受け継がせるとは、愚かな母よ。")
   0()
  EndIf()
  If(0,5,0)
   ShowMessageFace("iriasu_fc4",7,0,2,6)
   ShowMessage("\\n<Ilias>あの惨めな母親に、人間への怒りを吹き込まれましたか……")
   ShowMessage("その挙げ句がこの暴虐とは、愚かさ極まります！")
   0()
  EndIf()
  ShowMessageFace("ningyohime_fc1",2,0,2,7)
  ShowMessage("\\n<エル>あっ、お母さんの悪口を言ったな！")
  ShowMessage("あたし、本当に怒ったから～！")
  If(4,14,0)
   ShowMessageFace("undine_fc1",2,0,2,8)
   ShowMessage("\\n<Undine>まるで子供のケンカね……")
   0()
  EndIf()
  ShowMessageFace("ruka_fc1",0,0,2,9)
  ShowMessage("\\n<Luka>これは遊びじゃないんだ、軍を引いてくれないか？")
  ShowMessage("さもないと、君と戦うしかなくなるんだ……")
  ShowMessageFace("ningyohime_fc1",2,0,2,10)
  ShowMessage("\\n<エル>あたしだって、遊びじゃないよ！")
  ShowMessage("次期女王として、軍を指揮して戦うんだから！")
  If(0,4,0)
   ShowMessageFace("alice_fc5",2,0,2,11)
   ShowMessage("\\n<Alice>ふん、未熟者め……")
   ShowMessage("軍を指揮するより先に、学ぶ事があろう。")
   0()
  EndIf()
  If(0,5,0)
   ShowMessageFace("iriasu_fc4",2,0,2,12)
   ShowMessage("\\n<Ilias>なんと未熟なのでしょう……")
   ShowMessage("軍を指揮するより先に、学ぶ事があるはずです。")
   0()
  EndIf()
  ShowMessageFace("ningyohime_fc1",2,0,2,13)
  ShowMessage("\\n<エル>次期女王は、絶対に退かないんだから！")
  ShowMessage("人間の味方は、みんなやっつけちゃうからね～！")
  If(4,327,0)
   ShowMessageFace("ningyohime_fc1",2,0,2,14)
   ShowMessage("\\n<エル’>そんな事しちゃダメだよ～！")
   ShowMessage("後悔するのは、自分なんだからね！")
   ShowMessageFace("ningyohime_fc1",2,0,2,15)
   ShowMessage("\\n<エル>あたしの格好を真似たって、無駄だから！")
   ShowMessage("人間の悪巧みには引っ掛からないぞ～！")
   0()
  EndIf()
  If(4,45,0)
   ShowMessageFace("alicetromeria_fc1",4,0,2,16)
   ShowMessage("\\n<Alicetroemeria>ああ、可哀想な人魚姫。")
   ShowMessage("泡となって消え果てるのでしょうか……")
   0()
  EndIf()
  PictureClear(5)
  SetBattleBGM(bytes(0x04,0x08,0x6f,0x3a,0x0d,0x52,0x50,0x47,0x3a,0x3a,0x42,0x47,0x4d,0x08,0x3a,0x0a,0x40,0x6e,0x61,0x6d,0x65,0x49,0x22,0x0a,0x62,0x6f,0x73,0x73,0x31,0x06,0x3a,0x06,0x45,0x54,0x3a,0x0c,0x40,0x76,0x6f,0x6c,0x75,0x6d,0x65,0x69,0x69,0x3a,0x0b,0x40,0x70,0x69,0x74,0x63,0x68,0x69,0x69))
  ChangeSwitch(22,22,0)
  Battle(0,801,false,false)
  ChangeSwitch(22,22,1)
  SetBattleBGM(bytes(0x04,0x08,0x6f,0x3a,0x0d,0x52,0x50,0x47,0x3a,0x3a,0x42,0x47,0x4d,0x08,0x3a,0x0a,0x40,0x6e,0x61,0x6d,0x65,0x49,0x22,0x0b,0x62,0x61,0x74,0x74,0x6c,0x65,0x06,0x3a,0x06,0x45,0x54,0x3a,0x0c,0x40,0x76,0x6f,0x6c,0x75,0x6d,0x65,0x69,0x69,0x3a,0x0b,0x40,0x70,0x69,0x74,0x63,0x68,0x69,0x69))
  241(bytes(0x04,0x08,0x6f,0x3a,0x0d,0x52,0x50,0x47,0x3a,0x3a,0x42,0x47,0x4d,0x08,0x3a,0x0a,0x40,0x6e,0x61,0x6d,0x65,0x49,0x22,0x14,0x73,0x63,0x65,0x6e,0x65,0x5f,0x65,0x70,0x69,0x6c,0x6f,0x67,0x75,0x65,0x32,0x06,0x3a,0x06,0x45,0x54,0x3a,0x0c,0x40,0x76,0x6f,0x6c,0x75,0x6d,0x65,0x69,0x69,0x3a,0x0b,0x40,0x70,0x69,0x74,0x63,0x68,0x69,0x69))
  PictureDisplay(5,"80_ningyohime_st08",0,0,0,0,100,100,0,0)
  PictureMove(5,null,0,0,0,0,100,100,255,0,30,true)
  ShowMessageFace("ningyohime_fc1",7,0,2,17)
  ShowMessage("\\n<エル>そんなぁ……")
  ShowMessage("あたしは次期女王なのに、負けちゃうなんて……")
  ShowMessageFace("ningyohime_fc2",0,0,2,18)
  ShowMessage("\\n<エル>おか～さ～ん！！")
  PictureClear(5)
  Wait(60)
  205(0,bytes(0x04,0x08,0x6f,0x3a,0x13,0x52,0x50,0x47,0x3a,0x3a,0x4d,0x6f,0x76,0x65,0x52,0x6f,0x75,0x74,0x65,0x09,0x3a,0x0c,0x40,0x72,0x65,0x70,0x65,0x61,0x74,0x46,0x3a,0x0f,0x40,0x73,0x6b,0x69,0x70,0x70,0x61,0x62,0x6c,0x65,0x46,0x3a,0x0a,0x40,0x77,0x61,0x69,0x74,0x54,0x3a,0x0a,0x40,0x6c,0x69,0x73,0x74,0x5b,0x18,0x6f,0x3a,0x15,0x52,0x50,0x47,0x3a,0x3a,0x4d,0x6f,0x76,0x65,0x43,0x6f,0x6d,0x6d,0x61,0x6e,0x64,0x07,0x3a,0x0a,0x40,0x63,0x6f,0x64,0x65,0x69,0x2a,0x3a,0x10,0x40,0x70,0x61,0x72,0x61,0x6d,0x65,0x74,0x65,0x72,0x73,0x5b,0x00,0x6f,0x3b,0x0a,0x07,0x3b,0x0b,0x69,0x22,0x3b,0x0c,0x5b,0x06,0x69,0x0a,0x6f,0x3b,0x0a,0x07,0x3b,0x0b,0x69,0x23,0x3b,0x0c,0x5b,0x06,0x69,0x09,0x6f,0x3b,0x0a,0x07,0x3b,0x0b,0x69,0x06,0x3b,0x0c,0x5b,0x00,0x6f,0x3b,0x0a,0x07,0x3b,0x0b,0x69,0x06,0x3b,0x0c,0x5b,0x00,0x6f,0x3b,0x0a,0x07,0x3b,0x0b,0x69,0x06,0x3b,0x0c,0x5b,0x00,0x6f,0x3b,0x0a,0x07,0x3b,0x0b,0x69,0x06,0x3b,0x0c,0x5b,0x00,0x6f,0x3b,0x0a,0x07,0x3b,0x0b,0x69,0x06,0x3b,0x0c,0x5b,0x00,0x6f,0x3b,0x0a,0x07,0x3b,0x0b,0x69,0x06,0x3b,0x0c,0x5b,0x00,0x6f,0x3b,0x0a,0x07,0x3b,0x0b,0x69,0x06,0x3b,0x0c,0x5b,0x00,0x6f,0x3b,0x0a,0x07,0x3b,0x0b,0x69,0x06,0x3b,0x0c,0x5b,0x00,0x6f,0x3b,0x0a,0x07,0x3b,0x0b,0x69,0x06,0x3b,0x0c,0x5b,0x00,0x6f,0x3b,0x0a,0x07,0x3b,0x0b,0x69,0x06,0x3b,0x0c,0x5b,0x00,0x6f,0x3b,0x0a,0x07,0x3b,0x0b,0x69,0x06,0x3b,0x0c,0x5b,0x00,0x6f,0x3b,0x0a,0x07,0x3b,0x0b,0x69,0x06,0x3b,0x0c,0x5b,0x00,0x6f,0x3b,0x0a,0x07,0x3b,0x0b,0x69,0x06,0x3b,0x0c,0x5b,0x00,0x6f,0x3b,0x0a,0x07,0x3b,0x0b,0x69,0x06,0x3b,0x0c,0x5b,0x00,0x6f,0x3b,0x0a,0x07,0x3b,0x0b,0x69,0x06,0x3b,0x0c,0x5b,0x00,0x6f,0x3b,0x0a,0x07,0x3b,0x0b,0x69,0x00,0x3b,0x0c,0x5b,0x00))
  If(0,6,0)
   ShowMessageFace("sonia_fc4",0,0,2,19)
   ShowMessage("\\n<Sonya>なんだか、悪い事しちゃった気分……")
   0()
  Else()
   ShowMessageFace("ruka_fc1",0,0,2,20)
   ShowMessage("\\n<Luka>なんだか、悪い事しちゃった気分……")
   0()
  EndIf()
  If(4,15,0)
   ShowMessageFace("salamander_fc1",2,0,2,21)
   ShowMessage("\\n<Salamander>ふん……お仕置きとしては生優しいくらいだ。")
   0()
  EndIf()
  If(0,4,0)
   ShowMessageFace("alice_fc5",0,0,2,22)
   ShowMessage("\\n<Alice>次期女王、次期女王と……")
   ShowMessage("自分の立場に、完全に惑わされきっているな。")
   ShowMessageFace("alice_fc5",2,0,2,23)
   ShowMessage("\\n<Alice>本当に悪いのは、娘に人間への憎悪を吹き込んだ母親なのだが……")
   ShowMessage("ともかく、これで人魚の軍も退くだろう。")
   0()
  EndIf()
  If(0,5,0)
   ShowMessageFace("iriasu_fc4",2,0,2,24)
   ShowMessage("\\n<Ilias>次期女王、次期女王と……")
   ShowMessage("自分の立場に、完全に惑わされきっていますね。")
   ShowMessageFace("iriasu_fc4",0,0,2,25)
   ShowMessage("\\n<Ilias>人間への憎悪を吹き込んだ母親も、叩きのめしてやらねば……")
   ShowMessage("ともかく、これで人魚の軍も退くでしょう。")
   0()
  EndIf()
  If(4,531,0)
   ShowMessageFace("saniria_fc2",0,0,2,26)
   ShowMessage("\\n<King of San Ilia>あの人魚姫には、導きが必要であろう……")
   0()
  EndIf()
  If(4,118,0)
   ShowMessageFace("meia_fc1",3,0,2,27)
   ShowMessage("\\n<Meia>しかし、なんという事でしょう……")
   ShowMessage("私の同胞が、こんな恐ろしい破壊を……")
   0()
  EndIf()
  If(4,201,0)
   ShowMessageFace("ashel_fc1",0,0,2,28)
   ShowMessage("\\n<Ashel>人魚のイメージは最悪になるだろうね……")
   ShowMessage("まったく、仕事がやりにくくなるよ。")
   0()
  EndIf()
  ChangeSwitch(2162,2162,0)
  314(0,0)
  RunCommonEvent(328)
  If(0,2273,0)
   EndEventProcessing()
   0()
  EndIf()
  ShowMessageFace("ruka_fc1",0,0,2,29)
  ShowMessage("\\n<Luka>ゆっくりしてはいられない！")
  ShowMessage("他の国が、まだ攻撃を受けているんだ！")
  221()
  ShowMessageFace("",0,0,2,30)
  ShowMessage("こうして僕達は、人魚の軍団を撃退した。")
  ShowMessage("しかし休む暇さえなく、サン・イリアを後にしなければならない。")
  ShowMessageFace("",0,0,2,31)
  ShowMessage("四大国を襲う、魔王軍の大攻勢――")
  ShowMessage("全力を尽くし、なんとしても防がなければ。")
  Wait(60)
  TeleportPlayer(0,2,236,261,2,0)
  222()
  EndEventProcessing()
  0()


